URL,Status,Response Code,Protocol,Method,Content-Type,Client Address,Client Port,Remote Address,Remote Port,Exception,Request Start Time,Request End Time,Response Start Time,Response End Time,Duration (ms),DNS Duration (ms),Connect Duration (ms),SSL Duration (ms),Request Duration (ms),Response Duration (ms),Latency (ms),Speed (KB/s),Request Speed (KB/s),Response Speed (KB/s),Request Handshake Size (bytes),Request Header Size (bytes),Request Body Size (bytes),Response Handshake Size (bytes),Response Header Size (bytes),Response Body Size (bytes),Request Compression,Response Compression
https://ts01-b.cloudsink.net,RECEIVING_REQUEST_BODY,200,https,CONNECT,,/127.0.0.1,56951,ts01-b.cloudsink.net/54.67.92.206,443,,04 Jun 2019 11:02:57,,,,3389264,18,72,333,,,,0.083984375,,,1246,0,225197,17474,0,50262,,
https://14.client-channel.google.com,RECEIVING_RESPONSE_BODY,200,https,CONNECT,,/127.0.0.1,56973,14.client-channel.google.com/74.125.192.189,443,,04 Jun 2019 11:16:48,,,,2557847,21,17,41,,,,0.015625,,,1179,0,11409,16009,0,12548,,
https://ssl.gstatic.com,RECEIVING_REQUEST_BODY,200,https,CONNECT,,/127.0.0.1,57313,ssl.gstatic.com/172.217.12.195,443,,04 Jun 2019 11:47:07,,,,739531,2,2,3,,,,0.005859375,,,1608,0,1289,372,0,1748,,
https://play.google.com,COMPLETE,200,https,CONNECT,,/127.0.0.1,57322,play.google.com/172.217.10.46,443,,04 Jun 2019 11:48:44,,,04 Jun 2019 11:57:37,533290,1,2,3,,,,0.021484375,,,2207,0,5733,372,0,,,
https://play.google.com,COMPLETE,200,https,CONNECT,,/127.0.0.1,57509,play.google.com/172.217.10.46,443,,04 Jun 2019 11:55:02,,,04 Jun 2019 11:57:02,120071,2,2,6,,,,0.030273438,,,2207,0,610,372,0,,,
https://mail.google.com,COMPLETE,200,https,CONNECT,,/127.0.0.1,57527,mail.google.com/172.217.10.37,443,,04 Jun 2019 11:55:34,,,04 Jun 2019 11:57:37,123533,3,2,25,,,,0.15722656,,,2892,0,2442,13367,0,,,
https://people-pa.clients6.google.com,COMPLETE,200,https,CONNECT,,/127.0.0.1,57539,people-pa.clients6.google.com/172.217.10.10,443,,04 Jun 2019 11:56:10,,,04 Jun 2019 11:59:02,171716,2,2,22,,,,0.13769531,,,2892,0,1213,19621,0,,,
https://ssl.p.jwpcdn.com,COMPLETE,200,https,CONNECT,,/127.0.0.1,57544,ssl.p.jwpcdn.com/72.21.81.48,443,,04 Jun 2019 11:57:58,,,04 Jun 2019 11:58:28,30071,19,2,24,,,,1.1884766,,,1479,0,411,34395,0,322,,
https://entitlements.jwplayer.com,COMPLETE,200,https,CONNECT,,/127.0.0.1,57545,entitlements.jwplayer.com/72.21.81.189,443,,04 Jun 2019 11:57:58,,,04 Jun 2019 11:58:29,30761,20,2,23,,,,1.1425781,,,1684,0,317,33541,0,464,,
https://s.tremorvideodsp.com/q/video1_small.mp4,COMPLETE,206,https,GET,video/mp4,/127.0.0.1,57548,s.tremorvideodsp.com/23.48.39.121,443,,04 Jun 2019 11:57:58,04 Jun 2019 11:57:58,04 Jun 2019 11:57:58,04 Jun 2019 11:57:58,131,67,9,22,0,1,32,122.75586,0.0,14698.242,1058,358,,15049,0,2,,
https://jwpltx.com,COMPLETE,200,https,CONNECT,,/127.0.0.1,57549,jwpltx.com/34.193.181.126,443,,04 Jun 2019 11:57:58,,,04 Jun 2019 11:58:28,30167,36,7,31,,,,1.1025391,,,1609,0,609,31731,0,132,,
https://s.tremorvideodsp.com/q/video1_small.mp4,COMPLETE,206,https,GET,video/mp4,/127.0.0.1,57548,s.tremorvideodsp.com/23.48.39.121,443,,04 Jun 2019 11:57:58,04 Jun 2019 11:57:58,04 Jun 2019 11:57:58,04 Jun 2019 11:57:58,47,,,,0,12,35,1369.2236,0.0,5333.333,,362,,,0,65536,,
https://s.tremorvideodsp.com/q/video1_small.mp4,COMPLETE,206,https,GET,video/mp4,/127.0.0.1,57548,s.tremorvideodsp.com/23.48.39.121,443,,04 Jun 2019 11:57:58,04 Jun 2019 11:57:58,04 Jun 2019 11:57:58,04 Jun 2019 11:57:58,26,,,,0,6,20,2475.3604,0.0,10666.666,,368,,,0,65536,,
https://s.tremorvideodsp.com/q/video1_small.mp4,COMPLETE,206,https,GET,video/mp4,/127.0.0.1,57552,s.tremorvideodsp.com/23.48.39.121,443,,04 Jun 2019 11:57:58,04 Jun 2019 11:57:58,04 Jun 2019 11:57:58,04 Jun 2019 11:57:59,515,2,8,21,0,466,18,18785.861,0.0,20758.361,986,368,,14959,0,9890599,,
https://s.tremorvideodsp.com/q/video1_small.mp4,COMPLETE,206,https,GET,video/mp4,/127.0.0.1,57548,s.tremorvideodsp.com/23.48.39.121,443,,04 Jun 2019 11:57:58,04 Jun 2019 11:57:58,04 Jun 2019 11:57:58,04 Jun 2019 11:57:58,28,,,,0,4,24,2298.5488,0.0,16000.0,,368,,,0,65536,,
https://adserver.videohub.tv/preview?RI=kWQ8m-ilAf7Y4LwLvZPcOA&screenType=desktop&rml=true&Uctry=__country__&Ust=__state__&Udma=__dma__&Uzip=__postalCode__&Ucty=__city__&Uctnt=__continent__&Ulong=__longitude__&Ulat=__latitude__&Uacd=__areaCode__&position_ACP=__adChoicesPosition__&usedACP=__usedACP__&dspACP=__adChoicesProviders__&sig=96CC4CECF021B90A4E9810F95CCB63A3&&dmps=y&SUI=21906&ssRmlApp=1&isApp=y,COMPLETE,200,https,GET,application/xml; charset=utf-8,/127.0.0.1,57554,adserver.videohub.tv/67.226.210.8,443,,04 Jun 2019 11:58:07,04 Jun 2019 11:58:07,04 Jun 2019 11:58:07,04 Jun 2019 11:58:07,62,5,10,30,0,2,15,633.8672,0.0,18810.059,1046,674,,25605,0,12918,,
https://objects-secure.videohub.tv/net/js/rml-app.min.js?adData=https%3A%2F%2Fs.tremorvideodsp.com%2Fq%2FVAST_3%2Fmp4_vast3_sec_2_one_id.xml,COMPLETE,200,https,GET,application/javascript,/127.0.0.1,57556,objects-secure.videohub.tv/104.110.215.249,443,,04 Jun 2019 11:58:07,04 Jun 2019 11:58:07,04 Jun 2019 11:58:07,04 Jun 2019 11:58:07,128,77,8,22,0,12,9,619.0791,0.0,6483.0723,1070,410,,16754,0,62910,,72.6%
https://s.tremorvideodsp.com/q/VAST_3/mp4_vast3_sec_2_one_id.xml,COMPLETE,200,https,GET,text/xml,/127.0.0.1,57558,s.tremorvideodsp.com/23.48.39.121,443,,04 Jun 2019 11:58:07,04 Jun 2019 11:58:07,04 Jun 2019 11:58:07,04 Jun 2019 11:58:07,90,1,8,25,1,1,54,182.61719,1347.6562,15087.891,1046,334,,15049,0,401,,80.8%
https://objects-secure.tremormedia.com/net/js/io-polyfill-0.5.1.js,COMPLETE,200,https,GET,application/javascript,/127.0.0.1,57560,objects-secure.tremormedia.com/104.110.194.47,443,,04 Jun 2019 11:58:07,04 Jun 2019 11:58:08,04 Jun 2019 11:58:08,04 Jun 2019 11:58:08,126,84,8,24,0,1,9,190.42969,0.0,22605.469,1086,336,,16789,0,6359,,71.5%
https://s.tremorvideodsp.com/q/preroll.mp4,COMPLETE,206,https,GET,video/mp4,/127.0.0.1,57558,s.tremorvideodsp.com/23.48.39.121,443,,04 Jun 2019 11:58:08,04 Jun 2019 11:58:08,04 Jun 2019 11:58:08,04 Jun 2019 11:58:08,39,,,,0,0,39,9.615234,0.0,0.0,,382,,,0,2,,
https://s.tremorvideodsp.com/q/preroll.mp4,COMPLETE,206,https,GET,video/mp4,/127.0.0.1,57558,s.tremorvideodsp.com/23.48.39.121,443,,04 Jun 2019 11:58:08,04 Jun 2019 11:58:08,04 Jun 2019 11:58:08,04 Jun 2019 11:58:08,24,,,,0,3,21,682.37305,0.0,5333.333,,386,,,0,16384,,
https://s.tremorvideodsp.com/q/preroll.mp4,COMPLETE,206,https,GET,video/mp4,/127.0.0.1,57558,s.tremorvideodsp.com/23.48.39.121,443,,04 Jun 2019 11:58:08,04 Jun 2019 11:58:08,04 Jun 2019 11:58:08,04 Jun 2019 11:58:08,24,,,,1,2,21,682.53516,380.85938,8000.0,,390,,,0,16384,,
https://s.tremorvideodsp.com/q/preroll.mp4,COMPLETE,206,https,GET,video/mp4,/127.0.0.1,57558,s.tremorvideodsp.com/23.48.39.121,443,,04 Jun 2019 11:58:08,04 Jun 2019 11:58:08,04 Jun 2019 11:58:08,04 Jun 2019 11:58:08,193,,,,0,172,21,11424.566,0.0,12817.2,,392,,,0,2257468,,
https://s.tremorvideodsp.com/q/preroll.mp4,COMPLETE,206,https,GET,video/mp4,/127.0.0.1,57562,s.tremorvideodsp.com/23.48.39.121,443,,04 Jun 2019 11:58:08,04 Jun 2019 11:58:08,04 Jun 2019 11:58:08,04 Jun 2019 11:58:08,89,4,10,37,0,2,36,359.0127,0.0,15304.199,986,390,,14959,0,16384,,
https://prd.jwpltx.com,COMPLETE,200,https,CONNECT,,/127.0.0.1,57564,prd.jwpltx.com/151.101.250.217,443,,04 Jun 2019 11:58:08,,,04 Jun 2019 11:59:09,61244,44,10,54,,,,0.7363281,,,1497,0,3759,40027,0,944,,
https://dt-secure.videohub.tv/v1/usync/ironsource?userId=,COMPLETE,303,https,GET,image/gif,/127.0.0.1,57565,dt-secure.videohub.tv/67.226.210.12,443,,04 Jun 2019 11:58:08,04 Jun 2019 11:58:08,04 Jun 2019 11:58:08,04 Jun 2019 11:58:08,69,19,13,27,0,1,9,387.04395,0.0,25304.688,1050,385,,25869,0,43,,
https://sync.doubleverify.com/query.gif?ctx=42674&cmp=2311460&DVP_CMPID=&DVP_PUBID=&dvp_red=http%3A%2F%2Fads.videohub.tv%2Fssframework%2Fdt%2Fbotid%3Fa%3Dset%26DUID%3D1,COMPLETE,200,https,GET,image/gif,/127.0.0.1,57566,sync.doubleverify.com/204.154.111.224,443,,04 Jun 2019 11:58:08,04 Jun 2019 11:58:08,04 Jun 2019 11:58:08,04 Jun 2019 11:58:08,20,1,2,11,0,1,5,118.65234,0.0,1176.7578,729,496,,345,0,860,,-6.6%
https://tags.bluekai.com/site/2954,COMPLETE,200,https,GET,image/gif,/127.0.0.1,57568,tags.bluekai.com/96.7.23.53,443,,04 Jun 2019 11:58:08,04 Jun 2019 11:58:08,04 Jun 2019 11:58:09,04 Jun 2019 11:58:09,181,53,11,32,0,0,85,82.37598,0.0,0.0,1030,362,,13814,0,62,,
https://s.tremorvideodsp.com/q/qa.gif?param1=creative_impression,COMPLETE,200,https,GET,image/gif,/127.0.0.1,57562,s.tremorvideodsp.com/23.48.39.121,443,,04 Jun 2019 11:58:08,04 Jun 2019 11:58:08,04 Jun 2019 11:58:08,04 Jun 2019 11:58:08,40,,,,1,0,39,10.620117,382.8125,0.0,,392,,,0,43,,
https://s.tremorvideodsp.com/q/qa.gif?param1=screen_impression,COMPLETE,200,https,GET,image/gif,/127.0.0.1,57558,s.tremorvideodsp.com/23.48.39.121,443,,04 Jun 2019 11:58:08,04 Jun 2019 11:58:08,04 Jun 2019 11:58:08,04 Jun 2019 11:58:08,18,,,,1,0,17,23.49121,380.85938,0.0,,390,,,0,43,,
https://tps30.doubleverify.com/visit.jpg?ctx=42674&cmp=2256325&sid=1111&plc=22563261&num=&adid=&advid=498259&adsrv=41&region=30&btreg=&btadsrv=&crt=&crtname=&chnl=&unit=&pid=&uid=&dvtagver=6.1.img&DVP_CMPID=&DVP_PUBID=&turl=tremorvideodsp.com,COMPLETE,200,https,GET,image/jpeg,/127.0.0.1,57567,tps30.doubleverify.com/204.154.111.108,443,,04 Jun 2019 11:58:08,04 Jun 2019 11:58:09,04 Jun 2019 11:58:09,04 Jun 2019 11:58:09,240,219,3,12,0,0,6,106.16797,0.0,0.0,1182,570,,24198,0,142,,53.4%
https://tp.videohub.tv/v1/topprop.png?domain=&ui=&pri=ef61a173-fcdf-434c-8405-a430aca7269c&ssRnd=1265784953,COMPLETE,200,https,GET,image/png,/127.0.0.1,57571,tp.videohub.tv/67.226.210.12,443,,04 Jun 2019 11:58:08,04 Jun 2019 11:58:08,04 Jun 2019 11:58:08,04 Jun 2019 11:58:08,84,24,10,29,0,0,21,318.18457,0.0,0.0,1022,435,,25869,0,43,,
https://l0-secure.videohub.tv/ssframework/log/log.png?EC=3&a=logitemaction&nolog=1&ssPD=tremorvideodsp.com&Uzip=__postalCode__&ADI=7918536&PRI=ef61a173-fcdf-434c-8405-a430aca7269c&Udma=__dma__&ssMLVer=rml_app_1.9.0&Uctry=__country__&AVI=425726&ssASVer=2.0&RI=1&Ust=__state__&NI=1344&admode=preroll&ssDsC=desktop&ssRnd=1757187393&SfF=true&AmN=1&adFocus=true&RvN=1,COMPLETE,200,https,GET,image/gif,/127.0.0.1,57573,l0-secure.videohub.tv/67.226.210.13,443,,04 Jun 2019 11:58:08,04 Jun 2019 11:58:08,04 Jun 2019 11:58:08,04 Jun 2019 11:58:08,61,2,11,36,0,1,11,442.68652,0.0,25304.688,1050,690,,25869,0,43,,
https://sync.doubleverify.com/query.gif?ctx=42674&cmp=2256325&DVP_CMPID=&DVP_PUBID=&dvp_red=http%3A%2F%2Fapp.scanscout.com%2Fssframework%2Fdt%2Fbotid%3Fa%3Dset%26DUID%3D1,COMPLETE,200,https,GET,image/gif,/127.0.0.1,57577,sync.doubleverify.com/204.154.111.224,443,,04 Jun 2019 11:58:08,04 Jun 2019 11:58:08,04 Jun 2019 11:58:08,04 Jun 2019 11:58:08,11,1,2,3,0,0,5,211.91406,0.0,0.0,684,498,,345,0,860,,-6.6%
https://dt-secure.videohub.tv/v1/usync/bs?userId=,COMPLETE,303,https,GET,image/gif,/127.0.0.1,57579,dt-secure.videohub.tv/67.226.210.12,443,,04 Jun 2019 11:58:08,04 Jun 2019 11:58:08,04 Jun 2019 11:58:08,04 Jun 2019 11:58:08,59,2,9,37,0,0,11,451.51855,0.0,0.0,990,377,,25869,0,43,,
https://dt-secure.videohub.tv/v1/usync/pubmatic?userId=,COMPLETE,303,https,GET,image/gif,/127.0.0.1,57581,dt-secure.videohub.tv/67.226.210.12,443,,04 Jun 2019 11:58:08,04 Jun 2019 11:58:08,04 Jun 2019 11:58:08,04 Jun 2019 11:58:08,58,1,11,35,0,0,11,459.40527,0.0,0.0,990,383,,25869,0,43,,
https://dt-secure.videohub.tv/v1/usync/springserve?userId=,COMPLETE,303,https,GET,image/gif,/127.0.0.1,57583,dt-secure.videohub.tv/67.226.210.12,443,,04 Jun 2019 11:58:08,04 Jun 2019 11:58:08,04 Jun 2019 11:58:08,04 Jun 2019 11:58:08,66,4,11,33,0,0,18,403.76367,0.0,0.0,990,386,,25869,0,43,,
https://dt-secure.videohub.tv/v1/usync/lkqd_direct?userId=,COMPLETE,303,https,GET,image/gif,/127.0.0.1,57580,dt-secure.videohub.tv/67.226.210.12,443,,04 Jun 2019 11:58:08,04 Jun 2019 11:58:08,04 Jun 2019 11:58:08,04 Jun 2019 11:58:08,74,2,10,50,0,1,11,360.11328,0.0,25304.688,990,386,,25869,0,43,,
https://dt-secure.videohub.tv/v1/usync/spx?userId=,COMPLETE,303,https,GET,image/gif,/127.0.0.1,57565,dt-secure.videohub.tv/67.226.210.12,443,,04 Jun 2019 11:58:08,04 Jun 2019 11:58:08,04 Jun 2019 11:58:08,04 Jun 2019 11:58:08,10,,,,0,0,10,41.11328,0.0,0.0,,378,,,0,43,,
https://dt-secure.videohub.tv/v1/usync/rubicon?userId=,COMPLETE,303,https,GET,image/gif,/127.0.0.1,57582,dt-secure.videohub.tv/67.226.210.12,443,,04 Jun 2019 11:58:08,04 Jun 2019 11:58:08,04 Jun 2019 11:58:08,04 Jun 2019 11:58:08,48,2,9,26,0,0,11,555.09375,0.0,0.0,990,382,,25869,0,43,,
https://l0-secure.videohub.tv/ssframework/log/log.png?EC=7&a=logitemaction&nolog=1&ssPD=tremorvideodsp.com&Uzip=__postalCode__&ADI=7918536&PRI=ef61a173-fcdf-434c-8405-a430aca7269c&Udma=__dma__&ssMLVer=rml_app_1.9.0&Uctry=__country__&AVI=425726&ssASVer=2.0&RI=1&Ust=__state__&NI=1344&admode=preroll&ssDsC=desktop&ssRnd=995545475&Eipct=0&EvaF=1&EiN=1,COMPLETE,200,https,GET,image/gif,/127.0.0.1,57589,l0-secure.videohub.tv/67.226.210.13,443,,04 Jun 2019 11:58:08,04 Jun 2019 11:58:08,04 Jun 2019 11:58:09,04 Jun 2019 11:58:09,287,2,9,30,0,0,246,93.83789,0.0,0.0,990,676,,25869,0,43,,
https://cs.rtb-seller.com,COMPLETE,200,https,CONNECT,,/127.0.0.1,57590,cs.rtb-seller.com/52.7.138.160,443,,04 Jun 2019 11:58:08,,,04 Jun 2019 11:58:40,31170,4,8,126,,,,1.0517578,,,1484,0,388,31539,0,170,,
https://dt-secure.videohub.tv/v1/usync/rhythmone?userId=,COMPLETE,303,https,GET,image/gif,/127.0.0.1,57565,dt-secure.videohub.tv/67.226.210.12,443,,04 Jun 2019 11:58:08,04 Jun 2019 11:58:08,04 Jun 2019 11:58:08,04 Jun 2019 11:58:08,11,,,,0,0,11,37.908203,0.0,0.0,,384,,,0,43,,
https://dt-secure.videohub.tv/v1/usync/tr?userId=,COMPLETE,303,https,GET,image/gif,/127.0.0.1,57565,dt-secure.videohub.tv/67.226.210.12,443,,04 Jun 2019 11:58:08,04 Jun 2019 11:58:08,04 Jun 2019 11:58:08,04 Jun 2019 11:58:08,9,,,,0,0,9,45.572266,0.0,0.0,,377,,,0,43,,
https://sync.search.spotxchange.com,COMPLETE,200,https,CONNECT,,/127.0.0.1,57594,sync.search.spotxchange.com/192.35.249.127,443,,04 Jun 2019 11:58:08,,,04 Jun 2019 11:58:40,31097,26,8,217,,,,0.6298828,,,1534,0,886,16383,0,1260,,
https://sync.1rx.io,COMPLETE,200,https,CONNECT,,/127.0.0.1,57595,sync.1rx.io/8.41.222.150,443,,04 Jun 2019 11:58:08,,,04 Jun 2019 11:58:40,31053,5,3,186,,,,0.8720703,,,1094,0,796,24907,0,936,,
https://dt-secure.videohub.tv/ssframework/tvuid?a=set&UI=,COMPLETE,400,https,GET,image/gif,/127.0.0.1,57565,dt-secure.videohub.tv/67.226.210.12,443,,04 Jun 2019 11:58:08,04 Jun 2019 11:58:08,04 Jun 2019 11:58:08,04 Jun 2019 11:58:08,10,,,,1,0,9,41.796875,375.97656,0.0,,385,,,0,43,,
https://dt-secure.videohub.tv/v1/usync/ex?userId=,COMPLETE,303,https,GET,image/gif,/127.0.0.1,57579,dt-secure.videohub.tv/67.226.210.12,443,,04 Jun 2019 11:58:08,04 Jun 2019 11:58:08,04 Jun 2019 11:58:08,04 Jun 2019 11:58:08,11,,,,0,0,11,37.286133,0.0,0.0,,377,,,0,43,,
https://dt-secure.videohub.tv/v1/usync/lo?userId=,COMPLETE,303,https,GET,image/gif,/127.0.0.1,57582,dt-secure.videohub.tv/67.226.210.12,443,,04 Jun 2019 11:58:08,04 Jun 2019 11:58:08,04 Jun 2019 11:58:08,04 Jun 2019 11:58:08,11,,,,0,0,11,37.286133,0.0,0.0,,377,,,0,43,,
https://dt-secure.videohub.tv/v1/usync/dd?userId=,COMPLETE,303,https,GET,image/gif,/127.0.0.1,57581,dt-secure.videohub.tv/67.226.210.12,443,,04 Jun 2019 11:58:08,04 Jun 2019 11:58:08,04 Jun 2019 11:58:08,04 Jun 2019 11:58:08,12,,,,0,0,12,34.179688,0.0,0.0,,377,,,0,43,,
https://partners.tremorhub.com,COMPLETE,200,https,CONNECT,,/127.0.0.1,57598,partners.tremorhub.com/34.236.123.105,443,,04 Jun 2019 11:58:08,,,04 Jun 2019 11:58:40,31064,29,8,227,,,,1.0839844,,,1509,0,387,32079,0,516,,
https://x.bidswitch.net,COMPLETE,200,https,CONNECT,,/127.0.0.1,57599,x.bidswitch.net/104.196.190.141,443,,04 Jun 2019 11:58:08,,,04 Jun 2019 11:58:19,10447,5,20,232,,,,3.6054688,,,1146,0,405,36284,0,743,,
https://pixel.rubiconproject.com,COMPLETE,200,https,CONNECT,,/127.0.0.1,57600,pixel.rubiconproject.com/208.185.50.80,443,,04 Jun 2019 11:58:08,,,04 Jun 2019 11:58:40,31032,121,11,235,,,,0.6386719,,,1589,0,890,16516,0,1322,,
https://simage2.pubmatic.com,COMPLETE,200,https,CONNECT,,/127.0.0.1,57601,simage2.pubmatic.com/104.36.115.109,443,,04 Jun 2019 11:58:08,,,04 Jun 2019 11:58:40,31031,30,3,211,,,,0.6933594,,,1499,0,455,19257,0,827,,
https://dt-secure.videohub.tv/v1/usync/ds?userId=,COMPLETE,303,https,GET,image/gif,/127.0.0.1,57583,dt-secure.videohub.tv/67.226.210.12,443,,04 Jun 2019 11:58:08,04 Jun 2019 11:58:08,04 Jun 2019 11:58:09,04 Jun 2019 11:58:09,12,,,,0,0,12,34.179688,0.0,0.0,,377,,,0,43,,
https://dt-secure.videohub.tv/v1/usync/lrjs?userId=,COMPLETE,303,https,GET,image/gif,/127.0.0.1,57580,dt-secure.videohub.tv/67.226.210.12,443,,04 Jun 2019 11:58:08,04 Jun 2019 11:58:08,04 Jun 2019 11:58:09,04 Jun 2019 11:58:09,15,,,,0,0,15,27.473633,0.0,0.0,,379,,,0,43,,
https://dt-secure.videohub.tv/v1/usync/db?userId=&deviceId=unknown&screenType=desktop&osType=iOS&rand=211818497,COMPLETE,303,https,GET,image/gif,/127.0.0.1,57565,dt-secure.videohub.tv/67.226.210.12,443,,04 Jun 2019 11:58:08,04 Jun 2019 11:58:08,04 Jun 2019 11:58:09,04 Jun 2019 11:58:09,15,,,,0,0,15,31.379883,0.0,0.0,,439,,,0,43,,
https://dt-secure.videohub.tv/v1/usync/al?userId=,COMPLETE,303,https,GET,image/gif,/127.0.0.1,57579,dt-secure.videohub.tv/67.226.210.12,443,,04 Jun 2019 11:58:08,04 Jun 2019 11:58:08,04 Jun 2019 11:58:09,04 Jun 2019 11:58:09,11,,,,0,0,11,37.286133,0.0,0.0,,377,,,0,43,,
https://dt-secure.videohub.tv/v1/usync/bk?userId=,COMPLETE,303,https,GET,image/gif,/127.0.0.1,57581,dt-secure.videohub.tv/67.226.210.12,443,,04 Jun 2019 11:58:08,04 Jun 2019 11:58:08,04 Jun 2019 11:58:09,04 Jun 2019 11:58:09,20,,,,0,0,20,20.507812,0.0,0.0,,377,,,0,43,,
https://dt-secure.videohub.tv/v1/usync/kx?userId=,COMPLETE,303,https,GET,image/gif,/127.0.0.1,57582,dt-secure.videohub.tv/67.226.210.12,443,,04 Jun 2019 11:58:08,04 Jun 2019 11:58:08,04 Jun 2019 11:58:09,04 Jun 2019 11:58:09,13,,,,0,0,13,31.549805,0.0,0.0,,377,,,0,43,,
https://sync.springserve.com,COMPLETE,200,https,CONNECT,,/127.0.0.1,57604,sync.springserve.com/18.214.171.42,443,,04 Jun 2019 11:58:09,,,04 Jun 2019 11:58:40,30979,57,9,198,,,,1.0634766,,,1499,0,397,31653,0,212,,
https://cs.lkqd.net,COMPLETE,200,https,CONNECT,,/127.0.0.1,57605,cs.lkqd.net/146.20.129.179,443,,04 Jun 2019 11:58:09,,,04 Jun 2019 11:58:40,30979,9,11,189,,,,1.3925781,,,1322,0,396,42000,0,482,,
https://bcp.crwdcntrl.net,COMPLETE,200,https,CONNECT,,/127.0.0.1,57606,bcp.crwdcntrl.net/52.0.28.154,443,,04 Jun 2019 11:58:09,,,04 Jun 2019 11:58:40,30977,9,9,184,,,,1.0791016,,,1484,0,797,31179,0,789,,
https://loadm.exelator.com,COMPLETE,200,https,CONNECT,,/127.0.0.1,57607,loadm.exelator.com/147.75.39.192,443,,04 Jun 2019 11:58:09,,,04 Jun 2019 11:58:19,10437,3,2,223,,,,3.2509766,,,1122,0,816,31294,0,1521,,
https://dpm.demdex.net,COMPLETE,200,https,CONNECT,,/127.0.0.1,57608,dpm.demdex.net/52.6.11.102,443,,04 Jun 2019 11:58:09,,,04 Jun 2019 11:58:40,30960,21,9,195,,,,0.6845703,,,1469,0,804,18303,0,1155,,
https://dt-secure.videohub.tv/v1/usync/lr?userId=,COMPLETE,303,https,GET,image/gif,/127.0.0.1,57583,dt-secure.videohub.tv/67.226.210.12,443,,04 Jun 2019 11:58:09,04 Jun 2019 11:58:09,04 Jun 2019 11:58:09,04 Jun 2019 11:58:09,12,,,,0,1,11,34.179688,0.0,41.992188,,377,,,0,43,,
https://dt-secure.videohub.tv/v1/usync/ns?userId=,COMPLETE,303,https,GET,image/gif,/127.0.0.1,57579,dt-secure.videohub.tv/67.226.210.12,443,,04 Jun 2019 11:58:09,04 Jun 2019 11:58:09,04 Jun 2019 11:58:09,04 Jun 2019 11:58:09,19,,,,0,0,19,21.586914,0.0,0.0,,377,,,0,43,,
https://objects-secure.tremormedia.com/net/js/lr.js?partner_id=69639d80d39b4f2dfb848ea63a55d4d1,COMPLETE,200,https,GET,application/javascript,/127.0.0.1,57560,objects-secure.tremormedia.com/104.110.194.47,443,,04 Jun 2019 11:58:09,04 Jun 2019 11:58:09,04 Jun 2019 11:58:09,04 Jun 2019 11:58:09,9,,,,0,0,9,130.3164,0.0,0.0,,423,,,0,778,,57.1%
https://tps30.doubleverify.com/visit.jpg?ctx=42674&cmp=DV069178&sid=1111&plc=2018011501&advid=3819603&adsrv=0&tagtype=&dvtagver=6.1.img&DVP_PP_REP=1&DVP_IQM_ID=16&DVP_DV_TT=2&DVP_DV_CT=2&DVP_TR_SSP=&DVP_TR_PUB=[PUBLISHER_ID]&DVP_TR_SITE=[SUPPLY_ID]&DVP_TR_ADV=425726&DVP_TR_CMP=&DVP_TR_PLC=&turl=tremorvideodsp.com&DVP_PP_BUNDLE_ID=&DVP_TR_COST=,COMPLETE,200,https,GET,image/jpeg,/127.0.0.1,57613,tps30.doubleverify.com/204.154.111.108,443,,04 Jun 2019 11:58:09,04 Jun 2019 11:58:09,04 Jun 2019 11:58:09,04 Jun 2019 11:58:09,14,2,2,4,0,0,6,127.58008,0.0,0.0,687,673,,327,0,142,,53.4%
https://sync.alphonso.tv,COMPLETE,200,https,CONNECT,,/127.0.0.1,57615,sync.alphonso.tv/104.129.168.238,443,,04 Jun 2019 11:58:09,,,04 Jun 2019 11:58:39,30855,38,4,168,,,,0.9550781,,,1479,0,391,27865,0,471,,
https://beacon.krxd.net,COMPLETE,200,https,CONNECT,,/127.0.0.1,57616,beacon.krxd.net/50.19.103.40,443,,04 Jun 2019 11:58:09,,,04 Jun 2019 11:58:40,30888,12,8,177,,,,1.0585938,,,1474,0,414,31113,0,482,,
https://p.adsymptotic.com,COMPLETE,200,https,CONNECT,,/127.0.0.1,57618,p.adsymptotic.com/52.5.201.152,443,,04 Jun 2019 11:58:09,,,04 Jun 2019 11:58:40,30889,62,8,161,,,,0.7167969,,,1484,0,992,19281,0,945,,
https://stags.bluekai.com,COMPLETE,200,https,CONNECT,,/127.0.0.1,57619,stags.bluekai.com/96.7.23.53,443,,04 Jun 2019 11:58:09,,,04 Jun 2019 11:58:40,30888,11,11,193,,,,0.7578125,,,1484,0,459,21254,0,782,,
https://idpix.media6degrees.com,COMPLETE,200,https,CONNECT,,/127.0.0.1,57614,idpix.media6degrees.com/204.2.197.211,443,,04 Jun 2019 11:58:09,,,04 Jun 2019 11:58:09,274,37,2,159,,,,95.481445,,,1514,0,431,24075,0,770,,
https://idsync.rlcdn.com,COMPLETE,200,https,CONNECT,,/127.0.0.1,57626,idsync.rlcdn.com/34.95.92.78,443,,04 Jun 2019 11:58:09,,,04 Jun 2019 11:58:39,30771,4,2,151,,,,0.88183594,,,1347,0,838,24510,0,1107,,
https://aa.agkn.com,COMPLETE,200,https,CONNECT,,/127.0.0.1,57627,aa.agkn.com/156.154.200.36,443,,04 Jun 2019 11:58:09,,,04 Jun 2019 11:58:09,249,28,22,150,,,,90.70996,,,1454,0,402,20762,0,511,,
https://bsw.digitru.st,COMPLETE,200,https,CONNECT,,/127.0.0.1,57632,bsw.digitru.st/104.196.190.141,443,,04 Jun 2019 11:58:09,,,04 Jun 2019 11:58:19,10292,3,21,90,,,,3.5429688,,,1142,0,405,35144,0,658,,
https://d.agkn.com,COMPLETE,200,https,CONNECT,,/127.0.0.1,57634,d.agkn.com/54.165.225.249,443,,04 Jun 2019 11:58:09,,,04 Jun 2019 11:58:39,30380,22,8,42,,,,0.8808594,,,1449,0,384,25023,0,572,,
https://pippio.com,COMPLETE,200,https,CONNECT,,/127.0.0.1,57635,pippio.com/107.178.254.65,443,,04 Jun 2019 11:58:09,,,04 Jun 2019 11:58:40,30543,4,2,19,,,,0.86816406,,,1317,0,751,23570,0,1536,,
https://dt-secure.videohub.tv/v1/uid?UIBK=EmBInBJv9999G4jz,COMPLETE,200,https,GET,image/gif,/127.0.0.1,57565,dt-secure.videohub.tv/67.226.210.12,443,,04 Jun 2019 11:58:09,04 Jun 2019 11:58:09,04 Jun 2019 11:58:09,04 Jun 2019 11:58:09,10,,,,0,0,10,41.89453,0.0,0.0,,386,,,0,43,,
https://us-east-sync.bidswitch.net,COMPLETE,200,https,CONNECT,,/127.0.0.1,57638,us-east-sync.bidswitch.net/104.196.25.73,443,,04 Jun 2019 11:58:09,,,04 Jun 2019 11:58:19,10286,3,20,62,,,,3.665039,,,1190,0,430,36284,0,700,,
https://cm.g.doubleclick.net,COMPLETE,200,https,CONNECT,,/127.0.0.1,57640,cm.g.doubleclick.net/172.217.11.2,443,,04 Jun 2019 11:58:09,,,04 Jun 2019 11:58:40,30430,24,3,43,,,,0.54785156,,,1367,0,424,14341,0,969,,
https://tag.apxlv.com,COMPLETE,200,https,CONNECT,,/127.0.0.1,57642,tag.apxlv.com/162.223.54.6,443,,04 Jun 2019 11:58:09,,,04 Jun 2019 11:58:41,31325,4,8,44,,,,0.8623047,,,1102,0,368,25553,0,647,,
https://tag.cogocast.net,COMPLETE,200,https,CONNECT,,/127.0.0.1,57644,tag.cogocast.net/54.152.25.88,443,,04 Jun 2019 11:58:09,,,04 Jun 2019 11:58:41,31235,6,7,33,,,,1.0771484,,,1479,0,502,31563,0,923,,
https://gpush.cogocast.net,COMPLETE,200,https,CONNECT,,/127.0.0.1,57646,gpush.cogocast.net/162.223.54.16,443,,04 Jun 2019 11:58:09,,,04 Jun 2019 11:58:10,34,4,9,,,,,6.232422,,,210,0,0,7,0,0,,
https://objects-secure.tremormedia.com/net/js/adchoicesappicon.min.js?iconPosition=top-left&optOut=&iconClick=&playerWidth=770&playerHeight=1026&sources=&country=us,COMPLETE,200,https,GET,application/javascript,/127.0.0.1,57560,objects-secure.tremormedia.com/104.110.194.47,443,,04 Jun 2019 11:58:10,04 Jun 2019 11:58:10,04 Jun 2019 11:58:10,04 Jun 2019 11:58:10,16,,,,0,6,10,1065.3682,0.0,2770.3447,,434,,,0,17021,,45.7%
https://l0-secure.videohub.tv/ssframework/log/log.png?EC=40&a=logitemaction&nolog=1&ssPD=tremorvideodsp.com&Uzip=__postalCode__&ADI=7918536&PRI=ef61a173-fcdf-434c-8405-a430aca7269c&Udma=__dma__&ssMLVer=rml_app_1.9.0&Uctry=__country__&AVI=425726&ssASVer=2.0&RI=1&Ust=__state__&NI=1344&admode=preroll&ssDsC=desktop&ssRnd=742231276&EvaF=1&pctVw=0,COMPLETE,200,https,GET,image/gif,/127.0.0.1,57573,l0-secure.videohub.tv/67.226.210.13,443,,04 Jun 2019 11:58:10,04 Jun 2019 11:58:10,04 Jun 2019 11:58:10,04 Jun 2019 11:58:10,12,,,,0,0,12,58.10547,0.0,0.0,,671,,,0,43,,
https://s.tremorvideodsp.com/q/qa.gif?param1=screen_first_quartile,COMPLETE,200,https,GET,image/gif,/127.0.0.1,57558,s.tremorvideodsp.com/23.48.39.121,443,,04 Jun 2019 11:58:12,04 Jun 2019 11:58:12,04 Jun 2019 11:58:12,04 Jun 2019 11:58:12,18,,,,0,1,17,23.708008,0.0,41.992188,,394,,,0,43,,
https://l0-secure.videohub.tv/ssframework/log/log.png?EC=7&a=logitemaction&nolog=1&ssPD=tremorvideodsp.com&Uzip=__postalCode__&ADI=7918536&PRI=ef61a173-fcdf-434c-8405-a430aca7269c&Udma=__dma__&ssMLVer=rml_app_1.9.0&Uctry=__country__&AVI=425726&ssASVer=2.0&RI=1&Ust=__state__&NI=1344&admode=preroll&ssDsC=desktop&ssRnd=905401596&Eipct=25&EiN=1,COMPLETE,200,https,GET,image/gif,/127.0.0.1,57573,l0-secure.videohub.tv/67.226.210.13,443,,04 Jun 2019 11:58:12,04 Jun 2019 11:58:12,04 Jun 2019 11:58:12,04 Jun 2019 11:58:12,12,,,,0,0,12,58.023438,0.0,0.0,,670,,,0,43,,
https://s.tremorvideodsp.com/q/qa.gif?param1=creative_first_quartile,COMPLETE,200,https,GET,image/gif,/127.0.0.1,57562,s.tremorvideodsp.com/23.48.39.121,443,,04 Jun 2019 11:58:12,04 Jun 2019 11:58:12,04 Jun 2019 11:58:12,04 Jun 2019 11:58:12,17,,,,0,0,17,25.217773,0.0,0.0,,396,,,0,43,,
https://s.tremorvideodsp.com/q/qa.gif?param1=screen_click,COMPLETE,200,https,GET,image/gif,/127.0.0.1,57558,s.tremorvideodsp.com/23.48.39.121,443,,04 Jun 2019 11:58:12,04 Jun 2019 11:58:12,04 Jun 2019 11:58:12,04 Jun 2019 11:58:12,18,,,,0,1,17,23.219727,0.0,41.992188,,385,,,0,43,,
https://s.tremorvideodsp.com/q/qa.gif?param1=creative_click,COMPLETE,200,https,GET,image/gif,/127.0.0.1,57562,s.tremorvideodsp.com/23.48.39.121,443,,04 Jun 2019 11:58:12,04 Jun 2019 11:58:12,04 Jun 2019 11:58:12,04 Jun 2019 11:58:12,22,,,,1,4,17,19.086914,377.9297,10.498047,,387,,,0,43,,
https://l0-secure.videohub.tv/ssframework/log/log.png?EC=2&a=logitemaction&nolog=1&ssPD=tremorvideodsp.com&Uzip=__postalCode__&ADI=7918536&PRI=ef61a173-fcdf-434c-8405-a430aca7269c&Udma=__dma__&ssMLVer=rml_app_1.9.0&Uctry=__country__&AVI=425726&ssASVer=2.0&RI=1&Ust=__state__&NI=1344&admode=preroll&ssDsC=desktop&ssRnd=1987190481,COMPLETE,200,https,GET,image/gif,/127.0.0.1,57573,l0-secure.videohub.tv/67.226.210.13,443,,04 Jun 2019 11:58:12,04 Jun 2019 11:58:12,04 Jun 2019 11:58:12,04 Jun 2019 11:58:12,14,,,,0,1,13,48.757812,0.0,41.992188,,656,,,0,43,,
https://l0-secure.videohub.tv/ssframework/log/log.png?EC=4&a=logitemaction&nolog=1&ssPD=tremorvideodsp.com&Uzip=__postalCode__&ADI=7918536&PRI=ef61a173-fcdf-434c-8405-a430aca7269c&Udma=__dma__&ssMLVer=rml_app_1.9.0&Uctry=__country__&AVI=425726&ssASVer=2.0&RI=1&Ust=__state__&NI=1344&admode=preroll&ssDsC=desktop&ssRnd=429215173&EiN=1,COMPLETE,200,https,GET,image/gif,/127.0.0.1,57589,l0-secure.videohub.tv/67.226.210.13,443,,04 Jun 2019 11:58:12,04 Jun 2019 11:58:12,04 Jun 2019 11:58:12,04 Jun 2019 11:58:12,12,,,,0,1,11,57.291016,0.0,41.992188,,661,,,0,43,,
https://tremorvideodsp.com,COMPLETE,200,https,CONNECT,,/127.0.0.1,57648,tremorvideodsp.com/67.226.210.15,443,,04 Jun 2019 11:58:12,,,04 Jun 2019 11:58:12,281,29,10,59,,,,100.18262,,,1404,0,540,25979,0,904,,
https://dt.scanscout.com,COMPLETE,200,https,CONNECT,,/127.0.0.1,57650,dt.scanscout.com/67.226.210.15,443,,04 Jun 2019 11:58:12,,,04 Jun 2019 11:58:17,5154,3,16,78,,,,6.6748047,,,3096,0,536,31298,0,302,,
https://www.tremorvideodsp.com,COMPLETE,200,https,CONNECT,,/127.0.0.1,57651,www.tremorvideodsp.com/52.22.236.254,443,,04 Jun 2019 11:58:12,,,04 Jun 2019 11:58:43,31029,61,9,39,,,,0.5908203,,,3024,0,2245,12406,0,1117,,
https://tremorvideodsp.com,COMPLETE,200,https,CONNECT,,/127.0.0.1,57653,tremorvideodsp.com/67.226.210.15,443,,04 Jun 2019 11:58:12,,,04 Jun 2019 11:58:17,5109,5,11,36,,,,6.770508,,,3096,0,508,31388,0,429,,
https://www.tremorvideodsp.com,COMPLETE,200,https,CONNECT,,/127.0.0.1,57657,www.tremorvideodsp.com/52.22.236.254,443,,04 Jun 2019 11:58:12,,,04 Jun 2019 11:58:43,30894,2,8,33,,,,0.49414062,,,1584,0,1170,12301,0,599,,
https://www.tremorvideodsp.com,COMPLETE,200,https,CONNECT,,/127.0.0.1,57658,www.tremorvideodsp.com/52.22.236.254,443,,04 Jun 2019 11:58:12,,,04 Jun 2019 11:58:43,30896,4,8,35,,,,0.42773438,,,1584,0,1210,10148,0,600,,
https://www.tremorvideodsp.com,COMPLETE,200,https,CONNECT,,/127.0.0.1,57656,www.tremorvideodsp.com/52.22.236.254,443,,04 Jun 2019 11:58:12,,,04 Jun 2019 11:58:43,30896,6,9,44,,,,0.39746094,,,1584,0,567,10148,0,301,,
https://www.tremorvideodsp.com,COMPLETE,200,https,CONNECT,,/127.0.0.1,57662,www.tremorvideodsp.com/52.22.236.254,443,,04 Jun 2019 11:58:13,,,04 Jun 2019 11:58:43,30167,8,8,105,,,,0.4765625,,,1424,0,280,12301,0,744,,
https://www.google-analytics.com,RECEIVING_REQUEST_BODY,200,https,CONNECT,,/127.0.0.1,57664,www.google-analytics.com/172.217.11.46,443,,04 Jun 2019 11:58:13,,,,73159,2,3,,,,,0.0068359375,,,517,0,0,,0,0,,
https://stats.g.doubleclick.net,RECEIVED_RESPONSE_HEADER,200,https,CONNECT,,/127.0.0.1,57666,stats.g.doubleclick.net/173.194.206.157,443,,04 Jun 2019 11:58:13,,,,72973,41,17,,,,,0.0068359375,,,517,0,0,,0,0,,
https://www.google.com,RECEIVED_RESPONSE_HEADER,200,https,CONNECT,,/127.0.0.1,57668,www.google.com/172.217.11.36,443,,04 Jun 2019 11:58:13,,,,72825,3,3,,,,,0.0068359375,,,517,0,0,,0,0,,
https://api-glb-nyc.smoot.apple.com,COMPLETE,200,https,CONNECT,,/127.0.0.1,57670,api-glb-nyc.smoot.apple.com/17.249.121.246,443,,04 Jun 2019 11:58:14,,,04 Jun 2019 11:58:14,431,27,70,172,,,,48.210938,,,1597,0,1475,17991,0,215,,
https://s.tremorvideodsp.com/q/qa.gif?param1=screen_click,COMPLETE,200,https,GET,image/gif,/127.0.0.1,57558,s.tremorvideodsp.com/23.48.39.121,443,,04 Jun 2019 11:58:26,04 Jun 2019 11:58:26,04 Jun 2019 11:58:27,04 Jun 2019 11:58:27,554,,,,0,1,553,0.75390625,0.0,41.992188,,385,,,0,43,,
https://s.tremorvideodsp.com/q/qa.gif?param1=creative_click,COMPLETE,200,https,GET,image/gif,/127.0.0.1,57562,s.tremorvideodsp.com/23.48.39.121,443,,04 Jun 2019 11:58:26,04 Jun 2019 11:58:26,04 Jun 2019 11:58:26,04 Jun 2019 11:58:26,32,,,,0,1,31,13.12207,0.0,41.992188,,387,,,0,43,,
https://l0-secure.videohub.tv/ssframework/log/log.png?EC=2&a=logitemaction&nolog=1&ssPD=tremorvideodsp.com&Uzip=__postalCode__&ADI=7918536&PRI=ef61a173-fcdf-434c-8405-a430aca7269c&Udma=__dma__&ssMLVer=rml_app_1.9.0&Uctry=__country__&AVI=425726&ssASVer=2.0&RI=1&Ust=__state__&NI=1344&admode=preroll&ssDsC=desktop&ssRnd=1987190481,COMPLETE,200,https,GET,image/gif,/127.0.0.1,57573,l0-secure.videohub.tv/67.226.210.13,443,,04 Jun 2019 11:58:26,04 Jun 2019 11:58:26,04 Jun 2019 11:58:26,04 Jun 2019 11:58:26,123,,11,40,53,0,19,219.27344,31.433594,0.0,1050,656,,25869,0,43,,
https://s.tremorvideodsp.com/q/qa.gif?param1=screen_second_quartile,COMPLETE,200,https,GET,image/gif,/127.0.0.1,57558,s.tremorvideodsp.com/23.48.39.121,443,,04 Jun 2019 11:58:30,04 Jun 2019 11:58:30,04 Jun 2019 11:58:30,04 Jun 2019 11:58:30,46,,,,0,1,45,9.297852,0.0,41.992188,,395,,,0,43,,
https://s.tremorvideodsp.com/q/qa.gif?param1=creative_second_quartile,COMPLETE,200,https,GET,image/gif,/127.0.0.1,57562,s.tremorvideodsp.com/23.48.39.121,443,,04 Jun 2019 11:58:30,04 Jun 2019 11:58:30,04 Jun 2019 11:58:30,04 Jun 2019 11:58:30,46,,,,0,1,45,9.34082,0.0,41.992188,,397,,,0,43,,
https://l0-secure.videohub.tv/ssframework/log/log.png?EC=7&a=logitemaction&nolog=1&ssPD=tremorvideodsp.com&Uzip=__postalCode__&ADI=7918536&PRI=ef61a173-fcdf-434c-8405-a430aca7269c&Udma=__dma__&ssMLVer=rml_app_1.9.0&Uctry=__country__&AVI=425726&ssASVer=2.0&RI=1&Ust=__state__&NI=1344&admode=preroll&ssDsC=desktop&ssRnd=1598271762&Eipct=50&EiN=1,COMPLETE,200,https,GET,image/gif,/127.0.0.1,57573,l0-secure.videohub.tv/67.226.210.13,443,,04 Jun 2019 11:58:30,04 Jun 2019 11:58:30,04 Jun 2019 11:58:30,04 Jun 2019 11:58:30,12,,,,0,1,11,58.10547,0.0,41.992188,,671,,,0,43,,
https://l0-secure.videohub.tv/ssframework/log/log.png?EC=7&a=logitemaction&nolog=1&ssPD=tremorvideodsp.com&Uzip=__postalCode__&ADI=7918536&PRI=ef61a173-fcdf-434c-8405-a430aca7269c&Udma=__dma__&ssMLVer=rml_app_1.9.0&Uctry=__country__&AVI=425726&ssASVer=2.0&RI=1&Ust=__state__&NI=1344&admode=preroll&ssDsC=desktop&ssRnd=660744674&Eipct=75&EiN=1,COMPLETE,200,https,GET,image/gif,/127.0.0.1,57573,l0-secure.videohub.tv/67.226.210.13,443,,04 Jun 2019 11:58:34,04 Jun 2019 11:58:34,04 Jun 2019 11:58:34,04 Jun 2019 11:58:34,425,,,,0,1,424,1.6376953,0.0,41.992188,,670,,,0,43,,
https://s.tremorvideodsp.com/q/qa.gif?param1=screen_third_quartile,COMPLETE,200,https,GET,image/gif,/127.0.0.1,57558,s.tremorvideodsp.com/23.48.39.121,443,,04 Jun 2019 11:58:34,04 Jun 2019 11:58:34,04 Jun 2019 11:58:34,04 Jun 2019 11:58:34,17,,,,0,0,17,25.10254,0.0,0.0,,394,,,0,43,,
https://s.tremorvideodsp.com/q/qa.gif?param1=creative_third_quartile,COMPLETE,200,https,GET,image/gif,/127.0.0.1,57562,s.tremorvideodsp.com/23.48.39.121,443,,04 Jun 2019 11:58:34,04 Jun 2019 11:58:34,04 Jun 2019 11:58:34,04 Jun 2019 11:58:34,17,,,,0,0,17,25.217773,0.0,0.0,,396,,,0,43,,
https://l0-secure.videohub.tv/ssframework/log/log.png?EC=38&a=logitemaction&nolog=1&ssPD=tremorvideodsp.com&Uzip=__postalCode__&ADI=7918536&PRI=ef61a173-fcdf-434c-8405-a430aca7269c&Udma=__dma__&ssMLVer=rml_app_1.9.0&Uctry=__country__&AVI=425726&ssASVer=2.0&RI=1&Ust=__state__&NI=1344&admode=preroll&ssDsC=desktop&ssRnd=305644936&EvaF=1&pctVw=100,COMPLETE,200,https,GET,image/gif,/127.0.0.1,57573,l0-secure.videohub.tv/67.226.210.13,443,,04 Jun 2019 11:58:37,04 Jun 2019 11:58:37,04 Jun 2019 11:58:37,04 Jun 2019 11:58:37,22,,,,0,0,22,31.782227,0.0,0.0,,673,,,0,43,,
https://l0-secure.videohub.tv/ssframework/log/log.png?EC=7&a=logitemaction&nolog=1&ssPD=tremorvideodsp.com&Uzip=__postalCode__&ADI=7918536&PRI=ef61a173-fcdf-434c-8405-a430aca7269c&Udma=__dma__&ssMLVer=rml_app_1.9.0&Uctry=__country__&AVI=425726&ssASVer=2.0&RI=1&Ust=__state__&NI=1344&admode=preroll&ssDsC=desktop&ssRnd=1708436964&Eipct=100&RcpF=1&EiN=1,COMPLETE,200,https,GET,image/gif,/127.0.0.1,57573,l0-secure.videohub.tv/67.226.210.13,443,,04 Jun 2019 11:58:37,04 Jun 2019 11:58:37,04 Jun 2019 11:58:37,04 Jun 2019 11:58:37,16,,,,2,0,14,44.067383,331.54297,0.0,,679,,,0,43,,
https://s.tremorvideodsp.com/q/qa.gif?param1=screen_completion,COMPLETE,200,https,GET,image/gif,/127.0.0.1,57558,s.tremorvideodsp.com/23.48.39.121,443,,04 Jun 2019 11:58:37,04 Jun 2019 11:58:37,04 Jun 2019 11:58:37,04 Jun 2019 11:58:37,18,,,,0,0,18,23.49121,0.0,0.0,,390,,,0,43,,
https://s.tremorvideodsp.com/q/qa.gif?param1=creative_completion,COMPLETE,200,https,GET,image/gif,/127.0.0.1,57562,s.tremorvideodsp.com/23.48.39.121,443,,04 Jun 2019 11:58:37,04 Jun 2019 11:58:37,04 Jun 2019 11:58:37,04 Jun 2019 11:58:37,19,,,,0,0,19,22.357422,0.0,0.0,,392,,,0,43,,
https://s.tremorvideodsp.com/q/video1_small.mp4,COMPLETE,206,https,GET,video/mp4,/127.0.0.1,57673,s.tremorvideodsp.com/23.48.39.121,443,,04 Jun 2019 11:58:38,04 Jun 2019 11:58:38,04 Jun 2019 11:58:38,04 Jun 2019 11:58:38,181,100,7,22,0,0,52,88.84473,0.0,0.0,1058,358,,15049,0,2,,
https://s.tremorvideodsp.com/q/video1_small.mp4,COMPLETE,206,https,GET,video/mp4,/127.0.0.1,57673,s.tremorvideodsp.com/23.48.39.121,443,,04 Jun 2019 11:58:38,04 Jun 2019 11:58:38,04 Jun 2019 11:58:38,04 Jun 2019 11:58:38,39,,,,0,12,27,1650.0898,0.0,5333.333,,362,,,0,65536,,
https://s.tremorvideodsp.com/q/video1_small.mp4,COMPLETE,206,https,GET,video/mp4,/127.0.0.1,57673,s.tremorvideodsp.com/23.48.39.121,443,,04 Jun 2019 11:58:38,04 Jun 2019 11:58:38,04 Jun 2019 11:58:38,04 Jun 2019 11:58:38,32,,,,0,8,24,2011.2305,0.0,8000.0,,368,,,0,65536,,
https://s.tremorvideodsp.com/q/video1_small.mp4,COMPLETE,206,https,GET,video/mp4,/127.0.0.1,57675,s.tremorvideodsp.com/23.48.39.121,443,,04 Jun 2019 11:58:38,04 Jun 2019 11:58:38,04 Jun 2019 11:58:38,04 Jun 2019 11:58:39,773,2,8,22,0,716,25,12515.807,0.0,13510.33,986,368,,14959,0,9890599,,
https://s.tremorvideodsp.com/q/video1_small.mp4,COMPLETE,206,https,GET,video/mp4,/127.0.0.1,57673,s.tremorvideodsp.com/23.48.39.121,443,,04 Jun 2019 11:58:38,04 Jun 2019 11:58:38,04 Jun 2019 11:58:38,04 Jun 2019 11:58:38,29,,,,0,5,24,2219.288,0.0,12800.0,,368,,,0,65536,,
https://jwpltx.com,COMPLETE,200,https,CONNECT,,/127.0.0.1,57677,jwpltx.com/54.174.103.247,443,,04 Jun 2019 11:58:38,,,04 Jun 2019 11:59:12,33933,75,10,39,,,,0.9970703,,,1449,0,1205,31731,0,264,,
https://entitlements.jwplayer.com,COMPLETE,200,https,CONNECT,,/127.0.0.1,57679,entitlements.jwplayer.com/72.21.81.189,443,,04 Jun 2019 11:58:41,,,04 Jun 2019 11:59:13,31153,2,1,58,,,,1.1230469,,,1524,0,317,33541,0,464,,
https://s.tremorvideodsp.com/q/video1_small.mp4,COMPLETE,206,https,GET,video/mp4,/127.0.0.1,57681,s.tremorvideodsp.com/23.48.39.121,443,,04 Jun 2019 11:58:41,04 Jun 2019 11:58:42,04 Jun 2019 11:58:42,04 Jun 2019 11:58:42,54,2,7,22,0,0,23,297.79688,0.0,0.0,1058,358,,15049,0,2,,
https://s.tremorvideodsp.com/q/video1_small.mp4,COMPLETE,206,https,GET,video/mp4,/127.0.0.1,57681,s.tremorvideodsp.com/23.48.39.121,443,,04 Jun 2019 11:58:42,04 Jun 2019 11:58:42,04 Jun 2019 11:58:42,04 Jun 2019 11:58:42,37,,,,0,11,26,1739.2842,0.0,5818.1816,,362,,,0,65536,,
https://s.tremorvideodsp.com/q/video1_small.mp4,COMPLETE,206,https,GET,video/mp4,/127.0.0.1,57681,s.tremorvideodsp.com/23.48.39.121,443,,04 Jun 2019 11:58:42,04 Jun 2019 11:58:42,04 Jun 2019 11:58:42,04 Jun 2019 11:58:42,41,,,,0,4,37,1569.7402,0.0,16000.0,,368,,,0,65536,,
https://s.tremorvideodsp.com/q/video1_small.mp4,COMPLETE,206,https,GET,video/mp4,/127.0.0.1,57683,s.tremorvideodsp.com/23.48.39.121,443,com.xk72.proxy.ProxyException: Client closed connection before receiving entire response,04 Jun 2019 11:58:42,04 Jun 2019 11:58:42,04 Jun 2019 11:58:42,04 Jun 2019 11:58:42,190,2,9,31,0,121,27,5757.3086,0.0,9029.474,986,368,,14959,0,1103829,,
https://s.tremorvideodsp.com/q/video1_small.mp4,COMPLETE,206,https,GET,video/mp4,/127.0.0.1,57681,s.tremorvideodsp.com/23.48.39.121,443,,04 Jun 2019 11:58:42,04 Jun 2019 11:58:42,04 Jun 2019 11:58:42,04 Jun 2019 11:58:42,61,,,,0,4,57,1055.0713,0.0,16000.0,,368,,,0,65536,,
https://www.tremorvideodsp.com,COMPLETE,200,https,CONNECT,,/127.0.0.1,57685,www.tremorvideodsp.com/34.232.40.183,443,,04 Jun 2019 11:58:43,,,04 Jun 2019 11:58:43,216,30,9,53,,,,479.4463,,,1584,0,268,10148,0,94046,,
https://play.google.com,RECEIVING_REQUEST_BODY,200,https,CONNECT,,/127.0.0.1,57687,play.google.com/172.217.10.46,443,,04 Jun 2019 11:59:02,,,,24729,2,2,,,,,0.01953125,,,517,0,0,,0,0,,
https://play.google.com,RECEIVING_REQUEST_BODY,200,https,CONNECT,,/127.0.0.1,57689,play.google.com/172.217.10.46,443,,04 Jun 2019 11:59:02,,,,24688,1,2,,,,,0.01953125,,,517,0,0,,0,0,,
