URL,Status,Response Code,Protocol,Method,Content-Type,Client Address,Client Port,Remote Address,Remote Port,Exception,Request Start Time,Request End Time,Response Start Time,Response End Time,Duration (ms),DNS Duration (ms),Connect Duration (ms),SSL Duration (ms),Request Duration (ms),Response Duration (ms),Latency (ms),Speed (KB/s),Request Speed (KB/s),Response Speed (KB/s),Request Handshake Size (bytes),Request Header Size (bytes),Request Body Size (bytes),Response Handshake Size (bytes),Response Header Size (bytes),Response Body Size (bytes),Request Compression,Response Compression
https://14.client-channel.google.com,COMPLETE,200,https,CONNECT,,/127.0.0.1,56355,14.client-channel.google.com/74.125.192.189,443,,04 Jun 2019 10:12:36,,,04 Jun 2019 11:16:28,3832139,50,27,27,,,,0.0087890625,,,2207,0,15256,372,0,19378,,
https://ssl.gstatic.com,RECEIVING_REQUEST_BODY,200,https,CONNECT,,/127.0.0.1,56771,ssl.gstatic.com/172.217.12.195,443,,04 Jun 2019 10:43:20,,,,3684929,2,2,37,,,,0.0078125,,,1127,0,4451,18780,0,7343,,
https://ts01-b.cloudsink.net,COMPLETE,200,https,CONNECT,,/127.0.0.1,56803,ts01-b.cloudsink.net/13.56.127.239,443,,04 Jun 2019 10:50:27,,,04 Jun 2019 11:02:57,749917,33,71,173,,,,0.078125,,,1246,0,34773,17474,0,7201,,
https://play.google.com,COMPLETE,200,https,CONNECT,,/127.0.0.1,56805,play.google.com/172.217.10.46,443,,04 Jun 2019 10:50:40,,,04 Jun 2019 10:53:19,159331,2,2,4,,,,0.047851562,,,2207,0,3387,372,0,1933,,
https://play.google.com,COMPLETE,200,https,CONNECT,,/127.0.0.1,56807,play.google.com/172.217.10.46,443,,04 Jun 2019 10:50:42,,,04 Jun 2019 10:52:43,120825,2,2,3,,,,0.029296875,,,2207,0,610,372,0,548,,
https://clients4.google.com,COMPLETE,200,https,CONNECT,,/127.0.0.1,56811,clients4.google.com/172.217.10.238,443,,04 Jun 2019 10:51:22,,,04 Jun 2019 10:55:19,237621,2,3,48,,,,0.09765625,,,2892,0,1742,18780,0,440,,
https://entitlements.jwplayer.com,COMPLETE,200,https,CONNECT,,/127.0.0.1,56813,entitlements.jwplayer.com/72.21.81.189,443,,04 Jun 2019 10:51:39,,,04 Jun 2019 10:52:09,30472,2,2,53,,,,0.99316406,,,1684,0,317,28535,0,463,,
https://s.tremorvideodsp.com/q/video1_small.mp4,COMPLETE,206,https,GET,video/mp4,/127.0.0.1,56815,s.tremorvideodsp.com/23.48.39.121,443,,04 Jun 2019 10:51:39,04 Jun 2019 10:51:39,04 Jun 2019 10:51:39,04 Jun 2019 10:51:39,165,56,9,24,0,0,76,97.46094,0.0,0.0,1058,358,,15049,0,2,,
https://jwpltx.com,COMPLETE,200,https,CONNECT,,/127.0.0.1,56816,jwpltx.com/34.227.137.128,443,,04 Jun 2019 10:51:39,,,04 Jun 2019 10:52:30,50860,3,8,42,,,,0.66796875,,,1609,0,1205,31731,0,264,,
https://s.tremorvideodsp.com/q/video1_small.mp4,COMPLETE,206,https,GET,video/mp4,/127.0.0.1,56815,s.tremorvideodsp.com/23.48.39.121,443,,04 Jun 2019 10:51:39,04 Jun 2019 10:51:39,04 Jun 2019 10:51:39,04 Jun 2019 10:51:39,39,,,,0,12,27,1650.0898,0.0,5333.333,,362,,,0,65536,,
https://s.tremorvideodsp.com/q/video1_small.mp4,COMPLETE,206,https,GET,video/mp4,/127.0.0.1,56815,s.tremorvideodsp.com/23.48.39.121,443,,04 Jun 2019 10:51:39,04 Jun 2019 10:51:39,04 Jun 2019 10:51:39,04 Jun 2019 10:51:39,33,,,,0,7,26,1950.2832,0.0,9142.856,,368,,,0,65536,,
https://s.tremorvideodsp.com/q/video1_small.mp4,COMPLETE,206,https,GET,video/mp4,/127.0.0.1,56819,s.tremorvideodsp.com/23.48.39.121,443,,04 Jun 2019 10:51:39,04 Jun 2019 10:51:39,04 Jun 2019 10:51:39,04 Jun 2019 10:51:40,519,2,8,23,0,464,22,18641.076,0.0,20847.836,986,368,,14959,0,9890599,,
https://s.tremorvideodsp.com/q/video1_small.mp4,COMPLETE,206,https,GET,video/mp4,/127.0.0.1,56815,s.tremorvideodsp.com/23.48.39.121,443,,04 Jun 2019 10:51:39,04 Jun 2019 10:51:39,04 Jun 2019 10:51:39,04 Jun 2019 10:51:39,29,,,,0,5,24,2219.288,0.0,12800.0,,368,,,0,65536,,
https://adserver.videohub.tv/preview?RI=IlmzyPNeEPgHJwGWj4IqLg&screenType=mobiletablet&rml=true&Uctry=__country__&Ust=__state__&Udma=__dma__&Uzip=__postalCode__&Ucty=__city__&Uctnt=__continent__&Ulong=__longitude__&Ulat=__latitude__&Uacd=__areaCode__&position_ACP=__adChoicesPosition__&usedACP=__usedACP__&dspACP=__adChoicesProviders__&sig=B43A455637627DD42CD5C5897DCFD8A4&dmps=y&ssRmlApp=1&isApp=y,COMPLETE,200,https,GET,application/xml; charset=utf-8,/127.0.0.1,56821,adserver.videohub.tv/67.226.210.10,443,,04 Jun 2019 10:51:48,04 Jun 2019 10:51:48,04 Jun 2019 10:51:48,04 Jun 2019 10:51:48,118,49,11,33,0,11,14,334.45605,0.0,3435.6348,1046,668,,25605,0,13094,,
https://objects-secure.videohub.tv/net/js/rml-app.min.js?adData=https%3A%2F%2Fs.tremorvideodsp.com%2Fq%2Ftp_mp4.xml,COMPLETE,200,https,GET,application/javascript,/127.0.0.1,56823,objects-secure.videohub.tv/104.110.215.249,443,,04 Jun 2019 10:51:48,04 Jun 2019 10:51:48,04 Jun 2019 10:51:48,04 Jun 2019 10:51:48,101,46,9,25,0,12,9,784.334,0.0,6483.0723,1070,385,,16754,0,62910,,72.6%
https://s.tremorvideodsp.com/q/tp_mp4.xml,COMPLETE,200,https,GET,text/xml,/127.0.0.1,56825,s.tremorvideodsp.com/23.48.39.121,443,,04 Jun 2019 10:51:48,04 Jun 2019 10:51:48,04 Jun 2019 10:51:48,04 Jun 2019 10:51:48,75,1,9,23,0,0,42,218.68457,0.0,0.0,1046,311,,15049,0,389,,55.6%
https://objects-secure.tremormedia.com/net/js/io-polyfill-0.5.1.js,COMPLETE,200,https,GET,application/javascript,/127.0.0.1,56827,objects-secure.tremormedia.com/104.110.194.47,443,,04 Jun 2019 10:51:48,04 Jun 2019 10:51:48,04 Jun 2019 10:51:48,04 Jun 2019 10:51:48,91,51,8,23,0,1,8,263.67188,0.0,22605.469,1086,336,,16789,0,6359,,71.5%
https://s.tremorvideodsp.com/q/preroll.mp4,COMPLETE,206,https,GET,video/mp4,/127.0.0.1,56825,s.tremorvideodsp.com/23.48.39.121,443,,04 Jun 2019 10:51:48,04 Jun 2019 10:51:48,04 Jun 2019 10:51:49,04 Jun 2019 10:51:49,86,,,,1,0,85,4.3603516,373.04688,0.0,,382,,,0,2,,
https://s.tremorvideodsp.com/q/preroll.mp4,COMPLETE,206,https,GET,video/mp4,/127.0.0.1,56825,s.tremorvideodsp.com/23.48.39.121,443,,04 Jun 2019 10:51:49,04 Jun 2019 10:51:49,04 Jun 2019 10:51:49,04 Jun 2019 10:51:49,46,,,,1,2,43,356.0205,376.95312,8000.0,,386,,,0,16384,,
https://s.tremorvideodsp.com/q/preroll.mp4,COMPLETE,206,https,GET,video/mp4,/127.0.0.1,56825,s.tremorvideodsp.com/23.48.39.121,443,,04 Jun 2019 10:51:49,04 Jun 2019 10:51:49,04 Jun 2019 10:51:49,04 Jun 2019 10:51:49,23,,,,0,4,19,712.21094,0.0,4000.0,,390,,,0,16384,,
https://s.tremorvideodsp.com/q/preroll.mp4,COMPLETE,206,https,GET,video/mp4,/127.0.0.1,56825,s.tremorvideodsp.com/23.48.39.121,443,,04 Jun 2019 10:51:49,04 Jun 2019 10:51:49,04 Jun 2019 10:51:49,04 Jun 2019 10:51:49,185,,,,0,165,20,11918.602,0.0,13360.961,,392,,,0,2257468,,
https://s.tremorvideodsp.com/q/preroll.mp4,COMPLETE,206,https,GET,video/mp4,/127.0.0.1,56829,s.tremorvideodsp.com/23.48.39.121,443,,04 Jun 2019 10:51:49,04 Jun 2019 10:51:49,04 Jun 2019 10:51:49,04 Jun 2019 10:51:49,85,8,10,31,0,2,34,375.90723,0.0,15304.199,986,390,,14959,0,16384,,
https://objects-secure.tremormedia.com/net/js/selectviewicon.min.js?playerWidth=770&playerHeight=1026&skipAdDelay=5000,COMPLETE,200,https,GET,application/javascript,/127.0.0.1,56827,objects-secure.tremormedia.com/104.110.194.47,443,,04 Jun 2019 10:51:49,04 Jun 2019 10:51:49,04 Jun 2019 10:51:49,04 Jun 2019 10:51:49,13,,,,3,4,6,362.3789,126.30176,1083.0078,,388,,,0,4436,,67.3%
https://prd.jwpltx.com,COMPLETE,200,https,CONNECT,,/127.0.0.1,56831,prd.jwpltx.com/34.195.231.192,443,,04 Jun 2019 10:51:49,,,04 Jun 2019 10:52:29,40581,63,10,57,,,,0.8515625,,,1469,0,1925,31731,0,264,,
https://dt-secure.videohub.tv/v1/usync/ironsource?userId=,COMPLETE,303,https,GET,image/gif,/127.0.0.1,56832,dt-secure.videohub.tv/67.226.210.14,443,,04 Jun 2019 10:51:49,04 Jun 2019 10:51:49,04 Jun 2019 10:51:49,04 Jun 2019 10:51:49,62,2,10,38,1,0,11,430.7422,1401.3672,0.0,1050,385,,25869,0,43,,
https://sync.doubleverify.com/query.gif?ctx=42674&cmp=2311460&DVP_CMPID=&DVP_PUBID=&dvp_red=http%3A%2F%2Fads.videohub.tv%2Fssframework%2Fdt%2Fbotid%3Fa%3Dset%26DUID%3D1,COMPLETE,200,https,GET,image/gif,/127.0.0.1,56834,sync.doubleverify.com/204.154.111.224,443,,04 Jun 2019 10:51:49,04 Jun 2019 10:51:49,04 Jun 2019 10:51:49,04 Jun 2019 10:51:49,41,27,3,3,0,1,7,57.878906,0.0,1176.7578,729,496,,345,0,860,,-6.6%
https://tags.bluekai.com/site/2954,COMPLETE,200,https,GET,image/gif,/127.0.0.1,56836,tags.bluekai.com/96.7.23.53,443,,04 Jun 2019 10:51:49,04 Jun 2019 10:51:49,04 Jun 2019 10:51:49,04 Jun 2019 10:51:49,129,7,11,31,0,0,80,115.55176,0.0,0.0,1030,362,,13810,0,62,,
https://tps30.doubleverify.com/visit.jpg?ctx=42674&cmp=2256325&sid=1111&plc=22563261&num=&adid=&advid=498259&adsrv=41&region=30&btreg=&btadsrv=&crt=&crtname=&chnl=&unit=&pid=&uid=&dvtagver=6.1.img&DVP_CMPID=&DVP_PUBID=&turl=tremorvideodsp.com,COMPLETE,200,https,GET,image/jpeg,/127.0.0.1,56835,tps30.doubleverify.com/204.154.111.121,443,,04 Jun 2019 10:51:49,04 Jun 2019 10:51:49,04 Jun 2019 10:51:49,04 Jun 2019 10:51:49,297,273,3,12,0,1,8,85.79199,0.0,23769.531,1182,570,,24198,0,142,,53.4%
https://s.tremorvideodsp.com/q/qa.gif?param1=screen_impression,COMPLETE,200,https,GET,image/gif,/127.0.0.1,56825,s.tremorvideodsp.com/23.48.39.121,443,,04 Jun 2019 10:51:49,04 Jun 2019 10:51:49,04 Jun 2019 10:51:49,04 Jun 2019 10:51:49,43,,,,0,1,42,9.833008,0.0,41.992188,,390,,,0,43,,
https://s.tremorvideodsp.com/q/qa.gif?param1=creative_impression,COMPLETE,200,https,GET,image/gif,/127.0.0.1,56829,s.tremorvideodsp.com/23.48.39.121,443,,04 Jun 2019 10:51:49,04 Jun 2019 10:51:49,04 Jun 2019 10:51:49,04 Jun 2019 10:51:49,43,,,,0,0,43,9.878906,0.0,0.0,,392,,,0,43,,
https://tp.videohub.tv/v1/topprop.png?domain=&ui=&pri=b33fbdbc-c6e3-43fc-9cae-6527716aebfc&ssRnd=667074001,COMPLETE,200,https,GET,image/png,/127.0.0.1,56839,tp.videohub.tv/67.226.210.14,443,,04 Jun 2019 10:51:49,04 Jun 2019 10:51:49,04 Jun 2019 10:51:49,04 Jun 2019 10:51:49,91,40,9,28,0,0,14,293.69824,0.0,0.0,1022,434,,25869,0,43,,
https://l0-secure.videohub.tv/ssframework/log/log.png?EC=3&a=logitemaction&nolog=1&ssPD=tremorvideodsp.com&Uzip=__postalCode__&ADI=7880836&PRI=b33fbdbc-c6e3-43fc-9cae-6527716aebfc&Udma=__dma__&ssMLVer=rml_app_1.9.0&Uctry=__country__&AVI=425726&ssASVer=2.0&RI=1&Ust=__state__&NI=1344&admode=preroll&ssDsC=mobiletablet&ssRnd=1356319399&SfF=true&AmN=1&adFocus=true&RvN=1,COMPLETE,200,https,GET,image/gif,/127.0.0.1,56840,l0-secure.videohub.tv/67.226.210.12,443,,04 Jun 2019 10:51:49,04 Jun 2019 10:51:49,04 Jun 2019 10:51:49,04 Jun 2019 10:51:49,88,29,11,29,0,0,19,306.91797,0.0,0.0,1050,695,,25869,0,43,,
https://sync.doubleverify.com/query.gif?ctx=42674&cmp=2256325&DVP_CMPID=&DVP_PUBID=&dvp_red=http%3A%2F%2Fapp.scanscout.com%2Fssframework%2Fdt%2Fbotid%3Fa%3Dset%26DUID%3D1,COMPLETE,200,https,GET,image/gif,/127.0.0.1,56844,sync.doubleverify.com/204.154.111.224,443,,04 Jun 2019 10:51:49,04 Jun 2019 10:51:49,04 Jun 2019 10:51:49,04 Jun 2019 10:51:49,14,1,3,4,0,1,5,166.5039,0.0,1176.7578,684,498,,345,0,860,,-6.6%
https://dt-secure.videohub.tv/v1/usync/lkqd_direct?userId=,COMPLETE,303,https,GET,image/gif,/127.0.0.1,56847,dt-secure.videohub.tv/67.226.210.14,443,,04 Jun 2019 10:51:49,04 Jun 2019 10:51:49,04 Jun 2019 10:51:49,04 Jun 2019 10:51:49,60,2,8,31,0,0,19,444.14062,0.0,0.0,990,386,,25869,0,43,,
https://dt-secure.videohub.tv/v1/usync/pubmatic?userId=,COMPLETE,303,https,GET,image/gif,/127.0.0.1,56848,dt-secure.videohub.tv/67.226.210.14,443,,04 Jun 2019 10:51:49,04 Jun 2019 10:51:49,04 Jun 2019 10:51:49,04 Jun 2019 10:51:49,71,2,11,35,1,1,21,375.2881,1340.8203,25304.688,990,383,,25869,0,43,,
https://dt-secure.videohub.tv/v1/usync/springserve?userId=,COMPLETE,303,https,GET,image/gif,/127.0.0.1,56850,dt-secure.videohub.tv/67.226.210.14,443,,04 Jun 2019 10:51:49,04 Jun 2019 10:51:49,04 Jun 2019 10:51:49,04 Jun 2019 10:51:49,65,3,10,41,0,1,10,409.9756,0.0,25304.688,990,386,,25869,0,43,,
https://dt-secure.videohub.tv/v1/usync/bs?userId=,COMPLETE,303,https,GET,image/gif,/127.0.0.1,56846,dt-secure.videohub.tv/67.226.210.14,443,,04 Jun 2019 10:51:49,04 Jun 2019 10:51:49,04 Jun 2019 10:51:49,04 Jun 2019 10:51:49,56,1,10,32,0,0,13,475.708,0.0,0.0,990,377,,25869,0,43,,
https://dt-secure.videohub.tv/v1/usync/rubicon?userId=,COMPLETE,303,https,GET,image/gif,/127.0.0.1,56849,dt-secure.videohub.tv/67.226.210.14,443,,04 Jun 2019 10:51:49,04 Jun 2019 10:51:49,04 Jun 2019 10:51:49,04 Jun 2019 10:51:49,69,1,9,35,0,1,23,386.15234,0.0,25304.688,990,382,,25869,0,43,,
https://dt-secure.videohub.tv/v1/usync/spx?userId=,COMPLETE,303,https,GET,image/gif,/127.0.0.1,56832,dt-secure.videohub.tv/67.226.210.14,443,,04 Jun 2019 10:51:49,04 Jun 2019 10:51:49,04 Jun 2019 10:51:49,04 Jun 2019 10:51:49,12,,,,0,0,12,34.260742,0.0,0.0,,378,,,0,43,,
https://cs.rtb-seller.com,COMPLETE,200,https,CONNECT,,/127.0.0.1,56856,cs.rtb-seller.com/52.200.27.187,443,,04 Jun 2019 10:51:49,,,04 Jun 2019 10:52:19,30303,5,8,109,,,,0.9091797,,,1484,0,388,26180,0,170,,
https://dt-secure.videohub.tv/v1/usync/rhythmone?userId=,COMPLETE,303,https,GET,image/gif,/127.0.0.1,56832,dt-secure.videohub.tv/67.226.210.14,443,,04 Jun 2019 10:51:49,04 Jun 2019 10:51:49,04 Jun 2019 10:51:49,04 Jun 2019 10:51:49,27,,,,0,0,27,15.443359,0.0,0.0,,384,,,0,43,,
https://sync.search.spotxchange.com,COMPLETE,200,https,CONNECT,,/127.0.0.1,56858,sync.search.spotxchange.com/192.35.249.127,443,,04 Jun 2019 10:51:49,,,04 Jun 2019 10:52:21,31430,6,10,146,,,,0.6230469,,,1534,0,886,16383,0,1259,,
https://dt-secure.videohub.tv/v1/usync/tr?userId=,COMPLETE,303,https,GET,image/gif,/127.0.0.1,56832,dt-secure.videohub.tv/67.226.210.14,443,,04 Jun 2019 10:51:49,04 Jun 2019 10:51:49,04 Jun 2019 10:51:49,04 Jun 2019 10:51:49,26,,,,0,0,26,15.774414,0.0,0.0,,377,,,0,43,,
https://l0-secure.videohub.tv/ssframework/log/log.png?EC=7&a=logitemaction&nolog=1&ssPD=tremorvideodsp.com&Uzip=__postalCode__&ADI=7880836&PRI=b33fbdbc-c6e3-43fc-9cae-6527716aebfc&Udma=__dma__&ssMLVer=rml_app_1.9.0&Uctry=__country__&AVI=425726&ssASVer=2.0&RI=1&Ust=__state__&NI=1344&admode=preroll&ssDsC=mobiletablet&ssRnd=722330585&Eipct=0&EvaF=1&EiN=1,COMPLETE,200,https,GET,image/gif,/127.0.0.1,56860,l0-secure.videohub.tv/67.226.210.12,443,,04 Jun 2019 10:51:49,04 Jun 2019 10:51:49,04 Jun 2019 10:51:49,04 Jun 2019 10:51:49,54,1,12,30,0,0,11,498.82422,0.0,0.0,990,681,,25869,0,43,,
https://sync.1rx.io,COMPLETE,200,https,CONNECT,,/127.0.0.1,56863,sync.1rx.io/8.41.222.150,443,,04 Jun 2019 10:51:49,,,04 Jun 2019 10:52:21,31365,4,2,192,,,,0.86328125,,,1094,0,796,24907,0,936,,
https://dt-secure.videohub.tv/ssframework/tvuid?a=set&UI=,COMPLETE,400,https,GET,image/gif,/127.0.0.1,56847,dt-secure.videohub.tv/67.226.210.14,443,,04 Jun 2019 10:51:49,04 Jun 2019 10:51:49,04 Jun 2019 10:51:49,04 Jun 2019 10:51:49,10,,,,1,0,9,41.796875,375.97656,0.0,,385,,,0,43,,
https://dt-secure.videohub.tv/v1/usync/ex?userId=,COMPLETE,303,https,GET,image/gif,/127.0.0.1,56846,dt-secure.videohub.tv/67.226.210.14,443,,04 Jun 2019 10:51:49,04 Jun 2019 10:51:49,04 Jun 2019 10:51:49,04 Jun 2019 10:51:49,11,,,,0,0,11,37.286133,0.0,0.0,,377,,,0,43,,
https://dt-secure.videohub.tv/v1/usync/lo?userId=,COMPLETE,303,https,GET,image/gif,/127.0.0.1,56850,dt-secure.videohub.tv/67.226.210.14,443,,04 Jun 2019 10:51:49,04 Jun 2019 10:51:49,04 Jun 2019 10:51:49,04 Jun 2019 10:51:49,11,,,,0,0,11,37.286133,0.0,0.0,,377,,,0,43,,
https://cs.lkqd.net,COMPLETE,200,https,CONNECT,,/127.0.0.1,56865,cs.lkqd.net/146.20.132.223,443,,04 Jun 2019 10:51:49,,,04 Jun 2019 10:52:21,31343,32,12,255,,,,1.3769531,,,1322,0,396,42000,0,482,,
https://x.bidswitch.net,COMPLETE,200,https,CONNECT,,/127.0.0.1,56866,x.bidswitch.net/104.196.142.56,443,,04 Jun 2019 10:51:49,,,04 Jun 2019 10:52:00,10416,3,19,275,,,,3.6542969,,,1546,0,405,36284,0,743,,
https://dt-secure.videohub.tv/v1/usync/dd?userId=,COMPLETE,303,https,GET,image/gif,/127.0.0.1,56848,dt-secure.videohub.tv/67.226.210.14,443,,04 Jun 2019 10:51:49,04 Jun 2019 10:51:49,04 Jun 2019 10:51:49,04 Jun 2019 10:51:49,14,,,,1,0,13,29.296875,368.16406,0.0,,377,,,0,43,,
https://dt-secure.videohub.tv/v1/usync/ds?userId=,COMPLETE,303,https,GET,image/gif,/127.0.0.1,56849,dt-secure.videohub.tv/67.226.210.14,443,,04 Jun 2019 10:51:49,04 Jun 2019 10:51:49,04 Jun 2019 10:51:49,04 Jun 2019 10:51:49,19,,,,0,0,19,21.586914,0.0,0.0,,377,,,0,43,,
https://dt-secure.videohub.tv/v1/usync/db?userId=&deviceId=unknown&screenType=mobiletablet&osType=iOS&rand=1294327304,COMPLETE,303,https,GET,image/gif,/127.0.0.1,56832,dt-secure.videohub.tv/67.226.210.14,443,,04 Jun 2019 10:51:49,04 Jun 2019 10:51:49,04 Jun 2019 10:51:49,04 Jun 2019 10:51:49,18,,,,1,1,16,26.475586,434.5703,41.992188,,445,,,0,43,,
https://dt-secure.videohub.tv/v1/usync/kx?userId=,COMPLETE,303,https,GET,image/gif,/127.0.0.1,56847,dt-secure.videohub.tv/67.226.210.14,443,,04 Jun 2019 10:51:49,04 Jun 2019 10:51:49,04 Jun 2019 10:51:49,04 Jun 2019 10:51:49,9,,,,0,1,8,45.572266,0.0,41.992188,,377,,,0,43,,
https://dt-secure.videohub.tv/v1/usync/lrjs?userId=,COMPLETE,303,https,GET,image/gif,/127.0.0.1,56846,dt-secure.videohub.tv/67.226.210.14,443,,04 Jun 2019 10:51:49,04 Jun 2019 10:51:49,04 Jun 2019 10:51:49,04 Jun 2019 10:51:49,10,,,,0,0,10,41.210938,0.0,0.0,,379,,,0,43,,
https://simage2.pubmatic.com,COMPLETE,200,https,CONNECT,,/127.0.0.1,56869,simage2.pubmatic.com/162.248.19.147,443,,04 Jun 2019 10:51:49,,,04 Jun 2019 10:52:21,31315,34,1,230,,,,0.68652344,,,1499,0,455,19257,0,827,,
https://sync.springserve.com,COMPLETE,200,https,CONNECT,,/127.0.0.1,56868,sync.springserve.com/18.214.171.42,443,,04 Jun 2019 10:51:49,,,04 Jun 2019 10:52:21,31315,65,9,235,,,,1.0527344,,,1499,0,397,31653,0,212,,
https://pixel.rubiconproject.com,COMPLETE,200,https,CONNECT,,/127.0.0.1,56870,pixel.rubiconproject.com/208.185.50.90,443,,04 Jun 2019 10:51:49,,,04 Jun 2019 10:52:21,31299,57,9,298,,,,0.63378906,,,1589,0,890,16516,0,1322,,
https://dt-secure.videohub.tv/v1/usync/al?userId=,COMPLETE,303,https,GET,image/gif,/127.0.0.1,56850,dt-secure.videohub.tv/67.226.210.14,443,,04 Jun 2019 10:51:49,04 Jun 2019 10:51:49,04 Jun 2019 10:51:49,04 Jun 2019 10:51:49,11,,,,0,0,11,37.286133,0.0,0.0,,377,,,0,43,,
https://loadm.exelator.com,COMPLETE,200,https,CONNECT,,/127.0.0.1,56871,loadm.exelator.com/147.75.39.192,443,,04 Jun 2019 10:51:49,,,04 Jun 2019 10:52:00,10436,30,3,232,,,,3.2851562,,,1489,0,816,31294,0,1509,,
https://partners.tremorhub.com,COMPLETE,200,https,CONNECT,,/127.0.0.1,56873,partners.tremorhub.com/52.3.167.150,443,,04 Jun 2019 10:51:49,,,04 Jun 2019 10:52:21,31288,34,8,254,,,,1.0761719,,,1509,0,387,32079,0,516,,
https://dt-secure.videohub.tv/v1/usync/bk?userId=,COMPLETE,303,https,GET,image/gif,/127.0.0.1,56848,dt-secure.videohub.tv/67.226.210.14,443,,04 Jun 2019 10:51:49,04 Jun 2019 10:51:49,04 Jun 2019 10:51:49,04 Jun 2019 10:51:49,12,,,,0,0,12,34.179688,0.0,0.0,,377,,,0,43,,
https://dt-secure.videohub.tv/v1/usync/lr?userId=,COMPLETE,303,https,GET,image/gif,/127.0.0.1,56849,dt-secure.videohub.tv/67.226.210.14,443,,04 Jun 2019 10:51:49,04 Jun 2019 10:51:49,04 Jun 2019 10:51:49,04 Jun 2019 10:51:49,10,,,,0,0,10,41.015625,0.0,0.0,,377,,,0,43,,
https://dt-secure.videohub.tv/v1/usync/ns?userId=,COMPLETE,303,https,GET,image/gif,/127.0.0.1,56847,dt-secure.videohub.tv/67.226.210.14,443,,04 Jun 2019 10:51:49,04 Jun 2019 10:51:49,04 Jun 2019 10:51:49,04 Jun 2019 10:51:49,9,,,,0,0,9,45.572266,0.0,0.0,,377,,,0,43,,
https://objects-secure.tremormedia.com/net/js/lr.js?partner_id=4e71c5df4b52ed4bcdb64fc08bc4bbd3,COMPLETE,200,https,GET,application/javascript,/127.0.0.1,56827,objects-secure.tremormedia.com/104.110.194.47,443,,04 Jun 2019 10:51:49,04 Jun 2019 10:51:49,04 Jun 2019 10:51:49,04 Jun 2019 10:51:49,9,,,,0,1,8,130.3164,0.0,759.7656,,423,,,0,778,,57.1%
https://bcp.crwdcntrl.net,COMPLETE,200,https,CONNECT,,/127.0.0.1,56875,bcp.crwdcntrl.net/52.4.111.14,443,,04 Jun 2019 10:51:49,,,04 Jun 2019 10:52:21,31253,6,9,239,,,,1.0693359,,,1484,0,797,31179,0,790,,
https://dpm.demdex.net,COMPLETE,200,https,CONNECT,,/127.0.0.1,56876,dpm.demdex.net/34.206.188.176,443,,04 Jun 2019 10:51:49,,,04 Jun 2019 10:52:21,31247,6,10,246,,,,0.67871094,,,1469,0,804,18303,0,1155,,
https://idpix.media6degrees.com,COMPLETE,200,https,CONNECT,,/127.0.0.1,56877,idpix.media6degrees.com/204.2.197.201,443,,04 Jun 2019 10:51:49,,,04 Jun 2019 10:51:50,447,46,3,232,,,,58.527344,,,1514,0,431,24075,0,770,,
https://beacon.krxd.net,COMPLETE,200,https,CONNECT,,/127.0.0.1,56879,beacon.krxd.net/54.243.152.122,443,,04 Jun 2019 10:51:49,,,04 Jun 2019 10:52:21,31229,33,9,197,,,,1.046875,,,1474,0,414,31113,0,483,,
https://p.adsymptotic.com,COMPLETE,200,https,CONNECT,,/127.0.0.1,56885,p.adsymptotic.com/52.204.252.186,443,,04 Jun 2019 10:51:49,,,04 Jun 2019 10:52:21,31178,28,9,208,,,,0.7080078,,,1484,0,944,19281,0,921,,
https://sync.alphonso.tv,COMPLETE,200,https,CONNECT,,/127.0.0.1,56888,sync.alphonso.tv/104.129.168.238,443,,04 Jun 2019 10:51:49,,,04 Jun 2019 10:52:21,31124,6,5,213,,,,0.9472656,,,1479,0,391,27865,0,471,,
https://stags.bluekai.com,COMPLETE,200,https,CONNECT,,/127.0.0.1,56889,stags.bluekai.com/96.7.23.53,443,,04 Jun 2019 10:51:49,,,04 Jun 2019 10:52:21,31125,43,11,252,,,,0.7519531,,,1484,0,459,21249,0,782,,
https://aa.agkn.com,COMPLETE,200,https,CONNECT,,/127.0.0.1,56891,aa.agkn.com/156.154.200.36,443,,04 Jun 2019 10:51:49,,,04 Jun 2019 10:51:50,401,43,21,258,,,,56.32617,,,1454,0,402,20762,0,511,,
https://idsync.rlcdn.com,COMPLETE,200,https,CONNECT,,/127.0.0.1,56890,idsync.rlcdn.com/34.95.92.78,443,,04 Jun 2019 10:51:49,,,04 Jun 2019 10:52:21,31106,5,2,192,,,,0.8720703,,,1347,0,838,24510,0,1107,,
https://tps30.doubleverify.com/visit.jpg?ctx=42674&cmp=DV069178&sid=1111&plc=2018011501&advid=3819603&adsrv=0&tagtype=&dvtagver=6.1.img&DVP_PP_REP=1&DVP_IQM_ID=16&DVP_DV_TT=2&DVP_DV_CT=2&DVP_TR_SSP=&DVP_TR_PUB=[PUBLISHER_ID]&DVP_TR_SITE=[SUPPLY_ID]&DVP_TR_ADV=425726&DVP_TR_CMP=&DVP_TR_PLC=&turl=tremorvideodsp.com&DVP_PP_BUNDLE_ID=&DVP_TR_COST=,COMPLETE,200,https,GET,image/jpeg,/127.0.0.1,56895,tps30.doubleverify.com/204.154.111.121,443,,04 Jun 2019 10:51:50,04 Jun 2019 10:51:50,04 Jun 2019 10:51:50,04 Jun 2019 10:51:50,20,2,2,3,0,0,13,89.30664,0.0,0.0,687,673,,327,0,142,,53.4%
https://bsw.digitru.st,COMPLETE,200,https,CONNECT,,/127.0.0.1,56899,bsw.digitru.st/104.196.142.56,443,,04 Jun 2019 10:51:50,,,04 Jun 2019 10:52:00,10159,4,20,63,,,,3.6279297,,,1541,0,405,35144,0,658,,
https://pippio.com,COMPLETE,200,https,CONNECT,,/127.0.0.1,56901,pippio.com/107.178.254.65,443,,04 Jun 2019 10:51:50,,,04 Jun 2019 10:52:21,30739,5,2,25,,,,0.86328125,,,1317,0,751,23570,0,1536,,
https://d.agkn.com,COMPLETE,200,https,CONNECT,,/127.0.0.1,56903,d.agkn.com/52.200.54.54,443,,04 Jun 2019 10:51:50,,,04 Jun 2019 10:52:20,30421,7,9,35,,,,0.8798828,,,1449,0,384,25023,0,576,,
https://dt-secure.videohub.tv/v1/uid?UIBK=4fld12Jv99YUL4jz,COMPLETE,200,https,GET,image/gif,/127.0.0.1,56832,dt-secure.videohub.tv/67.226.210.14,443,,04 Jun 2019 10:51:50,04 Jun 2019 10:51:50,04 Jun 2019 10:51:50,04 Jun 2019 10:51:50,13,,,,1,0,12,32.226562,376.95312,0.0,,386,,,0,43,,
https://us-east-sync.bidswitch.net,COMPLETE,200,https,CONNECT,,/127.0.0.1,56905,us-east-sync.bidswitch.net/35.185.66.230,443,,04 Jun 2019 10:51:50,,,04 Jun 2019 10:52:00,10143,6,20,60,,,,3.7558594,,,1601,0,430,36284,0,700,,
https://cm.g.doubleclick.net,COMPLETE,200,https,CONNECT,,/127.0.0.1,56907,cm.g.doubleclick.net/172.217.9.226,443,,04 Jun 2019 10:51:50,,,04 Jun 2019 10:52:21,30657,2,2,43,,,,0.5439453,,,1367,0,424,14345,0,969,,
https://tag.apxlv.com,COMPLETE,200,https,CONNECT,,/127.0.0.1,56909,tag.apxlv.com/162.223.54.6,443,,04 Jun 2019 10:51:50,,,04 Jun 2019 10:52:21,30518,19,8,47,,,,0.8964844,,,1464,0,368,25553,0,647,,
https://tag.cogocast.net,COMPLETE,200,https,CONNECT,,/127.0.0.1,56911,tag.cogocast.net/54.152.25.88,443,,04 Jun 2019 10:51:50,,,04 Jun 2019 10:52:21,30417,5,8,31,,,,1.1064453,,,1479,0,502,31563,0,923,,
https://gpush.cogocast.net,COMPLETE,200,https,CONNECT,,/127.0.0.1,56913,gpush.cogocast.net/162.223.54.16,443,,04 Jun 2019 10:51:50,,,04 Jun 2019 10:51:50,48,20,9,,,,,4.4140625,,,210,0,0,7,0,0,,
https://objects-secure.tremormedia.com/net/js/adchoicesappicon.min.js?iconPosition=top-left&optOut=&iconClick=&playerWidth=770&playerHeight=1026&sources=&country=us,COMPLETE,200,https,GET,application/javascript,/127.0.0.1,56827,objects-secure.tremormedia.com/104.110.194.47,443,,04 Jun 2019 10:51:51,04 Jun 2019 10:51:51,04 Jun 2019 10:51:51,04 Jun 2019 10:51:51,15,,,,1,6,8,1136.3926,423.82812,2770.3447,,434,,,0,17021,,45.7%
https://l0-secure.videohub.tv/ssframework/log/log.png?EC=40&a=logitemaction&nolog=1&ssPD=tremorvideodsp.com&Uzip=__postalCode__&ADI=7880836&PRI=b33fbdbc-c6e3-43fc-9cae-6527716aebfc&Udma=__dma__&ssMLVer=rml_app_1.9.0&Uctry=__country__&AVI=425726&ssASVer=2.0&RI=1&Ust=__state__&NI=1344&admode=preroll&ssDsC=mobiletablet&ssRnd=99677682&EvaF=1&pctVw=0,COMPLETE,200,https,GET,image/gif,/127.0.0.1,56840,l0-secure.videohub.tv/67.226.210.12,443,,04 Jun 2019 10:51:51,04 Jun 2019 10:51:51,04 Jun 2019 10:51:51,04 Jun 2019 10:51:51,18,,,,0,0,18,38.953125,0.0,0.0,,675,,,0,43,,
https://s.tremorvideodsp.com/q/qa.gif?param1=screen_first_quartile,COMPLETE,200,https,GET,image/gif,/127.0.0.1,56825,s.tremorvideodsp.com/23.48.39.121,443,,04 Jun 2019 10:51:53,04 Jun 2019 10:51:53,04 Jun 2019 10:51:53,04 Jun 2019 10:51:53,15,,,,0,0,15,28.450195,0.0,0.0,,394,,,0,43,,
https://l0-secure.videohub.tv/ssframework/log/log.png?EC=7&a=logitemaction&nolog=1&ssPD=tremorvideodsp.com&Uzip=__postalCode__&ADI=7880836&PRI=b33fbdbc-c6e3-43fc-9cae-6527716aebfc&Udma=__dma__&ssMLVer=rml_app_1.9.0&Uctry=__country__&AVI=425726&ssASVer=2.0&RI=1&Ust=__state__&NI=1344&admode=preroll&ssDsC=mobiletablet&ssRnd=11871180&Eipct=25&EiN=1,COMPLETE,200,https,GET,image/gif,/127.0.0.1,56840,l0-secure.videohub.tv/67.226.210.12,443,,04 Jun 2019 10:51:53,04 Jun 2019 10:51:53,04 Jun 2019 10:51:53,04 Jun 2019 10:51:53,16,,,,0,0,16,43.76172,0.0,0.0,,674,,,0,43,,
https://s.tremorvideodsp.com/q/qa.gif?param1=creative_first_quartile,COMPLETE,200,https,GET,image/gif,/127.0.0.1,56829,s.tremorvideodsp.com/23.48.39.121,443,,04 Jun 2019 10:51:53,04 Jun 2019 10:51:53,04 Jun 2019 10:51:53,04 Jun 2019 10:51:53,14,,,,1,0,13,30.62207,386.71875,0.0,,396,,,0,43,,
https://s.tremorvideodsp.com/q/qa.gif?param1=screen_second_quartile,COMPLETE,200,https,GET,image/gif,/127.0.0.1,56825,s.tremorvideodsp.com/23.48.39.121,443,,04 Jun 2019 10:51:56,04 Jun 2019 10:51:56,04 Jun 2019 10:51:56,04 Jun 2019 10:51:56,15,,,,0,0,15,28.515625,0.0,0.0,,395,,,0,43,,
https://l0-secure.videohub.tv/ssframework/log/log.png?EC=7&a=logitemaction&nolog=1&ssPD=tremorvideodsp.com&Uzip=__postalCode__&ADI=7880836&PRI=b33fbdbc-c6e3-43fc-9cae-6527716aebfc&Udma=__dma__&ssMLVer=rml_app_1.9.0&Uctry=__country__&AVI=425726&ssASVer=2.0&RI=1&Ust=__state__&NI=1344&admode=preroll&ssDsC=mobiletablet&ssRnd=616658696&Eipct=50&EiN=1,COMPLETE,200,https,GET,image/gif,/127.0.0.1,56840,l0-secure.videohub.tv/67.226.210.12,443,,04 Jun 2019 10:51:56,04 Jun 2019 10:51:56,04 Jun 2019 10:51:56,04 Jun 2019 10:51:56,12,,,,0,0,12,58.430664,0.0,0.0,,675,,,0,43,,
https://s.tremorvideodsp.com/q/qa.gif?param1=creative_second_quartile,COMPLETE,200,https,GET,image/gif,/127.0.0.1,56829,s.tremorvideodsp.com/23.48.39.121,443,,04 Jun 2019 10:51:56,04 Jun 2019 10:51:56,04 Jun 2019 10:51:56,04 Jun 2019 10:51:56,14,,,,0,1,13,30.691406,0.0,41.992188,,397,,,0,43,,
https://l0-secure.videohub.tv/ssframework/log/log.png?EC=39&a=logitemaction&nolog=1&ssPD=tremorvideodsp.com&Uzip=__postalCode__&ADI=7880836&PRI=b33fbdbc-c6e3-43fc-9cae-6527716aebfc&Udma=__dma__&ssMLVer=rml_app_1.9.0&Uctry=__country__&AVI=425726&ssASVer=2.0&RI=1&Ust=__state__&NI=1344&admode=preroll&ssDsC=mobiletablet&ssRnd=515033904,COMPLETE,200,https,GET,image/gif,/127.0.0.1,56840,l0-secure.videohub.tv/67.226.210.12,443,,04 Jun 2019 10:51:58,04 Jun 2019 10:51:58,04 Jun 2019 10:51:58,04 Jun 2019 10:51:58,13,,,,0,1,12,52.88379,0.0,41.992188,,661,,,0,43,,
https://s.tremorvideodsp.com/q/video1_small.mp4,COMPLETE,206,https,GET,video/mp4,/127.0.0.1,56915,s.tremorvideodsp.com/23.48.39.121,443,,04 Jun 2019 10:51:58,04 Jun 2019 10:51:58,04 Jun 2019 10:51:58,04 Jun 2019 10:51:58,54,2,9,23,1,0,19,297.79688,1382.8125,0.0,1058,358,,15049,0,2,,
https://s.tremorvideodsp.com/q/video1_small.mp4,COMPLETE,206,https,GET,video/mp4,/127.0.0.1,56915,s.tremorvideodsp.com/23.48.39.121,443,,04 Jun 2019 10:51:58,04 Jun 2019 10:51:58,04 Jun 2019 10:51:58,04 Jun 2019 10:51:58,34,,,,0,12,22,1892.75,0.0,5333.333,,362,,,0,65536,,
https://s.tremorvideodsp.com/q/video1_small.mp4,COMPLETE,206,https,GET,video/mp4,/127.0.0.1,56915,s.tremorvideodsp.com/23.48.39.121,443,,04 Jun 2019 10:51:58,04 Jun 2019 10:51:58,04 Jun 2019 10:51:58,04 Jun 2019 10:51:58,33,,,,0,10,23,1950.2832,0.0,6400.0,,368,,,0,65536,,
https://s.tremorvideodsp.com/q/video1_small.mp4,COMPLETE,206,https,GET,video/mp4,/127.0.0.1,56917,s.tremorvideodsp.com/23.48.39.121,443,,04 Jun 2019 10:51:58,04 Jun 2019 10:51:58,04 Jun 2019 10:51:58,04 Jun 2019 10:51:59,724,2,8,23,0,671,20,13362.871,0.0,14416.388,986,368,,14959,0,9890599,,
https://s.tremorvideodsp.com/q/video1_small.mp4,COMPLETE,206,https,GET,video/mp4,/127.0.0.1,56915,s.tremorvideodsp.com/23.48.39.121,443,,04 Jun 2019 10:51:58,04 Jun 2019 10:51:58,04 Jun 2019 10:51:58,04 Jun 2019 10:51:58,27,,,,1,4,22,2383.6797,359.375,16000.0,,368,,,0,65536,,
https://gspe35-ssl.ls.apple.com,COMPLETE,200,https,CONNECT,,/127.0.0.1,56924,gspe35-ssl.ls.apple.com/23.39.179.17,443,,04 Jun 2019 10:53:03,,,04 Jun 2019 10:53:04,191,75,11,43,,,,213.58008,,,1709,0,423,39432,0,209,,
https://chat-pa.clients6.google.com,COMPLETE,200,https,CONNECT,,/127.0.0.1,56926,chat-pa.clients6.google.com/172.217.3.106,443,,04 Jun 2019 10:55:02,,,04 Jun 2019 11:01:03,361034,2,2,6,,,,0.0126953125,,,2207,0,1389,372,0,740,,
https://chat-pa.clients6.google.com,COMPLETE,200,https,CONNECT,,/127.0.0.1,56928,chat-pa.clients6.google.com/172.217.3.106,443,,04 Jun 2019 10:55:02,,,04 Jun 2019 10:57:20,138425,1,2,3,,,,0.0390625,,,2207,0,1914,372,0,1128,,
https://mail.google.com,COMPLETE,200,https,CONNECT,,/127.0.0.1,56930,mail.google.com/172.217.10.37,443,,04 Jun 2019 10:55:24,,,04 Jun 2019 10:59:21,237077,2,2,23,,,,0.13671875,,,1487,0,2442,13367,0,16015,,
https://people-pa.clients6.google.com,COMPLETE,200,https,CONNECT,,/127.0.0.1,56932,people-pa.clients6.google.com/172.217.6.234,443,,04 Jun 2019 10:56:00,,,04 Jun 2019 10:59:03,182965,2,2,35,,,,0.12890625,,,2892,0,1213,19617,0,582,,
https://people-pa.clients6.google.com,COMPLETE,200,https,CONNECT,,/127.0.0.1,56934,people-pa.clients6.google.com/172.217.6.234,443,,04 Jun 2019 10:56:00,,,04 Jun 2019 10:59:21,201334,1,3,27,,,,0.123046875,,,2892,0,1999,19621,0,1034,,
https://play.google.com,COMPLETE,200,https,CONNECT,,/127.0.0.1,56937,play.google.com/172.217.10.46,443,,04 Jun 2019 10:56:12,,,04 Jun 2019 10:59:21,189470,2,2,3,,,,0.041015625,,,2207,0,3403,372,0,2076,,
https://play.google.com,COMPLETE,200,https,CONNECT,,/127.0.0.1,56939,play.google.com/172.217.10.46,443,,04 Jun 2019 10:57:02,,,04 Jun 2019 10:59:03,121041,2,2,3,,,,0.034179688,,,2207,0,1184,372,0,571,,
https://chat-pa.clients6.google.com,COMPLETE,200,https,CONNECT,,/127.0.0.1,56941,chat-pa.clients6.google.com/172.217.10.74,443,,04 Jun 2019 10:58:02,,,04 Jun 2019 11:01:21,199683,1,2,33,,,,0.123046875,,,2892,0,1870,19621,0,971,,
https://play.google.com,COMPLETE,200,https,CONNECT,,/127.0.0.1,56944,play.google.com/172.217.10.46,443,,04 Jun 2019 11:01:21,,,04 Jun 2019 11:05:22,240350,2,2,3,,,,0.032226562,,,2207,0,3432,372,0,1933,,
https://play.google.com,COMPLETE,200,https,CONNECT,,/127.0.0.1,56947,play.google.com/172.217.10.46,443,,04 Jun 2019 11:01:42,,,04 Jun 2019 11:03:42,120444,1,2,4,,,,0.030273438,,,2207,0,610,372,0,548,,
https://ts01-b.cloudsink.net,RECEIVING_REQUEST_BODY,200,https,CONNECT,,/127.0.0.1,56951,ts01-b.cloudsink.net/54.67.92.206,443,,04 Jun 2019 11:02:57,,,,2507548,18,72,333,,,,0.08105469,,,1246,0,154158,17474,0,35418,,
https://safebrowsing.googleapis.com,COMPLETE,200,https,CONNECT,,/127.0.0.1,56953,safebrowsing.googleapis.com/172.217.10.74,443,,04 Jun 2019 11:04:42,,,04 Jun 2019 11:06:43,120689,2,1,21,,,,0.20214844,,,2892,0,688,19621,0,1876,,
https://play.google.com,COMPLETE,200,https,CONNECT,,/127.0.0.1,56956,play.google.com/172.217.10.46,443,,04 Jun 2019 11:07:02,,,04 Jun 2019 11:09:23,141171,2,2,2,,,,0.037109375,,,2207,0,1928,372,0,907,,
https://safebrowsing.googleapis.com,COMPLETE,200,https,CONNECT,,/127.0.0.1,56958,safebrowsing.googleapis.com/172.217.10.74,443,,04 Jun 2019 11:08:18,,,04 Jun 2019 11:12:18,240040,1,2,34,,,,0.09667969,,,2892,0,593,19621,0,895,,
https://clients4.google.com,COMPLETE,200,https,CONNECT,,/127.0.0.1,56960,clients4.google.com/172.217.10.14,443,,04 Jun 2019 11:10:42,,,04 Jun 2019 11:13:24,161812,2,2,24,,,,0.14355469,,,2892,0,1743,18784,0,440,,
https://chat-pa.clients6.google.com,COMPLETE,200,https,CONNECT,,/127.0.0.1,56962,chat-pa.clients6.google.com/172.217.11.10,443,,04 Jun 2019 11:11:02,,,04 Jun 2019 11:13:03,120865,32,3,35,,,,0.19628906,,,2892,0,1214,19621,0,574,,
https://chat-pa.clients6.google.com,COMPLETE,200,https,CONNECT,,/127.0.0.1,56964,chat-pa.clients6.google.com/172.217.11.10,443,,04 Jun 2019 11:11:02,,,04 Jun 2019 11:13:24,141717,2,2,35,,,,0.17675781,,,2892,0,1871,19621,0,1320,,
https://play.google.com,COMPLETE,200,https,CONNECT,,/127.0.0.1,56967,play.google.com/172.217.10.46,443,,04 Jun 2019 11:12:22,,,04 Jun 2019 11:17:04,282317,1,3,3,,,,0.021484375,,,2207,0,2071,372,0,1664,,
https://play.google.com,COMPLETE,200,https,CONNECT,,/127.0.0.1,56969,play.google.com/172.217.10.46,443,,04 Jun 2019 11:12:22,,,04 Jun 2019 11:17:25,303541,1,2,3,,,,0.025390625,,,2207,0,3434,372,0,2047,,
https://14.client-channel.google.com,RECEIVING_RESPONSE_BODY,200,https,CONNECT,,/127.0.0.1,56973,14.client-channel.google.com/74.125.192.189,443,,04 Jun 2019 11:16:48,,,,1676131,21,17,41,,,,0.018554688,,,1179,0,7650,16009,0,8330,,
https://play.google.com,COMPLETE,200,https,CONNECT,,/127.0.0.1,56975,play.google.com/172.217.10.46,443,,04 Jun 2019 11:17:42,,,04 Jun 2019 11:21:26,224111,2,2,3,,,,0.0234375,,,2207,0,1929,372,0,918,,
https://play.google.com,COMPLETE,200,https,CONNECT,,/127.0.0.1,56980,play.google.com/172.217.10.46,443,,04 Jun 2019 11:23:02,,,04 Jun 2019 11:25:02,120128,2,2,3,,,,0.030273438,,,2207,0,610,372,0,548,,
https://play.google.com,COMPLETE,200,https,CONNECT,,/127.0.0.1,56982,play.google.com/172.217.10.46,443,,04 Jun 2019 11:23:02,,,04 Jun 2019 11:25:28,146090,1,2,3,,,,0.037109375,,,2207,0,1929,372,0,1189,,
https://chat-pa.clients6.google.com,COMPLETE,200,https,CONNECT,,/127.0.0.1,56984,chat-pa.clients6.google.com/172.217.10.138,443,,04 Jun 2019 11:23:44,,,04 Jun 2019 11:27:02,198271,1,3,25,,,,0.119140625,,,2892,0,1214,19621,0,574,,
https://chat-pa.clients6.google.com,COMPLETE,200,https,CONNECT,,/127.0.0.1,56986,chat-pa.clients6.google.com/172.217.10.138,443,,04 Jun 2019 11:23:44,,,04 Jun 2019 11:29:29,345217,1,2,26,,,,0.07519531,,,2892,0,2779,19617,0,1481,,
https://tremorvideo.jamfcloud.com,COMPLETE,200,https,CONNECT,,/127.0.0.1,56992,tremorvideo.jamfcloud.com/52.20.191.66,443,,04 Jun 2019 11:24:46,,,04 Jun 2019 11:24:46,207,92,9,38,,,,142.65332,,,1182,0,1839,26155,0,1062,,
https://clients6.google.com,COMPLETE,200,https,CONNECT,,/127.0.0.1,56994,clients6.google.com/172.217.10.14,443,,04 Jun 2019 11:26:00,,,04 Jun 2019 11:29:03,183113,2,2,24,,,,0.11816406,,,1507,0,1231,18780,0,650,,
https://clients6.google.com,COMPLETE,200,https,CONNECT,,/127.0.0.1,56996,clients6.google.com/172.217.10.14,443,,04 Jun 2019 11:26:00,,,04 Jun 2019 11:29:29,209560,1,3,25,,,,0.10546875,,,1507,0,1770,18780,0,721,,
https://people-pa.clients6.google.com,COMPLETE,200,https,CONNECT,,/127.0.0.1,56998,people-pa.clients6.google.com/172.217.6.234,443,,04 Jun 2019 11:26:10,,,04 Jun 2019 11:29:03,172716,2,2,3,,,,0.024414062,,,2207,0,1213,372,0,582,,
https://people-pa.clients6.google.com,COMPLETE,200,https,CONNECT,,/127.0.0.1,57000,people-pa.clients6.google.com/172.217.6.234,443,,04 Jun 2019 11:26:10,,,04 Jun 2019 11:29:29,199171,1,2,3,,,,0.026367188,,,2207,0,2001,372,0,876,,
https://play.google.com,COMPLETE,200,https,CONNECT,,/127.0.0.1,57002,play.google.com/172.217.10.46,443,,04 Jun 2019 11:26:54,,,04 Jun 2019 11:29:03,128623,1,2,4,,,,0.032226562,,,2207,0,1184,372,0,571,,
https://play.google.com,COMPLETE,200,https,CONNECT,,/127.0.0.1,57004,play.google.com/172.217.10.46,443,,04 Jun 2019 11:26:54,,,04 Jun 2019 11:31:29,275173,1,2,3,,,,0.032226562,,,2207,0,4340,372,0,2343,,
https://chat-pa.clients6.google.com,COMPLETE,200,https,CONNECT,,/127.0.0.1,57007,chat-pa.clients6.google.com/172.217.9.234,443,,04 Jun 2019 11:27:22,,,04 Jun 2019 11:31:03,221387,1,2,38,,,,0.10644531,,,2892,0,1216,19617,0,574,,
https://mail.google.com,COMPLETE,200,https,CONNECT,,/127.0.0.1,57009,mail.google.com/172.217.6.229,443,,04 Jun 2019 11:30:09,,,04 Jun 2019 11:33:30,201135,2,4,25,,,,0.15820312,,,2892,0,2275,13367,0,14185,,
https://clients4.google.com,COMPLETE,200,https,CONNECT,,/127.0.0.1,57011,clients4.google.com/172.217.10.238,443,,04 Jun 2019 11:31:23,,,04 Jun 2019 11:33:30,127539,2,2,28,,,,0.18261719,,,2892,0,1743,18780,0,439,,
https://play.google.com,COMPLETE,200,https,CONNECT,,/127.0.0.1,57015,play.google.com/172.217.10.46,443,,04 Jun 2019 11:33:40,,,04 Jun 2019 11:35:41,120935,2,2,3,,,,0.029296875,,,2207,0,610,372,0,548,,
https://play.google.com,COMPLETE,200,https,CONNECT,,/127.0.0.1,57017,play.google.com/172.217.10.46,443,,04 Jun 2019 11:33:40,,,04 Jun 2019 11:37:31,230900,1,2,4,,,,0.032226562,,,2207,0,3456,372,0,1595,,
https://safebrowsing.googleapis.com,COMPLETE,200,https,CONNECT,,/127.0.0.1,57026,safebrowsing.googleapis.com/172.217.10.74,443,,04 Jun 2019 11:34:42,,,04 Jun 2019 11:36:42,120153,2,3,5,,,,0.040039062,,,2207,0,687,372,0,1747,,
https://chat-pa.clients6.google.com,COMPLETE,200,https,CONNECT,,/127.0.0.1,57028,chat-pa.clients6.google.com/172.217.7.10,443,,04 Jun 2019 11:36:32,,,04 Jun 2019 11:38:32,120225,33,2,23,,,,0.19726562,,,2892,0,1214,19617,0,574,,
https://chat-pa.clients6.google.com,COMPLETE,200,https,CONNECT,,/127.0.0.1,57030,chat-pa.clients6.google.com/172.217.7.10,443,,04 Jun 2019 11:36:32,,,04 Jun 2019 11:39:32,180582,1,2,24,,,,0.13671875,,,2892,0,1869,19617,0,1053,,
https://safebrowsing.googleapis.com,COMPLETE,200,https,CONNECT,,/127.0.0.1,57033,safebrowsing.googleapis.com/172.217.10.74,443,,04 Jun 2019 11:38:14,,,04 Jun 2019 11:42:14,240009,2,2,3,,,,0.016601562,,,2207,0,593,372,0,929,,
https://play.google.com,COMPLETE,200,https,CONNECT,,/127.0.0.1,57035,play.google.com/172.217.10.14,443,,04 Jun 2019 11:38:22,,,04 Jun 2019 11:40:32,130523,2,2,24,,,,0.17480469,,,2892,0,1184,18776,0,571,,
https://play.google.com,COMPLETE,200,https,CONNECT,,/127.0.0.1,57037,play.google.com/172.217.10.14,443,,04 Jun 2019 11:38:22,,,04 Jun 2019 11:41:33,191530,1,2,25,,,,0.13671875,,,2892,0,3434,18780,0,1725,,
https://ssl.p.jwpcdn.com,COMPLETE,200,https,CONNECT,,/127.0.0.1,57039,ssl.p.jwpcdn.com/72.21.81.48,443,,04 Jun 2019 11:40:54,,,04 Jun 2019 11:41:25,30946,28,2,34,,,,1.1777344,,,1479,0,654,34395,0,809,,
https://entitlements.jwplayer.com,COMPLETE,200,https,CONNECT,,/127.0.0.1,57041,entitlements.jwplayer.com/72.21.81.189,443,,04 Jun 2019 11:40:54,,,04 Jun 2019 11:41:25,30777,29,2,45,,,,1.1376953,,,1524,0,317,33541,0,477,,
https://s.tremorvideodsp.com/q/video1_small.mp4,COMPLETE,206,https,GET,video/mp4,/127.0.0.1,57042,s.tremorvideodsp.com/23.48.39.112,443,,04 Jun 2019 11:40:54,04 Jun 2019 11:40:54,04 Jun 2019 11:40:55,04 Jun 2019 11:40:55,265,51,7,22,0,0,185,60.682617,0.0,0.0,1058,358,,15049,0,2,,
https://jwpltx.com,COMPLETE,200,https,CONNECT,,/127.0.0.1,57044,jwpltx.com/34.193.181.126,443,,04 Jun 2019 11:40:54,,,04 Jun 2019 11:41:25,30730,20,8,30,,,,1.0771484,,,1449,0,608,31731,0,132,,
https://s.tremorvideodsp.com/q/video1_small.mp4,COMPLETE,206,https,GET,video/mp4,/127.0.0.1,57042,s.tremorvideodsp.com/23.48.39.112,443,,04 Jun 2019 11:40:55,04 Jun 2019 11:40:55,04 Jun 2019 11:40:55,04 Jun 2019 11:40:55,99,,,,0,12,87,650.03516,0.0,5333.333,,362,,,0,65536,,
https://entitlements.jwplayer.com,COMPLETE,200,https,CONNECT,,/127.0.0.1,57049,entitlements.jwplayer.com/72.21.81.189,443,,04 Jun 2019 11:43:04,,,04 Jun 2019 11:43:34,30293,18,2,43,,,,1.1601562,,,1684,0,317,33541,0,464,,
https://s.tremorvideodsp.com/q/video1_small.mp4,COMPLETE,206,https,GET,video/mp4,/127.0.0.1,57050,s.tremorvideodsp.com/23.48.39.112,443,,04 Jun 2019 11:43:04,04 Jun 2019 11:43:04,04 Jun 2019 11:43:04,04 Jun 2019 11:43:04,191,51,7,38,0,1,94,84.19336,0.0,14698.242,1058,358,,15049,0,2,,
https://jwpltx.com,COMPLETE,200,https,CONNECT,,/127.0.0.1,57052,jwpltx.com/34.199.235.23,443,,04 Jun 2019 11:43:04,,,04 Jun 2019 11:43:55,50586,38,9,38,,,,0.671875,,,1609,0,1202,31731,0,264,,
https://s.tremorvideodsp.com/q/video1_small.mp4,COMPLETE,206,https,GET,video/mp4,/127.0.0.1,57050,s.tremorvideodsp.com/23.48.39.112,443,,04 Jun 2019 11:43:04,04 Jun 2019 11:43:04,04 Jun 2019 11:43:04,04 Jun 2019 11:43:04,41,,,,0,12,29,1569.5977,0.0,5333.333,,362,,,0,65536,,
https://s.tremorvideodsp.com/q/video1_small.mp4,COMPLETE,206,https,GET,video/mp4,/127.0.0.1,57050,s.tremorvideodsp.com/23.48.39.112,443,,04 Jun 2019 11:43:04,04 Jun 2019 11:43:04,04 Jun 2019 11:43:04,04 Jun 2019 11:43:04,28,,,,0,8,20,2298.5488,0.0,8000.0,,368,,,0,65536,,
https://s.tremorvideodsp.com/q/video1_small.mp4,COMPLETE,206,https,GET,video/mp4,/127.0.0.1,57055,s.tremorvideodsp.com/23.48.39.112,443,,04 Jun 2019 11:43:04,04 Jun 2019 11:43:04,04 Jun 2019 11:43:04,04 Jun 2019 11:43:05,512,2,9,25,0,455,21,18895.934,0.0,21260.21,986,368,,14959,0,9890599,,
https://s.tremorvideodsp.com/q/video1_small.mp4,COMPLETE,206,https,GET,video/mp4,/127.0.0.1,57050,s.tremorvideodsp.com/23.48.39.112,443,,04 Jun 2019 11:43:04,04 Jun 2019 11:43:04,04 Jun 2019 11:43:04,04 Jun 2019 11:43:04,25,,,,0,5,20,2574.375,0.0,12800.0,,368,,,0,65536,,
https://adserver.videohub.tv/preview?RI=IlmzyPNeEPgHJwGWj4IqLg&screenType=mobiletablet&rml=true&Uctry=__country__&Ust=__state__&Udma=__dma__&Uzip=__postalCode__&Ucty=__city__&Uctnt=__continent__&Ulong=__longitude__&Ulat=__latitude__&Uacd=__areaCode__&position_ACP=__adChoicesPosition__&usedACP=__usedACP__&dspACP=__adChoicesProviders__&sig=B43A455637627DD42CD5C5897DCFD8A4&dmps=y&ssRmlApp=1&isApp=y,COMPLETE,200,https,GET,application/xml; charset=utf-8,/127.0.0.1,57057,adserver.videohub.tv/67.226.210.8,443,,04 Jun 2019 11:43:13,04 Jun 2019 11:43:13,04 Jun 2019 11:43:13,04 Jun 2019 11:43:13,101,29,9,30,0,9,24,390.8086,0.0,4199.7607,1046,668,,25605,0,13100,,
https://objects-secure.videohub.tv/net/js/rml-app.min.js?adData=https%3A%2F%2Fs.tremorvideodsp.com%2Fq%2Ftp_mp4.xml,COMPLETE,200,https,GET,application/javascript,/127.0.0.1,57059,objects-secure.videohub.tv/104.110.215.249,443,,04 Jun 2019 11:43:13,04 Jun 2019 11:43:13,04 Jun 2019 11:43:13,04 Jun 2019 11:43:13,110,58,8,24,0,11,9,720.16113,0.0,7072.4424,1070,385,,16754,0,62910,,72.6%
https://s.tremorvideodsp.com/q/tp_mp4.xml,COMPLETE,200,https,GET,text/xml,/127.0.0.1,57061,s.tremorvideodsp.com/23.48.39.112,443,,04 Jun 2019 11:43:13,04 Jun 2019 11:43:13,04 Jun 2019 11:43:13,04 Jun 2019 11:43:13,71,1,9,23,0,0,38,231.00488,0.0,0.0,1046,311,,15049,0,389,,55.6%
https://objects-secure.tremormedia.com/net/js/io-polyfill-0.5.1.js,COMPLETE,200,https,GET,application/javascript,/127.0.0.1,57063,objects-secure.tremormedia.com/104.110.194.47,443,,04 Jun 2019 11:43:13,04 Jun 2019 11:43:14,04 Jun 2019 11:43:14,04 Jun 2019 11:43:14,101,61,9,22,0,1,8,237.56543,0.0,22605.469,1086,336,,16789,0,6359,,71.5%
https://s.tremorvideodsp.com/q/preroll.mp4,COMPLETE,206,https,GET,video/mp4,/127.0.0.1,57061,s.tremorvideodsp.com/23.48.39.112,443,,04 Jun 2019 11:43:14,04 Jun 2019 11:43:14,04 Jun 2019 11:43:14,04 Jun 2019 11:43:14,49,,,,1,0,48,7.6523438,373.04688,0.0,,382,,,0,2,,
https://s.tremorvideodsp.com/q/preroll.mp4,COMPLETE,206,https,GET,video/mp4,/127.0.0.1,57061,s.tremorvideodsp.com/23.48.39.112,443,,04 Jun 2019 11:43:14,04 Jun 2019 11:43:14,04 Jun 2019 11:43:14,04 Jun 2019 11:43:14,34,,,,0,2,32,481.6748,0.0,8000.0,,386,,,0,16384,,
https://s.tremorvideodsp.com/q/preroll.mp4,COMPLETE,206,https,GET,video/mp4,/127.0.0.1,57061,s.tremorvideodsp.com/23.48.39.112,443,,04 Jun 2019 11:43:14,04 Jun 2019 11:43:14,04 Jun 2019 11:43:14,04 Jun 2019 11:43:14,22,,,,0,2,20,744.584,0.0,8000.0,,390,,,0,16384,,
https://s.tremorvideodsp.com/q/preroll.mp4,COMPLETE,206,https,GET,video/mp4,/127.0.0.1,57061,s.tremorvideodsp.com/23.48.39.112,443,,04 Jun 2019 11:43:14,04 Jun 2019 11:43:14,04 Jun 2019 11:43:14,04 Jun 2019 11:43:14,186,,,,0,166,20,11854.523,0.0,13280.473,,392,,,0,2257468,,
https://objects-secure.tremormedia.com/net/js/selectviewicon.min.js?playerWidth=770&playerHeight=1026&skipAdDelay=5000,COMPLETE,200,https,GET,application/javascript,/127.0.0.1,57063,objects-secure.tremormedia.com/104.110.194.47,443,,04 Jun 2019 11:43:14,04 Jun 2019 11:43:14,04 Jun 2019 11:43:14,04 Jun 2019 11:43:14,14,,,,0,5,9,336.49512,0.0,866.40625,,388,,,0,4436,,67.3%
https://prd.jwpltx.com,COMPLETE,200,https,CONNECT,,/127.0.0.1,57065,prd.jwpltx.com/52.55.96.211,443,,04 Jun 2019 11:43:15,,,04 Jun 2019 11:43:55,40081,50,12,57,,,,0.8613281,,,1469,0,1923,31731,0,264,,
https://dt-secure.videohub.tv/v1/usync/ironsource?userId=,COMPLETE,303,https,GET,image/gif,/127.0.0.1,57066,dt-secure.videohub.tv/67.226.210.15,443,,04 Jun 2019 11:43:15,04 Jun 2019 11:43:15,04 Jun 2019 11:43:15,04 Jun 2019 11:43:15,105,29,11,50,1,0,14,254.34277,1401.3672,0.0,1050,385,,25869,0,43,,
https://sync.doubleverify.com/query.gif?ctx=42674&cmp=2311460&DVP_CMPID=&DVP_PUBID=&dvp_red=http%3A%2F%2Fads.videohub.tv%2Fssframework%2Fdt%2Fbotid%3Fa%3Dset%26DUID%3D1,COMPLETE,200,https,GET,image/gif,/127.0.0.1,57067,sync.doubleverify.com/204.154.111.224,443,,04 Jun 2019 11:43:15,04 Jun 2019 11:43:15,04 Jun 2019 11:43:15,04 Jun 2019 11:43:15,54,32,2,14,0,0,6,443.44922,0.0,0.0,1178,496,,21987,0,860,,-6.6%
https://tps30.doubleverify.com/visit.jpg?ctx=42674&cmp=2256325&sid=1111&plc=22563261&num=&adid=&advid=498259&adsrv=41&region=30&btreg=&btadsrv=&crt=&crtname=&chnl=&unit=&pid=&uid=&dvtagver=6.1.img&DVP_CMPID=&DVP_PUBID=&turl=tremorvideodsp.com,COMPLETE,200,https,GET,image/jpeg,/127.0.0.1,57068,tps30.doubleverify.com/204.154.111.121,443,,04 Jun 2019 11:43:15,04 Jun 2019 11:43:15,04 Jun 2019 11:43:15,04 Jun 2019 11:43:15,164,135,2,15,0,0,12,155.36816,0.0,0.0,1182,570,,24198,0,142,,53.4%
https://s.tremorvideodsp.com/q/qa.gif?param1=screen_impression,COMPLETE,200,https,GET,image/gif,/127.0.0.1,57061,s.tremorvideodsp.com/23.48.39.112,443,,04 Jun 2019 11:43:15,04 Jun 2019 11:43:15,04 Jun 2019 11:43:15,04 Jun 2019 11:43:15,20,,,,0,1,19,21.142578,0.0,41.992188,,390,,,0,43,,
https://tags.bluekai.com/site/2954,COMPLETE,200,https,GET,image/gif,/127.0.0.1,57069,tags.bluekai.com/104.102.201.81,443,,04 Jun 2019 11:43:15,04 Jun 2019 11:43:15,04 Jun 2019 11:43:15,04 Jun 2019 11:43:15,266,80,8,27,0,1,150,56.038086,0.0,13546.875,1030,362,,13810,0,62,,
https://s.tremorvideodsp.com/q/qa.gif?param1=creative_impression,COMPLETE,200,https,GET,image/gif,/127.0.0.1,57071,s.tremorvideodsp.com/23.48.39.112,443,,04 Jun 2019 11:43:15,04 Jun 2019 11:43:15,04 Jun 2019 11:43:15,04 Jun 2019 11:43:15,53,4,11,22,0,0,16,301.8125,0.0,0.0,986,392,,14959,0,43,,
https://tp.videohub.tv/v1/topprop.png?domain=&ui=&pri=75b32619-ec13-409a-a1cf-21c396a2abb5&ssRnd=1817543103,COMPLETE,200,https,GET,image/png,/127.0.0.1,57070,tp.videohub.tv/67.226.210.12,443,,04 Jun 2019 11:43:15,04 Jun 2019 11:43:15,04 Jun 2019 11:43:15,04 Jun 2019 11:43:15,81,20,11,34,0,0,16,329.96875,0.0,0.0,1022,435,,25869,0,43,,
https://l0-secure.videohub.tv/ssframework/log/log.png?EC=3&a=logitemaction&nolog=1&ssPD=tremorvideodsp.com&Uzip=__postalCode__&ADI=7880836&PRI=75b32619-ec13-409a-a1cf-21c396a2abb5&Udma=__dma__&ssMLVer=rml_app_1.9.0&Uctry=__country__&AVI=425726&ssASVer=2.0&RI=1&Ust=__state__&NI=1344&admode=preroll&ssDsC=mobiletablet&ssRnd=1232910235&SfF=true&AmN=1&adFocus=true&RvN=1,COMPLETE,200,https,GET,image/gif,/127.0.0.1,57073,l0-secure.videohub.tv/67.226.210.12,443,,04 Jun 2019 11:43:15,04 Jun 2019 11:43:15,04 Jun 2019 11:43:15,04 Jun 2019 11:43:15,76,21,10,30,0,2,13,355.37793,0.0,12652.344,1050,695,,25869,0,43,,
https://sync.doubleverify.com/query.gif?ctx=42674&cmp=2256325&DVP_CMPID=&DVP_PUBID=&dvp_red=http%3A%2F%2Fapp.scanscout.com%2Fssframework%2Fdt%2Fbotid%3Fa%3Dset%26DUID%3D1,COMPLETE,200,https,GET,image/gif,/127.0.0.1,57080,sync.doubleverify.com/204.154.111.224,443,,04 Jun 2019 11:43:15,04 Jun 2019 11:43:15,04 Jun 2019 11:43:15,04 Jun 2019 11:43:15,14,1,3,4,0,0,6,166.5039,0.0,0.0,684,498,,345,0,860,,-6.6%
https://dt-secure.videohub.tv/v1/usync/bs?userId=,COMPLETE,303,https,GET,image/gif,/127.0.0.1,57083,dt-secure.videohub.tv/67.226.210.15,443,,04 Jun 2019 11:43:15,04 Jun 2019 11:43:15,04 Jun 2019 11:43:15,04 Jun 2019 11:43:15,72,2,10,47,0,0,13,369.99512,0.0,0.0,990,377,,25869,0,43,,
https://dt-secure.videohub.tv/v1/usync/lkqd_direct?userId=,COMPLETE,303,https,GET,image/gif,/127.0.0.1,57084,dt-secure.videohub.tv/67.226.210.15,443,,04 Jun 2019 11:43:15,04 Jun 2019 11:43:15,04 Jun 2019 11:43:15,04 Jun 2019 11:43:15,63,2,9,42,0,0,10,422.99023,0.0,0.0,990,386,,25869,0,43,,
https://dt-secure.videohub.tv/v1/usync/pubmatic?userId=,COMPLETE,303,https,GET,image/gif,/127.0.0.1,57085,dt-secure.videohub.tv/67.226.210.15,443,,04 Jun 2019 11:43:15,04 Jun 2019 11:43:15,04 Jun 2019 11:43:15,04 Jun 2019 11:43:15,56,4,12,30,0,0,10,475.8125,0.0,0.0,990,383,,25869,0,43,,
https://dt-secure.videohub.tv/v1/usync/rubicon?userId=,COMPLETE,303,https,GET,image/gif,/127.0.0.1,57086,dt-secure.videohub.tv/67.226.210.15,443,,04 Jun 2019 11:43:15,04 Jun 2019 11:43:15,04 Jun 2019 11:43:15,04 Jun 2019 11:43:15,70,2,14,38,0,1,15,380.63574,0.0,25304.688,990,382,,25869,0,43,,
https://dt-secure.videohub.tv/v1/usync/springserve?userId=,COMPLETE,303,https,GET,image/gif,/127.0.0.1,57087,dt-secure.videohub.tv/67.226.210.15,443,,04 Jun 2019 11:43:15,04 Jun 2019 11:43:15,04 Jun 2019 11:43:15,04 Jun 2019 11:43:15,75,2,10,51,0,0,12,355.3125,0.0,0.0,990,386,,25869,0,43,,
https://dt-secure.videohub.tv/v1/usync/spx?userId=,COMPLETE,303,https,GET,image/gif,/127.0.0.1,57066,dt-secure.videohub.tv/67.226.210.15,443,,04 Jun 2019 11:43:15,04 Jun 2019 11:43:15,04 Jun 2019 11:43:15,04 Jun 2019 11:43:15,11,,,,0,0,11,37.375,0.0,0.0,,378,,,0,43,,
https://cs.rtb-seller.com,COMPLETE,200,https,CONNECT,,/127.0.0.1,57093,cs.rtb-seller.com/52.7.138.160,443,,04 Jun 2019 11:43:15,,,04 Jun 2019 11:43:46,30850,12,9,163,,,,1.0625,,,1484,0,388,31539,0,170,,
https://dt-secure.videohub.tv/v1/usync/rhythmone?userId=,COMPLETE,303,https,GET,image/gif,/127.0.0.1,57066,dt-secure.videohub.tv/67.226.210.15,443,,04 Jun 2019 11:43:15,04 Jun 2019 11:43:15,04 Jun 2019 11:43:15,04 Jun 2019 11:43:15,20,,,,0,0,20,20.84961,0.0,0.0,,384,,,0,43,,
https://l0-secure.videohub.tv/ssframework/log/log.png?EC=7&a=logitemaction&nolog=1&ssPD=tremorvideodsp.com&Uzip=__postalCode__&ADI=7880836&PRI=75b32619-ec13-409a-a1cf-21c396a2abb5&Udma=__dma__&ssMLVer=rml_app_1.9.0&Uctry=__country__&AVI=425726&ssASVer=2.0&RI=1&Ust=__state__&NI=1344&admode=preroll&ssDsC=mobiletablet&ssRnd=682976501&Eipct=0&EvaF=1&EiN=1,COMPLETE,200,https,GET,image/gif,/127.0.0.1,57094,l0-secure.videohub.tv/67.226.210.12,443,,04 Jun 2019 11:43:15,04 Jun 2019 11:43:15,04 Jun 2019 11:43:15,04 Jun 2019 11:43:15,56,1,10,33,0,0,12,481.0088,0.0,0.0,990,681,,25869,0,43,,
https://sync.search.spotxchange.com,COMPLETE,200,https,CONNECT,,/127.0.0.1,57096,sync.search.spotxchange.com/192.35.249.127,443,,04 Jun 2019 11:43:15,,,04 Jun 2019 11:43:46,30809,24,9,193,,,,0.6357422,,,1534,0,886,16383,0,1260,,
https://dt-secure.videohub.tv/v1/usync/tr?userId=,COMPLETE,303,https,GET,image/gif,/127.0.0.1,57066,dt-secure.videohub.tv/67.226.210.15,443,,04 Jun 2019 11:43:15,04 Jun 2019 11:43:15,04 Jun 2019 11:43:15,04 Jun 2019 11:43:15,12,,,,0,0,12,34.179688,0.0,0.0,,377,,,0,43,,
https://dt-secure.videohub.tv/ssframework/tvuid?a=set&UI=,COMPLETE,400,https,GET,image/gif,/127.0.0.1,57084,dt-secure.videohub.tv/67.226.210.15,443,,04 Jun 2019 11:43:15,04 Jun 2019 11:43:15,04 Jun 2019 11:43:15,04 Jun 2019 11:43:15,11,,,,0,0,11,37.99707,0.0,0.0,,385,,,0,43,,
https://dt-secure.videohub.tv/v1/usync/ex?userId=,COMPLETE,303,https,GET,image/gif,/127.0.0.1,57083,dt-secure.videohub.tv/67.226.210.15,443,,04 Jun 2019 11:43:15,04 Jun 2019 11:43:15,04 Jun 2019 11:43:15,04 Jun 2019 11:43:15,12,,,,0,0,12,34.179688,0.0,0.0,,377,,,0,43,,
https://sync.1rx.io,COMPLETE,200,https,CONNECT,,/127.0.0.1,57099,sync.1rx.io/8.41.222.152,443,,04 Jun 2019 11:43:15,,,04 Jun 2019 11:43:46,30722,5,2,182,,,,0.8808594,,,1094,0,796,24907,0,936,,
https://dt-secure.videohub.tv/v1/usync/lo?userId=,COMPLETE,303,https,GET,image/gif,/127.0.0.1,57087,dt-secure.videohub.tv/67.226.210.15,443,,04 Jun 2019 11:43:15,04 Jun 2019 11:43:15,04 Jun 2019 11:43:15,04 Jun 2019 11:43:15,23,,,,0,1,22,17.832031,0.0,41.992188,,377,,,0,43,,
https://dt-secure.videohub.tv/v1/usync/dd?userId=,COMPLETE,303,https,GET,image/gif,/127.0.0.1,57085,dt-secure.videohub.tv/67.226.210.15,443,,04 Jun 2019 11:43:15,04 Jun 2019 11:43:15,04 Jun 2019 11:43:15,04 Jun 2019 11:43:15,12,,,,0,0,12,34.179688,0.0,0.0,,377,,,0,43,,
https://dt-secure.videohub.tv/v1/usync/ds?userId=,COMPLETE,303,https,GET,image/gif,/127.0.0.1,57066,dt-secure.videohub.tv/67.226.210.15,443,,04 Jun 2019 11:43:15,04 Jun 2019 11:43:15,04 Jun 2019 11:43:15,04 Jun 2019 11:43:15,12,,,,0,0,12,34.179688,0.0,0.0,,377,,,0,43,,
https://dt-secure.videohub.tv/v1/usync/lrjs?userId=,COMPLETE,303,https,GET,image/gif,/127.0.0.1,57086,dt-secure.videohub.tv/67.226.210.15,443,,04 Jun 2019 11:43:15,04 Jun 2019 11:43:15,04 Jun 2019 11:43:15,04 Jun 2019 11:43:15,12,,,,0,0,12,34.341797,0.0,0.0,,379,,,0,43,,
https://cs.lkqd.net,COMPLETE,200,https,CONNECT,,/127.0.0.1,57100,cs.lkqd.net/146.20.128.121,443,,04 Jun 2019 11:43:15,,,04 Jun 2019 11:43:46,30706,28,10,233,,,,1.4052734,,,1322,0,396,42000,0,482,,
https://sync.springserve.com,COMPLETE,200,https,CONNECT,,/127.0.0.1,57103,sync.springserve.com/34.230.150.131,443,,04 Jun 2019 11:43:15,,,04 Jun 2019 11:43:46,30699,30,8,205,,,,1.0732422,,,1499,0,397,31653,0,212,,
https://x.bidswitch.net,COMPLETE,200,https,CONNECT,,/127.0.0.1,57102,x.bidswitch.net/35.185.1.218,443,,04 Jun 2019 11:43:15,,,04 Jun 2019 11:43:25,10421,53,21,230,,,,3.6523438,,,1546,0,405,36284,0,743,,
https://simage2.pubmatic.com,COMPLETE,200,https,CONNECT,,/127.0.0.1,57105,simage2.pubmatic.com/162.248.19.147,443,,04 Jun 2019 11:43:15,,,04 Jun 2019 11:43:46,30680,22,2,223,,,,0.7011719,,,1499,0,455,19257,0,827,,
https://partners.tremorhub.com,COMPLETE,200,https,CONNECT,,/127.0.0.1,57106,partners.tremorhub.com/34.193.211.130,443,,04 Jun 2019 11:43:15,,,04 Jun 2019 11:43:46,30681,24,9,232,,,,1.0976562,,,1509,0,387,32079,0,516,,
https://tps30.doubleverify.com/visit.jpg?ctx=42674&cmp=DV069178&sid=1111&plc=2018011501&advid=3819603&adsrv=0&tagtype=&dvtagver=6.1.img&DVP_PP_REP=1&DVP_IQM_ID=16&DVP_DV_TT=2&DVP_DV_CT=2&DVP_TR_SSP=&DVP_TR_PUB=[PUBLISHER_ID]&DVP_TR_SITE=[SUPPLY_ID]&DVP_TR_ADV=425726&DVP_TR_CMP=&DVP_TR_PLC=&turl=tremorvideodsp.com&DVP_PP_BUNDLE_ID=&DVP_TR_COST=,COMPLETE,200,https,GET,image/jpeg,/127.0.0.1,57104,tps30.doubleverify.com/204.154.111.121,443,,04 Jun 2019 11:43:15,04 Jun 2019 11:43:15,04 Jun 2019 11:43:15,04 Jun 2019 11:43:15,16,3,2,3,0,1,7,111.63281,0.0,458.0078,687,673,,327,0,142,,53.4%
https://dt-secure.videohub.tv/v1/usync/db?userId=&deviceId=unknown&screenType=mobiletablet&osType=iOS&rand=1398002340,COMPLETE,303,https,GET,image/gif,/127.0.0.1,57084,dt-secure.videohub.tv/67.226.210.15,443,,04 Jun 2019 11:43:15,04 Jun 2019 11:43:15,04 Jun 2019 11:43:15,04 Jun 2019 11:43:15,12,,,,0,0,12,39.71289,0.0,0.0,,445,,,0,43,,
https://dt-secure.videohub.tv/v1/usync/kx?userId=,COMPLETE,303,https,GET,image/gif,/127.0.0.1,57083,dt-secure.videohub.tv/67.226.210.15,443,,04 Jun 2019 11:43:15,04 Jun 2019 11:43:15,04 Jun 2019 11:43:15,04 Jun 2019 11:43:15,12,,,,0,0,12,34.179688,0.0,0.0,,377,,,0,43,,
https://dt-secure.videohub.tv/v1/usync/al?userId=,COMPLETE,303,https,GET,image/gif,/127.0.0.1,57085,dt-secure.videohub.tv/67.226.210.15,443,,04 Jun 2019 11:43:15,04 Jun 2019 11:43:15,04 Jun 2019 11:43:15,04 Jun 2019 11:43:15,11,,,,0,0,11,37.286133,0.0,0.0,,377,,,0,43,,
https://pixel.rubiconproject.com,COMPLETE,200,https,CONNECT,,/127.0.0.1,57107,pixel.rubiconproject.com/208.185.50.80,443,,04 Jun 2019 11:43:15,,,04 Jun 2019 11:43:46,30670,53,9,250,,,,0.6464844,,,1589,0,890,16516,0,1322,,
https://dt-secure.videohub.tv/v1/usync/ns?userId=,COMPLETE,303,https,GET,image/gif,/127.0.0.1,57087,dt-secure.videohub.tv/67.226.210.15,443,,04 Jun 2019 11:43:15,04 Jun 2019 11:43:15,04 Jun 2019 11:43:15,04 Jun 2019 11:43:15,14,,,,0,0,14,29.296875,0.0,0.0,,377,,,0,43,,
https://dt-secure.videohub.tv/v1/usync/bk?userId=,COMPLETE,303,https,GET,image/gif,/127.0.0.1,57066,dt-secure.videohub.tv/67.226.210.15,443,,04 Jun 2019 11:43:15,04 Jun 2019 11:43:15,04 Jun 2019 11:43:15,04 Jun 2019 11:43:15,12,,,,0,0,12,34.179688,0.0,0.0,,377,,,0,43,,
https://dt-secure.videohub.tv/v1/usync/lr?userId=,COMPLETE,303,https,GET,image/gif,/127.0.0.1,57086,dt-secure.videohub.tv/67.226.210.15,443,,04 Jun 2019 11:43:15,04 Jun 2019 11:43:15,04 Jun 2019 11:43:15,04 Jun 2019 11:43:15,12,,,,0,1,11,34.179688,0.0,41.992188,,377,,,0,43,,
https://objects-secure.tremormedia.com/net/js/lr.js?partner_id=c97d49ca38f42ff8e12e3ce472e8db53,COMPLETE,200,https,GET,application/javascript,/127.0.0.1,57063,objects-secure.tremormedia.com/104.110.194.47,443,,04 Jun 2019 11:43:15,04 Jun 2019 11:43:15,04 Jun 2019 11:43:15,04 Jun 2019 11:43:15,9,,,,0,0,9,130.3164,0.0,0.0,,423,,,0,778,,57.1%
https://loadm.exelator.com,COMPLETE,200,https,CONNECT,,/127.0.0.1,57110,loadm.exelator.com/147.75.39.192,443,,04 Jun 2019 11:43:15,,,04 Jun 2019 11:43:25,10377,60,2,200,,,,3.3046875,,,1489,0,816,31294,0,1521,,
https://dpm.demdex.net,COMPLETE,200,https,CONNECT,,/127.0.0.1,57111,dpm.demdex.net/52.203.135.77,443,,04 Jun 2019 11:43:15,,,04 Jun 2019 11:43:46,30648,24,9,254,,,,0.6923828,,,1469,0,804,18303,0,1155,,
https://idpix.media6degrees.com,COMPLETE,200,https,CONNECT,,/127.0.0.1,57114,idpix.media6degrees.com/204.2.197.211,443,,04 Jun 2019 11:43:15,,,04 Jun 2019 11:43:15,367,84,2,195,,,,71.28613,,,1514,0,431,24075,0,770,,
https://bcp.crwdcntrl.net,COMPLETE,200,https,CONNECT,,/127.0.0.1,57116,bcp.crwdcntrl.net/54.236.141.226,443,,04 Jun 2019 11:43:15,,,04 Jun 2019 11:43:46,30624,37,9,211,,,,1.0917969,,,1484,0,797,31179,0,790,,
https://aa.agkn.com,COMPLETE,200,https,CONNECT,,/127.0.0.1,57120,aa.agkn.com/63.251.88.56,443,,04 Jun 2019 11:43:15,,,04 Jun 2019 11:43:15,291,46,8,167,,,,77.62402,,,1454,0,402,20762,0,513,,
https://idsync.rlcdn.com,COMPLETE,200,https,CONNECT,,/127.0.0.1,57124,idsync.rlcdn.com/34.95.92.78,443,,04 Jun 2019 11:43:15,,,04 Jun 2019 11:43:46,30534,19,2,139,,,,0.8886719,,,1347,0,838,24510,0,1107,,
https://beacon.krxd.net,COMPLETE,200,https,CONNECT,,/127.0.0.1,57127,beacon.krxd.net/184.73.185.138,443,,04 Jun 2019 11:43:15,,,04 Jun 2019 11:43:46,30531,35,9,171,,,,1.0703125,,,1474,0,414,31113,0,482,,
https://p.adsymptotic.com,COMPLETE,200,https,CONNECT,,/127.0.0.1,57126,p.adsymptotic.com/52.2.102.124,443,,04 Jun 2019 11:43:15,,,04 Jun 2019 11:43:46,30531,11,10,192,,,,0.7236328,,,1484,0,944,19281,0,921,,
https://stags.bluekai.com,COMPLETE,200,https,CONNECT,,/127.0.0.1,57122,stags.bluekai.com/104.102.201.81,443,,04 Jun 2019 11:43:15,,,04 Jun 2019 11:43:46,30523,40,9,159,,,,0.66503906,,,1484,0,459,18072,0,782,,
https://sync.alphonso.tv,COMPLETE,200,https,CONNECT,,/127.0.0.1,57125,sync.alphonso.tv/104.129.168.238,443,,04 Jun 2019 11:43:15,,,04 Jun 2019 11:43:46,30521,4,4,146,,,,0.9658203,,,1479,0,391,27865,0,471,,
https://bsw.digitru.st,COMPLETE,200,https,CONNECT,,/127.0.0.1,57135,bsw.digitru.st/35.185.1.218,443,,04 Jun 2019 11:43:15,,,04 Jun 2019 11:43:26,10149,3,21,65,,,,3.631836,,,1541,0,405,35144,0,658,,
https://d.agkn.com,COMPLETE,200,https,CONNECT,,/127.0.0.1,57137,d.agkn.com/52.20.137.104,443,,04 Jun 2019 11:43:15,,,04 Jun 2019 11:43:46,30243,21,8,40,,,,0.8847656,,,1449,0,384,25023,0,570,,
https://pippio.com,COMPLETE,200,https,CONNECT,,/127.0.0.1,57138,pippio.com/107.178.254.65,443,,04 Jun 2019 11:43:15,,,04 Jun 2019 11:43:47,31331,19,2,27,,,,0.8466797,,,1317,0,751,23570,0,1536,,
https://dt-secure.videohub.tv/v1/uid?UIBK=Nixm12Jv99YYo4jz,COMPLETE,200,https,GET,image/gif,/127.0.0.1,57066,dt-secure.videohub.tv/67.226.210.15,443,,04 Jun 2019 11:43:16,04 Jun 2019 11:43:16,04 Jun 2019 11:43:16,04 Jun 2019 11:43:16,12,,,,0,0,12,34.91211,0.0,0.0,,386,,,0,43,,
https://cm.g.doubleclick.net,COMPLETE,200,https,CONNECT,,/127.0.0.1,57141,cm.g.doubleclick.net/172.217.12.130,443,,04 Jun 2019 11:43:16,,,04 Jun 2019 11:43:47,31212,21,3,53,,,,0.5341797,,,1367,0,424,14341,0,969,,
https://us-east-sync.bidswitch.net,COMPLETE,200,https,CONNECT,,/127.0.0.1,57142,us-east-sync.bidswitch.net/104.196.176.36,443,,04 Jun 2019 11:43:16,,,04 Jun 2019 11:43:26,10135,5,21,67,,,,3.758789,,,1601,0,430,36284,0,700,,
https://tag.apxlv.com,COMPLETE,200,https,CONNECT,,/127.0.0.1,57145,tag.apxlv.com/162.223.54.6,443,,04 Jun 2019 11:43:16,,,04 Jun 2019 11:43:47,31002,29,8,42,,,,0.8828125,,,1464,0,368,25553,0,647,,
https://objects-secure.tremormedia.com/net/js/adchoicesappicon.min.js?iconPosition=top-left&optOut=&iconClick=&playerWidth=770&playerHeight=1026&sources=&country=us,COMPLETE,200,https,GET,application/javascript,/127.0.0.1,57063,objects-secure.tremormedia.com/104.110.194.47,443,,04 Jun 2019 11:43:16,04 Jun 2019 11:43:16,04 Jun 2019 11:43:16,04 Jun 2019 11:43:16,14,,,,0,1,13,1217.5635,0.0,16622.07,,434,,,0,17021,,45.7%
https://tag.cogocast.net,COMPLETE,200,https,CONNECT,,/127.0.0.1,57147,tag.cogocast.net/54.152.25.88,443,,04 Jun 2019 11:43:16,,,04 Jun 2019 11:43:47,30889,6,9,33,,,,0.9199219,,,1479,0,502,26200,0,923,,
https://gpush.cogocast.net,COMPLETE,200,https,CONNECT,,/127.0.0.1,57149,gpush.cogocast.net/162.223.54.16,443,,04 Jun 2019 11:43:16,,,04 Jun 2019 11:43:16,67,36,9,,,,,3.1621094,,,210,0,0,7,0,0,,
https://l0-secure.videohub.tv/ssframework/log/log.png?EC=40&a=logitemaction&nolog=1&ssPD=tremorvideodsp.com&Uzip=__postalCode__&ADI=7880836&PRI=75b32619-ec13-409a-a1cf-21c396a2abb5&Udma=__dma__&ssMLVer=rml_app_1.9.0&Uctry=__country__&AVI=425726&ssASVer=2.0&RI=1&Ust=__state__&NI=1344&admode=preroll&ssDsC=mobiletablet&ssRnd=946622691&EvaF=1&pctVw=0,COMPLETE,200,https,GET,image/gif,/127.0.0.1,57073,l0-secure.videohub.tv/67.226.210.12,443,,04 Jun 2019 11:43:17,04 Jun 2019 11:43:17,04 Jun 2019 11:43:17,04 Jun 2019 11:43:17,20,,,,1,0,19,35.10742,660.15625,0.0,,676,,,0,43,,
https://l0-secure.videohub.tv/ssframework/log/log.png?EC=7&a=logitemaction&nolog=1&ssPD=tremorvideodsp.com&Uzip=__postalCode__&ADI=7880836&PRI=75b32619-ec13-409a-a1cf-21c396a2abb5&Udma=__dma__&ssMLVer=rml_app_1.9.0&Uctry=__country__&AVI=425726&ssASVer=2.0&RI=1&Ust=__state__&NI=1344&admode=preroll&ssDsC=mobiletablet&ssRnd=1136819106&Eipct=25&EiN=1,COMPLETE,200,https,GET,image/gif,/127.0.0.1,57073,l0-secure.videohub.tv/67.226.210.12,443,,04 Jun 2019 11:43:18,04 Jun 2019 11:43:18,04 Jun 2019 11:43:18,04 Jun 2019 11:43:18,13,,,,0,1,12,54.010742,0.0,41.992188,,676,,,0,43,,
https://s.tremorvideodsp.com/q/qa.gif?param1=screen_first_quartile,COMPLETE,200,https,GET,image/gif,/127.0.0.1,57061,s.tremorvideodsp.com/23.48.39.112,443,,04 Jun 2019 11:43:18,04 Jun 2019 11:43:18,04 Jun 2019 11:43:18,04 Jun 2019 11:43:18,15,,,,0,0,15,28.450195,0.0,0.0,,394,,,0,43,,
https://s.tremorvideodsp.com/q/qa.gif?param1=creative_first_quartile,COMPLETE,200,https,GET,image/gif,/127.0.0.1,57071,s.tremorvideodsp.com/23.48.39.112,443,,04 Jun 2019 11:43:18,04 Jun 2019 11:43:18,04 Jun 2019 11:43:18,04 Jun 2019 11:43:18,30,,,,1,0,29,14.290039,386.71875,0.0,,396,,,0,43,,
https://l0-secure.videohub.tv/ssframework/log/log.png?EC=7&a=logitemaction&nolog=1&ssPD=tremorvideodsp.com&Uzip=__postalCode__&ADI=7880836&PRI=75b32619-ec13-409a-a1cf-21c396a2abb5&Udma=__dma__&ssMLVer=rml_app_1.9.0&Uctry=__country__&AVI=425726&ssASVer=2.0&RI=1&Ust=__state__&NI=1344&admode=preroll&ssDsC=mobiletablet&ssRnd=1266119529&Eipct=50&EiN=1,COMPLETE,200,https,GET,image/gif,/127.0.0.1,57073,l0-secure.videohub.tv/67.226.210.12,443,,04 Jun 2019 11:43:22,04 Jun 2019 11:43:22,04 Jun 2019 11:43:22,04 Jun 2019 11:43:22,13,,,,0,0,13,54.010742,0.0,0.0,,676,,,0,43,,
https://s.tremorvideodsp.com/q/qa.gif?param1=screen_second_quartile,COMPLETE,200,https,GET,image/gif,/127.0.0.1,57061,s.tremorvideodsp.com/23.48.39.112,443,,04 Jun 2019 11:43:22,04 Jun 2019 11:43:22,04 Jun 2019 11:43:22,04 Jun 2019 11:43:22,15,,,,0,0,15,28.515625,0.0,0.0,,395,,,0,43,,
https://s.tremorvideodsp.com/q/qa.gif?param1=creative_second_quartile,COMPLETE,200,https,GET,image/gif,/127.0.0.1,57071,s.tremorvideodsp.com/23.48.39.112,443,,04 Jun 2019 11:43:22,04 Jun 2019 11:43:22,04 Jun 2019 11:43:22,04 Jun 2019 11:43:22,18,,,,1,1,16,23.871094,387.6953,41.992188,,397,,,0,43,,
https://l0-secure.videohub.tv/ssframework/log/log.png?EC=39&a=logitemaction&nolog=1&ssPD=tremorvideodsp.com&Uzip=__postalCode__&ADI=7880836&PRI=75b32619-ec13-409a-a1cf-21c396a2abb5&Udma=__dma__&ssMLVer=rml_app_1.9.0&Uctry=__country__&AVI=425726&ssASVer=2.0&RI=1&Ust=__state__&NI=1344&admode=preroll&ssDsC=mobiletablet&ssRnd=1606153651,COMPLETE,200,https,GET,image/gif,/127.0.0.1,57073,l0-secure.videohub.tv/67.226.210.12,443,,04 Jun 2019 11:43:23,04 Jun 2019 11:43:23,04 Jun 2019 11:43:23,04 Jun 2019 11:43:23,25,,,,0,2,23,27.539062,0.0,20.996094,,662,,,0,43,,
https://s.tremorvideodsp.com/q/video1_small.mp4,COMPLETE,206,https,GET,video/mp4,/127.0.0.1,57151,s.tremorvideodsp.com/23.48.39.112,443,,04 Jun 2019 11:43:23,04 Jun 2019 11:43:23,04 Jun 2019 11:43:23,04 Jun 2019 11:43:23,73,2,8,23,0,1,39,220.28809,0.0,14698.242,1058,358,,15049,0,2,,
https://s.tremorvideodsp.com/q/video1_small.mp4,COMPLETE,206,https,GET,video/mp4,/127.0.0.1,57151,s.tremorvideodsp.com/23.48.39.112,443,,04 Jun 2019 11:43:23,04 Jun 2019 11:43:23,04 Jun 2019 11:43:23,04 Jun 2019 11:43:23,36,,,,1,12,23,1787.5977,353.51562,5333.333,,362,,,0,65536,,
https://s.tremorvideodsp.com/q/video1_small.mp4,COMPLETE,206,https,GET,video/mp4,/127.0.0.1,57151,s.tremorvideodsp.com/23.48.39.112,443,,04 Jun 2019 11:43:23,04 Jun 2019 11:43:23,04 Jun 2019 11:43:23,04 Jun 2019 11:43:23,32,,,,0,8,24,2011.2305,0.0,8000.0,,368,,,0,65536,,
https://s.tremorvideodsp.com/q/video1_small.mp4,COMPLETE,206,https,GET,video/mp4,/127.0.0.1,57153,s.tremorvideodsp.com/23.48.39.112,443,,04 Jun 2019 11:43:23,04 Jun 2019 11:43:24,04 Jun 2019 11:43:24,04 Jun 2019 11:43:25,1028,2,8,25,0,963,30,9411.204,0.0,10045.063,986,368,,14959,0,9890599,,
https://s.tremorvideodsp.com/q/video1_small.mp4,COMPLETE,206,https,GET,video/mp4,/127.0.0.1,57151,s.tremorvideodsp.com/23.48.39.112,443,,04 Jun 2019 11:43:23,04 Jun 2019 11:43:23,04 Jun 2019 11:43:23,04 Jun 2019 11:43:24,26,,,,0,5,21,2475.3604,0.0,12800.0,,368,,,0,65536,,
https://entitlements.jwplayer.com,COMPLETE,200,https,CONNECT,,/127.0.0.1,57155,entitlements.jwplayer.com/72.21.81.189,443,,04 Jun 2019 11:44:00,,,04 Jun 2019 11:44:31,30900,2,2,63,,,,1.1328125,,,1524,0,317,33541,0,464,,
https://s.tremorvideodsp.com/q/video1_small.mp4,COMPLETE,206,https,GET,video/mp4,/127.0.0.1,57157,s.tremorvideodsp.com/23.48.39.112,443,,04 Jun 2019 11:44:00,04 Jun 2019 11:44:00,04 Jun 2019 11:44:00,04 Jun 2019 11:44:00,150,50,7,22,0,1,70,107.20703,0.0,14698.242,1058,358,,15049,0,2,,
https://jwpltx.com,COMPLETE,200,https,CONNECT,,/127.0.0.1,57158,jwpltx.com/52.22.196.225,443,,04 Jun 2019 11:44:00,,,04 Jun 2019 11:44:31,30405,7,8,37,,,,1.0888672,,,1449,0,609,31731,0,132,,
https://s.tremorvideodsp.com/q/video1_small.mp4,COMPLETE,206,https,GET,video/mp4,/127.0.0.1,57157,s.tremorvideodsp.com/23.48.39.112,443,,04 Jun 2019 11:44:00,04 Jun 2019 11:44:00,04 Jun 2019 11:44:00,04 Jun 2019 11:44:00,40,,,,0,17,23,1608.8379,0.0,3764.705,,362,,,0,65536,,
https://s.tremorvideodsp.com/q/video1_small.mp4,COMPLETE,206,https,GET,video/mp4,/127.0.0.1,57157,s.tremorvideodsp.com/23.48.39.112,443,,04 Jun 2019 11:44:00,04 Jun 2019 11:44:00,04 Jun 2019 11:44:00,04 Jun 2019 11:44:00,27,,,,1,5,21,2383.6797,359.375,12800.0,,368,,,0,65536,,
https://s.tremorvideodsp.com/q/video1_small.mp4,COMPLETE,206,https,GET,video/mp4,/127.0.0.1,57161,s.tremorvideodsp.com/23.48.39.112,443,com.xk72.proxy.ProxyException: Client closed connection before receiving entire response,04 Jun 2019 11:44:01,04 Jun 2019 11:44:01,04 Jun 2019 11:44:01,04 Jun 2019 11:44:01,166,3,7,23,0,86,47,7664.662,0.0,14779.205,986,368,,14959,0,1286557,,
https://s.tremorvideodsp.com/q/video1_small.mp4,COMPLETE,206,https,GET,video/mp4,/127.0.0.1,57157,s.tremorvideodsp.com/23.48.39.112,443,,04 Jun 2019 11:44:01,04 Jun 2019 11:44:01,04 Jun 2019 11:44:01,04 Jun 2019 11:44:01,28,,,,0,3,25,2298.5488,0.0,21333.332,,368,,,0,65536,,
https://play.google.com,RECEIVING_REQUEST_BODY,200,https,CONNECT,,/127.0.0.1,57163,play.google.com/172.217.10.46,443,,04 Jun 2019 11:44:22,,,,22968,2,2,,,,,0.021484375,,,517,0,0,,0,0,,
https://play.google.com,RECEIVING_REQUEST_BODY,200,https,CONNECT,,/127.0.0.1,57165,play.google.com/172.217.10.46,443,,04 Jun 2019 11:44:22,,,,22922,0,2,,,,,0.021484375,,,517,0,0,,0,0,,
