URL,Status,Response Code,Protocol,Method,Content-Type,Client Address,Client Port,Remote Address,Remote Port,Exception,Request Start Time,Request End Time,Response Start Time,Response End Time,Duration (ms),DNS Duration (ms),Connect Duration (ms),SSL Duration (ms),Request Duration (ms),Response Duration (ms),Latency (ms),Speed (KB/s),Request Speed (KB/s),Response Speed (KB/s),Request Handshake Size (bytes),Request Header Size (bytes),Request Body Size (bytes),Response Handshake Size (bytes),Response Header Size (bytes),Response Body Size (bytes),Request Compression,Response Compression
https://ts01-b.cloudsink.net,RECEIVING_REQUEST_BODY,200,https,CONNECT,,/127.0.0.1,63355,ts01-b.cloudsink.net/54.67.96.255,443,,10 Jun 2019 18:13:50,,,,63686422,6,71,176,,,,0.06640625,,,1246,0,3536210,17474,0,813875,,
https://15.client-channel.google.com,RECEIVING_RESPONSE_BODY,200,https,CONNECT,,/127.0.0.1,49502,15.client-channel.google.com/173.194.204.189,443,,11 Jun 2019 11:34:05,,,,1271310,36,17,41,,,,0.021484375,,,1179,0,6009,15989,0,5520,,
https://ssl.gstatic.com,RECEIVING_REQUEST_BODY,200,https,CONNECT,,/127.0.0.1,49750,ssl.gstatic.com/172.217.10.67,443,,11 Jun 2019 11:43:59,,,,677406,2,3,28,,,,0.033203125,,,2251,0,1149,18790,0,1505,,
https://play.google.com,COMPLETE,200,https,CONNECT,,/127.0.0.1,50054,play.google.com/172.217.3.110,443,,11 Jun 2019 11:49:38,,,11 Jun 2019 11:51:56,138233,1,2,3,,,,0.038085938,,,2207,0,1929,372,0,,,
https://safebrowsing.googleapis.com,RECEIVING_REQUEST_BODY,200,https,CONNECT,,/127.0.0.1,50261,safebrowsing.googleapis.com/172.217.12.138,443,,11 Jun 2019 11:53:00,,,,136831,2,2,,,,,0.0029296875,,,517,0,0,,0,0,,
https://entitlements.jwplayer.com,COMPLETE,200,https,CONNECT,,/127.0.0.1,50263,entitlements.jwplayer.com/72.21.81.189,443,,11 Jun 2019 11:53:02,,,11 Jun 2019 11:53:33,30651,2,2,71,,,,1.1464844,,,1684,0,317,33541,0,464,,
https://s.tremorvideodsp.com/q/video1_small.mp4,COMPLETE,206,https,GET,video/mp4,/127.0.0.1,50265,s.tremorvideodsp.com/23.48.39.112,443,,11 Jun 2019 11:53:03,11 Jun 2019 11:53:03,11 Jun 2019 11:53:03,11 Jun 2019 11:53:03,142,64,8,27,0,1,42,113.24609,0.0,14698.242,1058,358,,15049,0,2,,
https://jwpltx.com,COMPLETE,200,https,CONNECT,,/127.0.0.1,50266,jwpltx.com/52.55.96.211,443,,11 Jun 2019 11:53:03,,,11 Jun 2019 11:53:34,31615,5,1138,34,,,,0.8857422,,,1609,0,609,26340,0,132,,
https://s.tremorvideodsp.com/q/video1_small.mp4,COMPLETE,206,https,GET,video/mp4,/127.0.0.1,50265,s.tremorvideodsp.com/23.48.39.112,443,,11 Jun 2019 11:53:03,11 Jun 2019 11:53:03,11 Jun 2019 11:53:03,11 Jun 2019 11:53:03,66,,,,0,12,54,975.05273,0.0,5333.333,,362,,,0,65536,,
https://s.tremorvideodsp.com/q/video1_small.mp4,COMPLETE,206,https,GET,video/mp4,/127.0.0.1,50265,s.tremorvideodsp.com/23.48.39.112,443,,11 Jun 2019 11:53:03,11 Jun 2019 11:53:03,11 Jun 2019 11:53:03,11 Jun 2019 11:53:03,38,,,,0,8,30,1693.667,0.0,8000.0,,368,,,0,65536,,
https://s.tremorvideodsp.com/q/video1_small.mp4,COMPLETE,206,https,GET,video/mp4,/127.0.0.1,50269,s.tremorvideodsp.com/23.48.39.112,443,,11 Jun 2019 11:53:03,11 Jun 2019 11:53:03,11 Jun 2019 11:53:03,11 Jun 2019 11:53:03,532,3,9,26,0,465,29,18185.562,0.0,20803.004,986,368,,14959,0,9890599,,
https://s.tremorvideodsp.com/q/video1_small.mp4,COMPLETE,206,https,GET,video/mp4,/127.0.0.1,50265,s.tremorvideodsp.com/23.48.39.112,443,,11 Jun 2019 11:53:03,11 Jun 2019 11:53:03,11 Jun 2019 11:53:03,11 Jun 2019 11:53:03,34,,,,0,4,30,1892.9219,0.0,16000.0,,368,,,0,65536,,
https://adserver.videohub.tv/preview?RI=h_AcAeyFREpDRXBay8d1aQ&screenType=mobiletablet&rml=true&Uctry=__country__&Ust=__state__&Udma=__dma__&Uzip=__postalCode__&Ucty=__city__&Uctnt=__continent__&Ulong=__longitude__&Ulat=__latitude__&Uacd=__areaCode__&position_ACP=__adChoicesPosition__&usedACP=__usedACP__&dspACP=__adChoicesProviders__&sig=2446D8A455EC81CE2B372F2D2FAD9745&dmps=y&ssRmlApp=1&isApp=y,COMPLETE,200,https,GET,application/xml; charset=utf-8,/127.0.0.1,50271,adserver.videohub.tv/67.226.210.8,443,,11 Jun 2019 11:53:12,11 Jun 2019 11:53:12,11 Jun 2019 11:53:12,11 Jun 2019 11:53:12,58,2,9,28,0,2,17,678.1553,0.0,18829.59,1046,668,,25605,0,12958,,
https://objects-secure.videohub.tv/net/js/rml-app.min.js?adData=https%3A%2F%2Fs.tremorvideodsp.com%2Fq%2Fmp4_60sec.xml,COMPLETE,200,https,GET,application/javascript,/127.0.0.1,50273,objects-secure.videohub.tv/104.110.215.249,443,,11 Jun 2019 11:53:12,11 Jun 2019 11:53:12,11 Jun 2019 11:53:12,11 Jun 2019 11:53:12,109,47,10,28,1,14,9,726.7949,1423.8281,5556.919,1070,388,,16754,0,62910,,72.6%
https://s.tremorvideodsp.com/q/mp4_60sec.xml,COMPLETE,200,https,GET,application/xml,/127.0.0.1,50275,s.tremorvideodsp.com/23.48.39.112,443,,11 Jun 2019 11:53:12,11 Jun 2019 11:53:12,11 Jun 2019 11:53:12,11 Jun 2019 11:53:12,113,2,9,23,0,0,79,147.97852,0.0,0.0,1046,314,,15049,0,714,,
https://objects-secure.tremormedia.com/net/js/io-polyfill-0.5.1.js,COMPLETE,200,https,GET,application/javascript,/127.0.0.1,50277,objects-secure.tremormedia.com/104.110.194.47,443,,11 Jun 2019 11:53:12,11 Jun 2019 11:53:12,11 Jun 2019 11:53:12,11 Jun 2019 11:53:12,100,51,9,23,0,1,16,239.9414,0.0,22605.469,1086,336,,16789,0,6359,,71.5%
https://s.tremorvideodsp.com/q/mp4_60sec.mp4,COMPLETE,206,https,GET,video/mp4,/127.0.0.1,50275,s.tremorvideodsp.com/23.48.39.112,443,,11 Jun 2019 11:53:12,11 Jun 2019 11:53:12,11 Jun 2019 11:53:12,11 Jun 2019 11:53:12,124,,,,0,1,123,3.0390625,0.0,1.953125,,384,,,0,2,,
https://s.tremorvideodsp.com/q/mp4_60sec.mp4,COMPLETE,206,https,GET,video/mp4,/127.0.0.1,50275,s.tremorvideodsp.com/23.48.39.112,443,,11 Jun 2019 11:53:12,11 Jun 2019 11:53:12,11 Jun 2019 11:53:12,11 Jun 2019 11:53:12,91,,,,1,20,70,707.45996,378.90625,3200.0,,388,,,0,65536,,
https://s.tremorvideodsp.com/q/mp4_60sec.mp4,COMPLETE,206,https,GET,video/mp4,/127.0.0.1,50275,s.tremorvideodsp.com/23.48.39.112,443,,11 Jun 2019 11:53:12,11 Jun 2019 11:53:12,11 Jun 2019 11:53:13,11 Jun 2019 11:53:13,35,,,,0,7,28,1839.5361,0.0,9142.856,,393,,,0,65536,,
https://s.tremorvideodsp.com/q/mp4_60sec.mp4,COMPLETE,206,https,GET,video/mp4,/127.0.0.1,50275,s.tremorvideodsp.com/23.48.39.112,443,,11 Jun 2019 11:53:13,11 Jun 2019 11:53:13,11 Jun 2019 11:53:13,11 Jun 2019 11:53:15,2329,,,,0,2303,26,13324.139,0.0,13474.3955,,396,,,0,31776290,,
https://prd.jwpltx.com,COMPLETE,200,https,CONNECT,,/127.0.0.1,50279,prd.jwpltx.com/34.192.3.61,443,,11 Jun 2019 11:53:13,,,11 Jun 2019 11:54:01,47911,22,13,85,,,,0.7441406,,,1629,0,2772,31731,0,396,,
https://dt-secure.videohub.tv/v1/usync/ironsource?userId=,COMPLETE,303,https,GET,image/gif,/127.0.0.1,50280,dt-secure.videohub.tv/67.226.210.12,443,,11 Jun 2019 11:53:13,11 Jun 2019 11:53:14,11 Jun 2019 11:53:14,11 Jun 2019 11:53:14,58,4,10,31,1,1,11,460.44922,1401.3672,25304.688,1050,385,,25869,0,43,,
https://sync.doubleverify.com/query.gif?ctx=42674&cmp=2311460&DVP_CMPID=&DVP_PUBID=&dvp_red=http%3A%2F%2Fads.videohub.tv%2Fssframework%2Fdt%2Fbotid%3Fa%3Dset%26DUID%3D1,COMPLETE,200,https,GET,image/gif,/127.0.0.1,50281,sync.doubleverify.com/204.154.111.224,443,,11 Jun 2019 11:53:13,11 Jun 2019 11:53:13,11 Jun 2019 11:53:14,11 Jun 2019 11:53:14,40,20,4,8,0,1,7,59.32617,0.0,1176.7578,729,496,,345,0,860,,-6.6%
https://tps30.doubleverify.com/visit.jpg?ctx=42674&cmp=2256325&sid=1111&plc=22563261&num=&adid=&advid=498259&adsrv=41&region=30&btreg=&btadsrv=&crt=&crtname=&chnl=&unit=&pid=&uid=&dvtagver=6.1.img&DVP_CMPID=&DVP_PUBID=&turl=tremorvideodsp.com,COMPLETE,200,https,GET,image/jpeg,/127.0.0.1,50283,tps30.doubleverify.com/204.154.111.122,443,,11 Jun 2019 11:53:13,11 Jun 2019 11:53:14,11 Jun 2019 11:53:14,11 Jun 2019 11:53:14,84,62,4,6,1,0,11,20.588867,1271.4844,0.0,732,570,,327,0,142,,53.4%
https://tags.bluekai.com/site/2954,COMPLETE,200,https,GET,image/gif,/127.0.0.1,50285,tags.bluekai.com/104.102.201.81,443,,11 Jun 2019 11:53:13,11 Jun 2019 11:53:14,11 Jun 2019 11:53:14,11 Jun 2019 11:53:14,160,57,8,32,0,0,63,93.18848,0.0,0.0,1030,362,,13814,0,62,,
https://s.tremorvideodsp.com/q/qa.gif?param1=screen_impression,COMPLETE,200,https,GET,image/gif,/127.0.0.1,50288,s.tremorvideodsp.com/23.48.39.112,443,,11 Jun 2019 11:53:13,11 Jun 2019 11:53:13,11 Jun 2019 11:53:13,11 Jun 2019 11:53:13,74,2,9,26,1,1,35,216.13672,1343.75,14650.391,986,390,,14959,0,43,,
https://tp.videohub.tv/v1/topprop.png?domain=&ui=&pri=273bdc5f-fb19-4f8b-937d-af86a2f8a9f9&ssRnd=689543270,COMPLETE,200,https,GET,image/png,/127.0.0.1,50286,tp.videohub.tv/67.226.210.14,443,,11 Jun 2019 11:53:13,11 Jun 2019 11:53:14,11 Jun 2019 11:53:14,11 Jun 2019 11:53:14,62,3,10,28,0,0,21,431.07324,0.0,0.0,1022,434,,25869,0,43,,
https://s.tremorvideodsp.com/q/qa.gif?param1=creative_impression,COMPLETE,200,https,GET,image/gif,/127.0.0.1,50289,s.tremorvideodsp.com/23.48.39.112,443,,11 Jun 2019 11:53:13,11 Jun 2019 11:53:13,11 Jun 2019 11:53:13,11 Jun 2019 11:53:13,81,2,11,32,1,0,35,197.48242,1345.7031,0.0,986,392,,14959,0,43,,
https://l0-secure.videohub.tv/ssframework/log/log.png?EC=3&a=logitemaction&nolog=1&ssPD=tremorvideodsp.com&Uzip=__postalCode__&ADI=7879076&PRI=273bdc5f-fb19-4f8b-937d-af86a2f8a9f9&Udma=__dma__&ssMLVer=rml_app_1.9.0&Uctry=__country__&AVI=425726&ssASVer=2.0&RI=1&Ust=__state__&NI=1344&admode=preroll&ssDsC=mobiletablet&ssRnd=1378656547&SfF=true&AmN=1&adFocus=true&RvN=1,COMPLETE,200,https,GET,image/gif,/127.0.0.1,50290,l0-secure.videohub.tv/67.226.210.15,443,,11 Jun 2019 11:53:13,11 Jun 2019 11:53:14,11 Jun 2019 11:53:14,11 Jun 2019 11:53:14,90,27,10,31,0,0,22,300.09766,0.0,0.0,1050,695,,25869,0,43,,
https://sync.doubleverify.com/query.gif?ctx=42674&cmp=2256325&DVP_CMPID=&DVP_PUBID=&dvp_red=http%3A%2F%2Fapp.scanscout.com%2Fssframework%2Fdt%2Fbotid%3Fa%3Dset%26DUID%3D1,COMPLETE,200,https,GET,image/gif,/127.0.0.1,50297,sync.doubleverify.com/204.154.111.224,443,,11 Jun 2019 11:53:14,11 Jun 2019 11:53:14,11 Jun 2019 11:53:14,11 Jun 2019 11:53:14,16,5,2,3,1,0,5,145.69043,1154.2969,0.0,684,498,,345,0,860,,-6.6%
https://dt-secure.videohub.tv/v1/usync/bs?userId=,COMPLETE,303,https,GET,image/gif,/127.0.0.1,50299,dt-secure.videohub.tv/67.226.210.12,443,,11 Jun 2019 11:53:14,11 Jun 2019 11:53:14,11 Jun 2019 11:53:14,11 Jun 2019 11:53:14,51,1,9,30,0,0,11,522.3457,0.0,0.0,990,377,,25869,0,43,,
https://dt-secure.videohub.tv/v1/usync/lkqd_direct?userId=,COMPLETE,303,https,GET,image/gif,/127.0.0.1,50300,dt-secure.videohub.tv/67.226.210.12,443,,11 Jun 2019 11:53:14,11 Jun 2019 11:53:14,11 Jun 2019 11:53:14,11 Jun 2019 11:53:14,52,1,9,32,1,0,9,512.4697,1343.75,0.0,990,386,,25869,0,43,,
https://dt-secure.videohub.tv/v1/usync/springserve?userId=,COMPLETE,303,https,GET,image/gif,/127.0.0.1,50303,dt-secure.videohub.tv/67.226.210.12,443,,11 Jun 2019 11:53:14,11 Jun 2019 11:53:14,11 Jun 2019 11:53:14,11 Jun 2019 11:53:14,61,3,10,37,0,0,11,436.85938,0.0,0.0,990,386,,25869,0,43,,
https://dt-secure.videohub.tv/v1/usync/pubmatic?userId=,COMPLETE,303,https,GET,image/gif,/127.0.0.1,50301,dt-secure.videohub.tv/67.226.210.12,443,,11 Jun 2019 11:53:14,11 Jun 2019 11:53:14,11 Jun 2019 11:53:14,11 Jun 2019 11:53:14,64,3,11,38,0,1,11,416.33594,0.0,25304.688,990,383,,25869,0,43,,
https://dt-secure.videohub.tv/v1/usync/rubicon?userId=,COMPLETE,303,https,GET,image/gif,/127.0.0.1,50302,dt-secure.videohub.tv/67.226.210.12,443,,11 Jun 2019 11:53:14,11 Jun 2019 11:53:14,11 Jun 2019 11:53:14,11 Jun 2019 11:53:14,55,2,11,30,0,0,12,484.4453,0.0,0.0,990,382,,25869,0,43,,
https://dt-secure.videohub.tv/v1/usync/spx?userId=,COMPLETE,303,https,GET,image/gif,/127.0.0.1,50280,dt-secure.videohub.tv/67.226.210.12,443,,11 Jun 2019 11:53:14,11 Jun 2019 11:53:14,11 Jun 2019 11:53:14,11 Jun 2019 11:53:14,12,,,,0,1,11,34.260742,0.0,41.992188,,378,,,0,43,,
https://tps30.doubleverify.com/visit.jpg?ctx=42674&cmp=DV069178&sid=1111&plc=2018011501&advid=3819603&adsrv=0&tagtype=&dvtagver=6.1.img&DVP_PP_REP=1&DVP_IQM_ID=16&DVP_DV_TT=2&DVP_DV_CT=2&DVP_TR_SSP=&DVP_TR_PUB=[PUBLISHER_ID]&DVP_TR_SITE=[SUPPLY_ID]&DVP_TR_ADV=425726&DVP_TR_CMP=&DVP_TR_PLC=&turl=tremorvideodsp.com&DVP_PP_BUNDLE_ID=&DVP_TR_COST=,COMPLETE,200,https,GET,image/jpeg,/127.0.0.1,50304,tps30.doubleverify.com/204.154.111.122,443,,11 Jun 2019 11:53:14,11 Jun 2019 11:53:14,11 Jun 2019 11:53:14,11 Jun 2019 11:53:14,18,2,3,3,0,1,9,99.22949,0.0,458.0078,687,673,,327,0,142,,53.4%
https://cs.rtb-seller.com,COMPLETE,200,https,CONNECT,,/127.0.0.1,50311,cs.rtb-seller.com/100.24.143.85,443,,11 Jun 2019 11:53:14,,,11 Jun 2019 11:53:45,31483,5,9,155,,,,1.0410156,,,1484,0,388,31539,0,170,,
https://l0-secure.videohub.tv/ssframework/log/log.png?EC=7&a=logitemaction&nolog=1&ssPD=tremorvideodsp.com&Uzip=__postalCode__&ADI=7879076&PRI=273bdc5f-fb19-4f8b-937d-af86a2f8a9f9&Udma=__dma__&ssMLVer=rml_app_1.9.0&Uctry=__country__&AVI=425726&ssASVer=2.0&RI=1&Ust=__state__&NI=1344&admode=preroll&ssDsC=mobiletablet&ssRnd=1874947032&Eipct=0&EvaF=1&EiN=1,COMPLETE,200,https,GET,image/gif,/127.0.0.1,50312,l0-secure.videohub.tv/67.226.210.15,443,,11 Jun 2019 11:53:14,11 Jun 2019 11:53:14,11 Jun 2019 11:53:14,11 Jun 2019 11:53:14,60,1,10,36,0,1,12,448.958,0.0,25304.688,990,682,,25869,0,43,,
https://dt-secure.videohub.tv/v1/usync/rhythmone?userId=,COMPLETE,303,https,GET,image/gif,/127.0.0.1,50280,dt-secure.videohub.tv/67.226.210.12,443,,11 Jun 2019 11:53:14,11 Jun 2019 11:53:14,11 Jun 2019 11:53:14,11 Jun 2019 11:53:14,11,,,,0,0,11,37.908203,0.0,0.0,,384,,,0,43,,
https://dt-secure.videohub.tv/v1/usync/tr?userId=,COMPLETE,303,https,GET,image/gif,/127.0.0.1,50280,dt-secure.videohub.tv/67.226.210.12,443,,11 Jun 2019 11:53:14,11 Jun 2019 11:53:14,11 Jun 2019 11:53:14,11 Jun 2019 11:53:14,30,,,,1,0,29,13.671875,368.16406,0.0,,377,,,0,43,,
https://dt-secure.videohub.tv/v1/usync/ex?userId=,COMPLETE,303,https,GET,image/gif,/127.0.0.1,50300,dt-secure.videohub.tv/67.226.210.12,443,,11 Jun 2019 11:53:14,11 Jun 2019 11:53:14,11 Jun 2019 11:53:14,11 Jun 2019 11:53:14,10,,,,0,0,10,41.015625,0.0,0.0,,377,,,0,43,,
https://dt-secure.videohub.tv/v1/usync/lo?userId=,COMPLETE,303,https,GET,image/gif,/127.0.0.1,50303,dt-secure.videohub.tv/67.226.210.12,443,,11 Jun 2019 11:53:14,11 Jun 2019 11:53:14,11 Jun 2019 11:53:14,11 Jun 2019 11:53:14,12,,,,0,1,11,34.179688,0.0,41.992188,,377,,,0,43,,
https://dt-secure.videohub.tv/v1/usync/dd?userId=,COMPLETE,303,https,GET,image/gif,/127.0.0.1,50301,dt-secure.videohub.tv/67.226.210.12,443,,11 Jun 2019 11:53:14,11 Jun 2019 11:53:14,11 Jun 2019 11:53:14,11 Jun 2019 11:53:14,12,,,,0,0,12,34.179688,0.0,0.0,,377,,,0,43,,
https://dt-secure.videohub.tv/ssframework/tvuid?a=set&UI=,COMPLETE,400,https,GET,image/gif,/127.0.0.1,50299,dt-secure.videohub.tv/67.226.210.12,443,,11 Jun 2019 11:53:14,11 Jun 2019 11:53:14,11 Jun 2019 11:53:14,11 Jun 2019 11:53:14,10,,,,0,0,10,41.796875,0.0,0.0,,385,,,0,43,,
https://sync.search.spotxchange.com,COMPLETE,200,https,CONNECT,,/127.0.0.1,50315,sync.search.spotxchange.com/192.35.249.120,443,,11 Jun 2019 11:53:14,,,11 Jun 2019 11:53:45,31408,2,9,179,,,,0.6230469,,,1534,0,886,16383,0,1258,,
https://sync.1rx.io,COMPLETE,200,https,CONNECT,,/127.0.0.1,50317,sync.1rx.io/8.41.222.151,443,,11 Jun 2019 11:53:14,,,11 Jun 2019 11:53:45,31338,7,2,183,,,,0.86328125,,,1094,0,796,24907,0,936,,
https://cs.lkqd.net,COMPLETE,200,https,CONNECT,,/127.0.0.1,50319,cs.lkqd.net/146.20.132.102,443,,11 Jun 2019 11:53:14,,,11 Jun 2019 11:53:45,31364,10,12,194,,,,1.3759766,,,1322,0,396,42000,0,482,,
https://sync.springserve.com,COMPLETE,200,https,CONNECT,,/127.0.0.1,50320,sync.springserve.com/18.210.131.141,443,,11 Jun 2019 11:53:14,,,11 Jun 2019 11:53:45,31364,53,9,234,,,,1.0507812,,,1499,0,397,31653,0,212,,
https://x.bidswitch.net,COMPLETE,200,https,CONNECT,,/127.0.0.1,50318,x.bidswitch.net/35.185.57.166,443,,11 Jun 2019 11:53:14,,,11 Jun 2019 11:53:24,10550,5,21,261,,,,3.5703125,,,1146,0,405,36284,0,743,,
https://dt-secure.videohub.tv/v1/usync/ds?userId=,COMPLETE,303,https,GET,image/gif,/127.0.0.1,50299,dt-secure.videohub.tv/67.226.210.12,443,,11 Jun 2019 11:53:14,11 Jun 2019 11:53:14,11 Jun 2019 11:53:14,11 Jun 2019 11:53:14,19,,,,0,0,19,21.586914,0.0,0.0,,377,,,0,43,,
https://simage2.pubmatic.com,COMPLETE,200,https,CONNECT,,/127.0.0.1,50321,simage2.pubmatic.com/162.248.19.147,443,,11 Jun 2019 11:53:14,,,11 Jun 2019 11:53:45,31360,31,2,218,,,,0.6855469,,,1499,0,455,19257,0,827,,
https://dt-secure.videohub.tv/v1/usync/lrjs?userId=,COMPLETE,303,https,GET,image/gif,/127.0.0.1,50300,dt-secure.videohub.tv/67.226.210.12,443,,11 Jun 2019 11:53:14,11 Jun 2019 11:53:14,11 Jun 2019 11:53:14,11 Jun 2019 11:53:14,18,,,,0,1,17,22.894531,0.0,41.992188,,379,,,0,43,,
https://dt-secure.videohub.tv/v1/usync/db?userId=&deviceId=unknown&screenType=mobiletablet&osType=iOS&rand=1930507399,COMPLETE,303,https,GET,image/gif,/127.0.0.1,50302,dt-secure.videohub.tv/67.226.210.12,443,,11 Jun 2019 11:53:14,11 Jun 2019 11:53:14,11 Jun 2019 11:53:14,11 Jun 2019 11:53:14,12,,,,0,0,12,39.71289,0.0,0.0,,445,,,0,43,,
https://dt-secure.videohub.tv/v1/usync/kx?userId=,COMPLETE,303,https,GET,image/gif,/127.0.0.1,50303,dt-secure.videohub.tv/67.226.210.12,443,,11 Jun 2019 11:53:14,11 Jun 2019 11:53:14,11 Jun 2019 11:53:14,11 Jun 2019 11:53:14,18,,,,0,0,18,22.786133,0.0,0.0,,377,,,0,43,,
https://dt-secure.videohub.tv/v1/usync/al?userId=,COMPLETE,303,https,GET,image/gif,/127.0.0.1,50301,dt-secure.videohub.tv/67.226.210.12,443,,11 Jun 2019 11:53:14,11 Jun 2019 11:53:14,11 Jun 2019 11:53:14,11 Jun 2019 11:53:14,18,,,,0,0,18,22.786133,0.0,0.0,,377,,,0,43,,
https://dt-secure.videohub.tv/v1/usync/bk?userId=,COMPLETE,303,https,GET,image/gif,/127.0.0.1,50280,dt-secure.videohub.tv/67.226.210.12,443,,11 Jun 2019 11:53:14,11 Jun 2019 11:53:14,11 Jun 2019 11:53:14,11 Jun 2019 11:53:14,27,,,,1,1,25,15.19043,368.16406,41.992188,,377,,,0,43,,
https://loadm.exelator.com,COMPLETE,200,https,CONNECT,,/127.0.0.1,50324,loadm.exelator.com/147.75.39.192,443,,11 Jun 2019 11:53:14,,,11 Jun 2019 11:53:24,10507,27,2,246,,,,3.2324219,,,1122,0,816,31294,0,1551,,
https://pixel.rubiconproject.com,COMPLETE,200,https,CONNECT,,/127.0.0.1,50326,pixel.rubiconproject.com/8.43.72.97,443,,11 Jun 2019 11:53:14,,,11 Jun 2019 11:53:30,16165,5,9,246,,,,1.2011719,,,1170,0,890,16516,0,1322,,
https://bcp.crwdcntrl.net,COMPLETE,200,https,CONNECT,,/127.0.0.1,50327,bcp.crwdcntrl.net/52.54.83.29,443,,11 Jun 2019 11:53:14,,,11 Jun 2019 11:53:45,31327,14,7,252,,,,1.0673828,,,1484,0,797,31179,0,791,,
https://dpm.demdex.net,COMPLETE,200,https,CONNECT,,/127.0.0.1,50328,dpm.demdex.net/52.86.108.5,443,,11 Jun 2019 11:53:14,,,11 Jun 2019 11:53:45,31327,22,8,245,,,,0.6767578,,,1469,0,804,18303,0,1155,,
https://dt-secure.videohub.tv/v1/usync/lr?userId=,COMPLETE,303,https,GET,image/gif,/127.0.0.1,50302,dt-secure.videohub.tv/67.226.210.12,443,,11 Jun 2019 11:53:14,11 Jun 2019 11:53:14,11 Jun 2019 11:53:14,11 Jun 2019 11:53:14,33,,,,0,0,33,12.428711,0.0,0.0,,377,,,0,43,,
https://dt-secure.videohub.tv/v1/usync/ns?userId=,COMPLETE,303,https,GET,image/gif,/127.0.0.1,50300,dt-secure.videohub.tv/67.226.210.12,443,,11 Jun 2019 11:53:14,11 Jun 2019 11:53:14,11 Jun 2019 11:53:14,11 Jun 2019 11:53:14,9,,,,1,0,8,45.572266,368.16406,0.0,,377,,,0,43,,
https://partners.tremorhub.com,COMPLETE,200,https,CONNECT,,/127.0.0.1,50330,partners.tremorhub.com/34.233.214.90,443,,11 Jun 2019 11:53:14,,,11 Jun 2019 11:53:45,31302,6,8,254,,,,1.0751953,,,1509,0,387,32079,0,516,,
https://objects-secure.tremormedia.com/net/js/lr.js?partner_id=08bf42dcccd0b16b0145b87f1fab23c6,COMPLETE,200,https,GET,application/javascript,/127.0.0.1,50277,objects-secure.tremormedia.com/104.110.194.47,443,,11 Jun 2019 11:53:14,11 Jun 2019 11:53:14,11 Jun 2019 11:53:14,11 Jun 2019 11:53:14,8,,,,0,0,8,146.60645,0.0,0.0,,423,,,0,778,,57.1%
https://p.adsymptotic.com,COMPLETE,200,https,CONNECT,,/127.0.0.1,50337,p.adsymptotic.com/104.18.99.194,443,,11 Jun 2019 11:53:14,,,11 Jun 2019 11:53:45,31251,21,1,235,,,,0.8105469,,,1352,0,944,22191,0,1469,,
https://beacon.krxd.net,COMPLETE,200,https,CONNECT,,/127.0.0.1,50338,beacon.krxd.net/54.225.168.34,443,,11 Jun 2019 11:53:14,,,11 Jun 2019 11:53:45,31251,25,8,238,,,,0.9658203,,,1474,0,414,28545,0,482,,
https://idpix.media6degrees.com,COMPLETE,200,https,CONNECT,,/127.0.0.1,50340,idpix.media6degrees.com/204.2.197.201,443,,11 Jun 2019 11:53:14,,,11 Jun 2019 11:53:14,315,39,1,223,,,,83.05371,,,1514,0,431,24075,0,770,,
https://sync.alphonso.tv,COMPLETE,200,https,CONNECT,,/127.0.0.1,50339,sync.alphonso.tv/104.129.168.238,443,,11 Jun 2019 11:53:14,,,11 Jun 2019 11:53:45,31237,17,5,218,,,,0.9433594,,,1479,0,391,27865,0,471,,
https://stags.bluekai.com,COMPLETE,200,https,CONNECT,,/127.0.0.1,50341,stags.bluekai.com/104.102.201.81,443,,11 Jun 2019 11:53:14,,,11 Jun 2019 11:53:45,31216,34,8,226,,,,0.74902344,,,1484,0,459,21242,0,786,,
https://aa.agkn.com,COMPLETE,200,https,CONNECT,,/127.0.0.1,50343,aa.agkn.com/156.154.200.36,443,,11 Jun 2019 11:53:14,,,11 Jun 2019 11:53:14,350,28,21,242,,,,64.52832,,,1454,0,402,20762,0,509,,
https://idsync.rlcdn.com,COMPLETE,200,https,CONNECT,,/127.0.0.1,50347,idsync.rlcdn.com/34.95.92.78,443,,11 Jun 2019 11:53:14,,,11 Jun 2019 11:53:45,31171,5,2,212,,,,0.8701172,,,1347,0,838,24510,0,1107,,
https://bsw.digitru.st,COMPLETE,200,https,CONNECT,,/127.0.0.1,50351,bsw.digitru.st/35.185.57.166,443,,11 Jun 2019 11:53:14,,,11 Jun 2019 11:53:25,10429,3,19,71,,,,3.4970703,,,1142,0,405,35144,0,658,,
https://d.agkn.com,COMPLETE,200,https,CONNECT,,/127.0.0.1,50353,d.agkn.com/54.85.113.113,443,,11 Jun 2019 11:53:14,,,11 Jun 2019 11:53:45,30864,28,9,37,,,,0.8671875,,,1449,0,384,25023,0,574,,
https://dt-secure.videohub.tv/v1/uid?UIBK=TRaNJBJv99OfIF2z,COMPLETE,200,https,GET,image/gif,/127.0.0.1,50280,dt-secure.videohub.tv/67.226.210.12,443,,11 Jun 2019 11:53:14,11 Jun 2019 11:53:14,11 Jun 2019 11:53:14,11 Jun 2019 11:53:14,12,,,,0,0,12,34.91211,0.0,0.0,,386,,,0,43,,
https://pippio.com,COMPLETE,200,https,CONNECT,,/127.0.0.1,50355,pippio.com/107.178.254.65,443,,11 Jun 2019 11:53:14,,,11 Jun 2019 11:53:45,30774,1,3,17,,,,0.8623047,,,1317,0,751,23570,0,1536,,
https://us-east-sync.bidswitch.net,COMPLETE,200,https,CONNECT,,/127.0.0.1,50357,us-east-sync.bidswitch.net/35.190.139.114,443,,11 Jun 2019 11:53:14,,,11 Jun 2019 11:53:25,10246,6,19,60,,,,3.678711,,,1190,0,430,36284,0,700,,
https://cm.g.doubleclick.net,COMPLETE,200,https,CONNECT,,/127.0.0.1,50359,cm.g.doubleclick.net/172.217.6.226,443,,11 Jun 2019 11:53:15,,,11 Jun 2019 11:53:45,30563,20,2,42,,,,0.54589844,,,1367,0,424,14329,0,969,,
https://objects-secure.tremormedia.com/net/js/adchoicesappicon.min.js?iconPosition=top-left&optOut=&iconClick=&playerWidth=770&playerHeight=1026&sources=&country=us,COMPLETE,200,https,GET,application/javascript,/127.0.0.1,50277,objects-secure.tremormedia.com/104.110.194.47,443,,11 Jun 2019 11:53:15,11 Jun 2019 11:53:15,11 Jun 2019 11:53:15,11 Jun 2019 11:53:15,17,,,,1,6,10,1002.6992,423.82812,2770.3447,,434,,,0,17021,,45.7%
https://tag.apxlv.com,COMPLETE,200,https,CONNECT,,/127.0.0.1,50361,tag.apxlv.com/162.223.54.6,443,,11 Jun 2019 11:53:15,,,11 Jun 2019 11:53:45,30330,2,15,49,,,,0.90234375,,,1464,0,368,25553,0,647,,
https://tag.cogocast.net,COMPLETE,200,https,CONNECT,,/127.0.0.1,50363,tag.cogocast.net/54.152.25.88,443,,11 Jun 2019 11:53:15,,,11 Jun 2019 11:53:45,30241,19,9,35,,,,1.1123047,,,1479,0,502,31563,0,923,,
https://gpush.cogocast.net,COMPLETE,200,https,CONNECT,,/127.0.0.1,50365,gpush.cogocast.net/162.223.54.16,443,,11 Jun 2019 11:53:15,,,11 Jun 2019 11:53:15,37,4,9,,,,,5.7265625,,,210,0,0,7,0,0,,
https://l0-secure.videohub.tv/ssframework/log/log.png?EC=40&a=logitemaction&nolog=1&ssPD=tremorvideodsp.com&Uzip=__postalCode__&ADI=7879076&PRI=273bdc5f-fb19-4f8b-937d-af86a2f8a9f9&Udma=__dma__&ssMLVer=rml_app_1.9.0&Uctry=__country__&AVI=425726&ssASVer=2.0&RI=1&Ust=__state__&NI=1344&admode=preroll&ssDsC=mobiletablet&ssRnd=2077072612&EvaF=1&pctVw=0,COMPLETE,200,https,GET,image/gif,/127.0.0.1,50290,l0-secure.videohub.tv/67.226.210.15,443,,11 Jun 2019 11:53:15,11 Jun 2019 11:53:15,11 Jun 2019 11:53:16,11 Jun 2019 11:53:16,187,,,,0,0,187,3.7597656,0.0,0.0,,677,,,0,43,,
https://s.tremorvideodsp.com/q/qa.gif?param1=screen_click,COMPLETE,200,https,GET,image/gif,/127.0.0.1,50275,s.tremorvideodsp.com/23.48.39.112,443,,11 Jun 2019 11:53:17,11 Jun 2019 11:53:17,11 Jun 2019 11:53:17,11 Jun 2019 11:53:17,50,,,,0,0,50,8.359375,0.0,0.0,,385,,,0,43,,
https://s.tremorvideodsp.com/q/qa.gif?param1=creative_click,COMPLETE,200,https,GET,image/gif,/127.0.0.1,50288,s.tremorvideodsp.com/23.48.39.112,443,,11 Jun 2019 11:53:17,11 Jun 2019 11:53:17,11 Jun 2019 11:53:17,11 Jun 2019 11:53:17,17,,,,0,1,16,24.701172,0.0,41.992188,,387,,,0,43,,
https://l0-secure.videohub.tv/ssframework/log/log.png?EC=2&a=logitemaction&nolog=1&ssPD=tremorvideodsp.com&Uzip=__postalCode__&ADI=7879076&PRI=273bdc5f-fb19-4f8b-937d-af86a2f8a9f9&Udma=__dma__&ssMLVer=rml_app_1.9.0&Uctry=__country__&AVI=425726&ssASVer=2.0&RI=1&Ust=__state__&NI=1344&admode=preroll&ssDsC=mobiletablet&ssRnd=792637162,COMPLETE,200,https,GET,image/gif,/127.0.0.1,50290,l0-secure.videohub.tv/67.226.210.15,443,,11 Jun 2019 11:53:17,11 Jun 2019 11:53:17,11 Jun 2019 11:53:17,11 Jun 2019 11:53:17,12,,,,0,1,11,57.20996,0.0,41.992188,,660,,,0,43,,
https://l0-secure.videohub.tv/ssframework/log/log.png?EC=4&a=logitemaction&nolog=1&ssPD=tremorvideodsp.com&Uzip=__postalCode__&ADI=7879076&PRI=273bdc5f-fb19-4f8b-937d-af86a2f8a9f9&Udma=__dma__&ssMLVer=rml_app_1.9.0&Uctry=__country__&AVI=425726&ssASVer=2.0&RI=1&Ust=__state__&NI=1344&admode=preroll&ssDsC=mobiletablet&ssRnd=2098567426&EiN=1,COMPLETE,200,https,GET,image/gif,/127.0.0.1,50290,l0-secure.videohub.tv/67.226.210.15,443,,11 Jun 2019 11:53:17,11 Jun 2019 11:53:17,11 Jun 2019 11:53:17,11 Jun 2019 11:53:17,13,,,,1,0,12,53.33496,651.3672,0.0,,667,,,0,43,,
https://tremorvideodsp.com,COMPLETE,200,https,CONNECT,,/127.0.0.1,50367,tremorvideodsp.com/67.226.210.15,443,,11 Jun 2019 11:53:17,,,11 Jun 2019 11:53:17,174,29,10,53,,,,161.78906,,,1404,0,540,25979,0,904,,
https://dt.scanscout.com,COMPLETE,200,https,CONNECT,,/127.0.0.1,50369,dt.scanscout.com/67.226.210.13,443,,11 Jun 2019 11:53:17,,,11 Jun 2019 11:53:22,5127,2,16,62,,,,6.709961,,,3096,0,536,31298,0,302,,
https://www.googletagmanager.com,RECEIVING_REQUEST_BODY,200,https,CONNECT,,/127.0.0.1,50371,www.googletagmanager.com/172.217.10.40,443,,11 Jun 2019 11:53:17,,,,119753,4,2,,,,,0.00390625,,,517,0,0,,0,0,,
https://www.tremorvideodsp.com,COMPLETE,200,https,CONNECT,,/127.0.0.1,50372,www.tremorvideodsp.com/35.172.177.65,443,,11 Jun 2019 11:53:17,,,11 Jun 2019 11:53:48,31082,58,11,48,,,,0.62402344,,,3024,0,2940,12406,0,1501,,
https://tremorvideodsp.com,COMPLETE,200,https,CONNECT,,/127.0.0.1,50373,tremorvideodsp.com/67.226.210.15,443,,11 Jun 2019 11:53:17,,,11 Jun 2019 11:53:22,5111,1,10,59,,,,6.767578,,,3096,0,507,31388,0,429,,
https://www.tremorvideodsp.com,COMPLETE,200,https,CONNECT,,/127.0.0.1,50377,www.tremorvideodsp.com/35.172.177.65,443,,11 Jun 2019 11:53:17,,,11 Jun 2019 11:53:48,30932,8,11,95,,,,0.48828125,,,1584,0,1076,12301,0,516,,
https://www.tremorvideodsp.com,COMPLETE,200,https,CONNECT,,/127.0.0.1,50379,www.tremorvideodsp.com/35.172.177.65,443,,11 Jun 2019 11:53:17,,,11 Jun 2019 11:53:48,30939,10,9,63,,,,0.4658203,,,1584,0,601,12301,0,299,,
https://www.tremorvideodsp.com,COMPLETE,200,https,CONNECT,,/127.0.0.1,50378,www.tremorvideodsp.com/35.172.177.65,443,,11 Jun 2019 11:53:17,,,11 Jun 2019 11:53:48,30934,12,7,55,,,,0.46484375,,,1584,0,566,12301,0,301,,
https://www.tremorvideodsp.com,COMPLETE,200,https,CONNECT,,/127.0.0.1,50383,www.tremorvideodsp.com/35.172.177.65,443,,11 Jun 2019 11:53:17,,,11 Jun 2019 11:53:47,30110,3,9,65,,,,0.47753906,,,1424,0,280,12301,0,744,,
https://www.google-analytics.com,RECEIVED_RESPONSE_HEADER,200,https,CONNECT,,/127.0.0.1,50385,www.google-analytics.com/172.217.11.46,443,,11 Jun 2019 11:53:18,,,,118817,26,2,,,,,0.00390625,,,517,0,0,,0,0,,
https://stats.g.doubleclick.net,RECEIVED_RESPONSE_HEADER,200,https,CONNECT,,/127.0.0.1,50387,stats.g.doubleclick.net/209.85.144.157,443,,11 Jun 2019 11:53:18,,,,118614,21,17,,,,,0.00390625,,,517,0,0,,0,0,,
https://www.google.com,RECEIVED_RESPONSE_HEADER,200,https,CONNECT,,/127.0.0.1,50389,www.google.com/172.217.10.4,443,,11 Jun 2019 11:53:18,,,,118519,18,2,,,,,0.00390625,,,517,0,0,,0,0,,
https://s.tremorvideodsp.com/q/qa.gif?param1=screen_click,COMPLETE,200,https,GET,image/gif,/127.0.0.1,50275,s.tremorvideodsp.com/23.48.39.112,443,,11 Jun 2019 11:53:30,11 Jun 2019 11:53:30,11 Jun 2019 11:53:30,11 Jun 2019 11:53:30,61,,,,0,1,60,6.8515625,0.0,41.992188,,385,,,0,43,,
https://s.tremorvideodsp.com/q/qa.gif?param1=creative_click,COMPLETE,200,https,GET,image/gif,/127.0.0.1,50288,s.tremorvideodsp.com/23.48.39.112,443,,11 Jun 2019 11:53:30,11 Jun 2019 11:53:30,11 Jun 2019 11:53:30,11 Jun 2019 11:53:30,27,,,,0,1,26,15.551758,0.0,41.992188,,387,,,0,43,,
https://l0-secure.videohub.tv/ssframework/log/log.png?EC=2&a=logitemaction&nolog=1&ssPD=tremorvideodsp.com&Uzip=__postalCode__&ADI=7879076&PRI=273bdc5f-fb19-4f8b-937d-af86a2f8a9f9&Udma=__dma__&ssMLVer=rml_app_1.9.0&Uctry=__country__&AVI=425726&ssASVer=2.0&RI=1&Ust=__state__&NI=1344&admode=preroll&ssDsC=mobiletablet&ssRnd=792637162,COMPLETE,200,https,GET,image/gif,/127.0.0.1,50290,l0-secure.videohub.tv/67.226.210.15,443,,11 Jun 2019 11:53:30,11 Jun 2019 11:53:30,11 Jun 2019 11:53:30,11 Jun 2019 11:53:30,102,,9,34,48,0,11,264.45605,34.79004,0.0,1050,660,,25869,0,43,,
https://s.tremorvideodsp.com/q/qa.gif?param1=screen_first_quartile,COMPLETE,200,https,GET,image/gif,/127.0.0.1,50275,s.tremorvideodsp.com/23.48.39.112,443,,11 Jun 2019 11:53:42,11 Jun 2019 11:53:42,11 Jun 2019 11:53:42,11 Jun 2019 11:53:42,30,,,,0,2,28,14.224609,0.0,20.996094,,394,,,0,43,,
https://l0-secure.videohub.tv/ssframework/log/log.png?EC=7&a=logitemaction&nolog=1&ssPD=tremorvideodsp.com&Uzip=__postalCode__&ADI=7879076&PRI=273bdc5f-fb19-4f8b-937d-af86a2f8a9f9&Udma=__dma__&ssMLVer=rml_app_1.9.0&Uctry=__country__&AVI=425726&ssASVer=2.0&RI=1&Ust=__state__&NI=1344&admode=preroll&ssDsC=mobiletablet&ssRnd=1405690928&Eipct=25&EiN=1,COMPLETE,200,https,GET,image/gif,/127.0.0.1,50290,l0-secure.videohub.tv/67.226.210.15,443,,11 Jun 2019 11:53:42,11 Jun 2019 11:53:42,11 Jun 2019 11:53:42,11 Jun 2019 11:53:42,109,,11,34,45,1,18,247.61621,37.456055,25304.688,1050,676,,25869,0,43,,
https://s.tremorvideodsp.com/q/qa.gif?param1=creative_first_quartile,COMPLETE,200,https,GET,image/gif,/127.0.0.1,50288,s.tremorvideodsp.com/23.48.39.112,443,,11 Jun 2019 11:53:42,11 Jun 2019 11:53:42,11 Jun 2019 11:53:42,11 Jun 2019 11:53:42,23,,,,0,0,23,18.638672,0.0,0.0,,396,,,0,43,,
https://www.tremorvideodsp.com,COMPLETE,200,https,CONNECT,,/127.0.0.1,50393,www.tremorvideodsp.com/35.172.177.65,443,,11 Jun 2019 11:53:47,,,11 Jun 2019 11:53:48,211,2,7,51,,,,209.33594,,,1584,0,268,10148,0,33230,,
https://l0-secure.videohub.tv/ssframework/log/log.png?EC=7&a=logitemaction&nolog=1&ssPD=tremorvideodsp.com&Uzip=__postalCode__&ADI=7879076&PRI=273bdc5f-fb19-4f8b-937d-af86a2f8a9f9&Udma=__dma__&ssMLVer=rml_app_1.9.0&Uctry=__country__&AVI=425726&ssASVer=2.0&RI=1&Ust=__state__&NI=1344&admode=preroll&ssDsC=mobiletablet&ssRnd=133096405&Eipct=50&EiN=1,COMPLETE,200,https,GET,image/gif,/127.0.0.1,50290,l0-secure.videohub.tv/67.226.210.15,443,,11 Jun 2019 11:53:57,11 Jun 2019 11:53:57,11 Jun 2019 11:53:57,11 Jun 2019 11:53:57,107,,10,34,45,0,18,252.23535,37.43457,0.0,1050,675,,25869,0,43,,
https://s.tremorvideodsp.com/q/qa.gif?param1=screen_second_quartile,COMPLETE,200,https,GET,image/gif,/127.0.0.1,50275,s.tremorvideodsp.com/23.48.39.112,443,,11 Jun 2019 11:53:57,11 Jun 2019 11:53:57,11 Jun 2019 11:53:57,11 Jun 2019 11:53:57,31,,,,0,0,31,13.797852,0.0,0.0,,395,,,0,43,,
https://s.tremorvideodsp.com/q/qa.gif?param1=creative_second_quartile,COMPLETE,200,https,GET,image/gif,/127.0.0.1,50288,s.tremorvideodsp.com/23.48.39.112,443,,11 Jun 2019 11:53:57,11 Jun 2019 11:53:57,11 Jun 2019 11:53:57,11 Jun 2019 11:53:57,28,,,,0,1,27,15.345703,0.0,41.992188,,397,,,0,43,,
https://s.tremorvideodsp.com/q/qa.gif?param1=screen_third_quartile,COMPLETE,200,https,GET,image/gif,/127.0.0.1,50275,s.tremorvideodsp.com/23.48.39.112,443,,11 Jun 2019 11:54:12,11 Jun 2019 11:54:12,11 Jun 2019 11:54:13,11 Jun 2019 11:54:13,29,,,,0,0,29,14.714844,0.0,0.0,,394,,,0,43,,
https://l0-secure.videohub.tv/ssframework/log/log.png?EC=7&a=logitemaction&nolog=1&ssPD=tremorvideodsp.com&Uzip=__postalCode__&ADI=7879076&PRI=273bdc5f-fb19-4f8b-937d-af86a2f8a9f9&Udma=__dma__&ssMLVer=rml_app_1.9.0&Uctry=__country__&AVI=425726&ssASVer=2.0&RI=1&Ust=__state__&NI=1344&admode=preroll&ssDsC=mobiletablet&ssRnd=1684193871&Eipct=75&EiN=1,COMPLETE,200,https,GET,image/gif,/127.0.0.1,50290,l0-secure.videohub.tv/67.226.210.15,443,,11 Jun 2019 11:54:12,11 Jun 2019 11:54:13,11 Jun 2019 11:54:13,11 Jun 2019 11:54:13,94,,10,30,41,0,13,287.12988,41.11035,0.0,1050,676,,25869,0,43,,
https://s.tremorvideodsp.com/q/qa.gif?param1=creative_third_quartile,COMPLETE,200,https,GET,image/gif,/127.0.0.1,50288,s.tremorvideodsp.com/23.48.39.112,443,,11 Jun 2019 11:54:12,11 Jun 2019 11:54:12,11 Jun 2019 11:54:13,11 Jun 2019 11:54:13,26,,,,0,0,26,16.488281,0.0,0.0,,396,,,0,43,,
https://l0-secure.videohub.tv/ssframework/log/log.png?EC=38&a=logitemaction&nolog=1&ssPD=tremorvideodsp.com&Uzip=__postalCode__&ADI=7879076&PRI=273bdc5f-fb19-4f8b-937d-af86a2f8a9f9&Udma=__dma__&ssMLVer=rml_app_1.9.0&Uctry=__country__&AVI=425726&ssASVer=2.0&RI=1&Ust=__state__&NI=1344&admode=preroll&ssDsC=mobiletablet&ssRnd=1774212307&EvaF=1&pctVw=100,COMPLETE,200,https,GET,image/gif,/127.0.0.1,50290,l0-secure.videohub.tv/67.226.210.15,443,,11 Jun 2019 11:54:25,11 Jun 2019 11:54:25,11 Jun 2019 11:54:25,11 Jun 2019 11:54:25,95,,9,31,41,0,14,284.1377,41.18164,0.0,1050,679,,25869,0,43,,
https://l0-secure.videohub.tv/ssframework/log/log.png?EC=7&a=logitemaction&nolog=1&ssPD=tremorvideodsp.com&Uzip=__postalCode__&ADI=7879076&PRI=273bdc5f-fb19-4f8b-937d-af86a2f8a9f9&Udma=__dma__&ssMLVer=rml_app_1.9.0&Uctry=__country__&AVI=425726&ssASVer=2.0&RI=1&Ust=__state__&NI=1344&admode=preroll&ssDsC=mobiletablet&ssRnd=32681221&Eipct=100&RcpF=1&EiN=1,COMPLETE,200,https,GET,image/gif,/127.0.0.1,50290,l0-secure.videohub.tv/67.226.210.15,443,,11 Jun 2019 11:54:27,11 Jun 2019 11:54:27,11 Jun 2019 11:54:27,11 Jun 2019 11:54:27,12,,,,0,1,11,59.0,0.0,41.992188,,682,,,0,43,,
https://s.tremorvideodsp.com/q/qa.gif?param1=screen_completion,COMPLETE,200,https,GET,image/gif,/127.0.0.1,50275,s.tremorvideodsp.com/23.48.39.112,443,,11 Jun 2019 11:54:27,11 Jun 2019 11:54:27,11 Jun 2019 11:54:27,11 Jun 2019 11:54:27,37,,,,0,0,37,11.427734,0.0,0.0,,390,,,0,43,,
https://s.tremorvideodsp.com/q/qa.gif?param1=creative_completion,COMPLETE,200,https,GET,image/gif,/127.0.0.1,50288,s.tremorvideodsp.com/23.48.39.112,443,,11 Jun 2019 11:54:27,11 Jun 2019 11:54:27,11 Jun 2019 11:54:27,11 Jun 2019 11:54:27,31,,,,0,0,31,13.703125,0.0,0.0,,392,,,0,43,,
https://s.tremorvideodsp.com/q/video1_small.mp4,COMPLETE,206,https,GET,video/mp4,/127.0.0.1,50398,s.tremorvideodsp.com/23.48.39.121,443,,11 Jun 2019 11:54:28,11 Jun 2019 11:54:28,11 Jun 2019 11:54:28,11 Jun 2019 11:54:28,129,62,8,30,0,0,29,124.65918,0.0,0.0,1058,358,,15049,0,2,,
https://s.tremorvideodsp.com/q/video1_small.mp4,COMPLETE,206,https,GET,video/mp4,/127.0.0.1,50398,s.tremorvideodsp.com/23.48.39.121,443,,11 Jun 2019 11:54:28,11 Jun 2019 11:54:28,11 Jun 2019 11:54:28,11 Jun 2019 11:54:28,46,,,,0,12,34,1398.9893,0.0,5333.333,,362,,,0,65536,,
https://s.tremorvideodsp.com/q/video1_small.mp4,COMPLETE,206,https,GET,video/mp4,/127.0.0.1,50398,s.tremorvideodsp.com/23.48.39.121,443,,11 Jun 2019 11:54:28,11 Jun 2019 11:54:28,11 Jun 2019 11:54:28,11 Jun 2019 11:54:28,30,,,,0,8,22,2145.3125,0.0,8000.0,,368,,,0,65536,,
https://s.tremorvideodsp.com/q/video1_small.mp4,COMPLETE,206,https,GET,video/mp4,/127.0.0.1,50400,s.tremorvideodsp.com/23.48.39.121,443,,11 Jun 2019 11:54:28,11 Jun 2019 11:54:28,11 Jun 2019 11:54:28,11 Jun 2019 11:54:29,818,2,9,25,0,750,32,11827.284,0.0,12897.861,986,368,,14959,0,9890599,,
https://s.tremorvideodsp.com/q/video1_small.mp4,COMPLETE,206,https,GET,video/mp4,/127.0.0.1,50398,s.tremorvideodsp.com/23.48.39.121,443,,11 Jun 2019 11:54:28,11 Jun 2019 11:54:28,11 Jun 2019 11:54:28,11 Jun 2019 11:54:28,29,,,,0,5,24,2219.288,0.0,12800.0,,368,,,0,65536,,
https://jwpltx.com,COMPLETE,200,https,CONNECT,,/127.0.0.1,50402,jwpltx.com/52.200.42.178,443,,11 Jun 2019 11:54:29,,,11 Jun 2019 11:55:02,33520,12,65,65,,,,1.0087891,,,1449,0,1204,31731,0,264,,
https://prd.jwpltx.com,COMPLETE,200,https,CONNECT,,/127.0.0.1,50403,prd.jwpltx.com/52.55.96.211,443,,11 Jun 2019 11:54:29,,,11 Jun 2019 11:54:59,30223,68,10,75,,,,0.9316406,,,1469,0,892,26340,0,132,,
https://entitlements.jwplayer.com,COMPLETE,200,https,CONNECT,,/127.0.0.1,50406,entitlements.jwplayer.com/72.21.81.189,443,,11 Jun 2019 11:54:31,,,11 Jun 2019 11:55:02,30531,1,2,75,,,,1.1464844,,,1524,0,317,33541,0,464,,
https://s.tremorvideodsp.com/q/video1_small.mp4,COMPLETE,206,https,GET,video/mp4,/127.0.0.1,50408,s.tremorvideodsp.com/23.48.39.121,443,,11 Jun 2019 11:54:32,11 Jun 2019 11:54:32,11 Jun 2019 11:54:32,11 Jun 2019 11:54:32,56,2,8,24,0,1,21,287.16113,0.0,14698.242,1058,358,,15049,0,2,,
https://chat-pa.clients6.google.com,RECEIVING_REQUEST_BODY,200,https,CONNECT,,/127.0.0.1,50410,chat-pa.clients6.google.com/172.217.10.106,443,,11 Jun 2019 11:54:32,,,,44879,20,2,,,,,0.0107421875,,,517,0,0,,0,0,,
https://s.tremorvideodsp.com/q/video1_small.mp4,COMPLETE,206,https,GET,video/mp4,/127.0.0.1,50408,s.tremorvideodsp.com/23.48.39.121,443,,11 Jun 2019 11:54:32,11 Jun 2019 11:54:32,11 Jun 2019 11:54:32,11 Jun 2019 11:54:32,37,,,,0,12,25,1739.2842,0.0,5333.333,,362,,,0,65536,,
https://chat-pa.clients6.google.com,RECEIVING_REQUEST_BODY,200,https,CONNECT,,/127.0.0.1,50412,chat-pa.clients6.google.com/172.217.10.106,443,,11 Jun 2019 11:54:32,,,,44813,1,2,,,,,0.0107421875,,,517,0,0,,0,0,,
https://s.tremorvideodsp.com/q/video1_small.mp4,COMPLETE,206,https,GET,video/mp4,/127.0.0.1,50408,s.tremorvideodsp.com/23.48.39.121,443,,11 Jun 2019 11:54:32,11 Jun 2019 11:54:32,11 Jun 2019 11:54:32,11 Jun 2019 11:54:32,33,,,,0,5,28,1950.2832,0.0,12800.0,,368,,,0,65536,,
https://s.tremorvideodsp.com/q/video1_small.mp4,COMPLETE,206,https,GET,video/mp4,/127.0.0.1,50414,s.tremorvideodsp.com/23.48.39.121,443,com.xk72.proxy.ProxyException: Client closed connection before receiving entire response,11 Jun 2019 11:54:32,11 Jun 2019 11:54:32,11 Jun 2019 11:54:32,11 Jun 2019 11:54:32,219,3,8,26,0,141,41,5145.6455,0.0,7982.795,986,368,,14959,0,1137629,,
https://s.tremorvideodsp.com/q/video1_small.mp4,COMPLETE,206,https,GET,video/mp4,/127.0.0.1,50408,s.tremorvideodsp.com/23.48.39.121,443,,11 Jun 2019 11:54:32,11 Jun 2019 11:54:32,11 Jun 2019 11:54:32,11 Jun 2019 11:54:32,34,,,,0,5,29,1892.9219,0.0,12800.0,,368,,,0,65536,,
https://play.google.com,RECEIVING_REQUEST_BODY,200,https,CONNECT,,/127.0.0.1,50416,play.google.com/172.217.3.110,443,,11 Jun 2019 11:54:52,,,,24883,1,3,4,,,,0.24511719,,,1608,0,3295,372,0,994,,
https://play.google.com,RECEIVING_REQUEST_BODY,200,https,CONNECT,,/127.0.0.1,50418,play.google.com/172.217.3.110,443,,11 Jun 2019 11:55:12,,,,4884,1,2,,,,,0.10253906,,,517,0,0,,0,0,,
